<?xml version="1.0" encoding="UTF-8" standalone="no"?>
<!-- Created with Inkscape (http://www.inkscape.org/) -->

<svg
   xmlns:dc="http://purl.org/dc/elements/1.1/"
   xmlns:cc="http://creativecommons.org/ns#"
   xmlns:rdf="http://www.w3.org/1999/02/22-rdf-syntax-ns#"
   xmlns:svg="http://www.w3.org/2000/svg"
   xmlns="http://www.w3.org/2000/svg"
   xmlns:xlink="http://www.w3.org/1999/xlink"
   xmlns:sodipodi="http://sodipodi.sourceforge.net/DTD/sodipodi-0.dtd"
   xmlns:inkscape="http://www.inkscape.org/namespaces/inkscape"
   width="138.54472mm"
   height="68.776321mm"
   viewBox="0 0 138.54472 68.776321"
   version="1.1"
   id="svg8"
   inkscape:version="0.92.3 (2405546, 2018-03-11)"
   sodipodi:docname="dogma.svg">
  <defs
     id="defs2">
    <linearGradient
       inkscape:collect="always"
       id="linearGradient1207">
      <stop
         style="stop-color:#000000;stop-opacity:1;"
         offset="0"
         id="stop1203" />
      <stop
         style="stop-color:#000000;stop-opacity:0;"
         offset="1"
         id="stop1205" />
    </linearGradient>
    <linearGradient
       inkscape:collect="always"
       id="linearGradient1199">
      <stop
         style="stop-color:#000000;stop-opacity:1;"
         offset="0"
         id="stop1195" />
      <stop
         style="stop-color:#000000;stop-opacity:0;"
         offset="1"
         id="stop1197" />
    </linearGradient>
    <linearGradient
       inkscape:collect="always"
       id="linearGradient1191">
      <stop
         style="stop-color:#000000;stop-opacity:1;"
         offset="0"
         id="stop1187" />
      <stop
         style="stop-color:#000000;stop-opacity:0;"
         offset="1"
         id="stop1189" />
    </linearGradient>
    <marker
       inkscape:stockid="Arrow1Send"
       orient="auto"
       refY="0"
       refX="0"
       id="Arrow1Send"
       style="overflow:visible"
       inkscape:isstock="true">
      <path
         id="path844"
         d="M 0,0 5,-5 -12.5,0 5,5 Z"
         style="fill:#5287b0;fill-opacity:1;fill-rule:evenodd;stroke:#5287b0;stroke-width:1.00000003pt;stroke-opacity:1"
         transform="matrix(-0.2,0,0,-0.2,-1.2,0)"
         inkscape:connector-curvature="0" />
    </marker>
    <marker
       inkscape:stockid="Arrow1Sstart"
       orient="auto"
       refY="0"
       refX="0"
       id="Arrow1Sstart"
       style="overflow:visible"
       inkscape:isstock="true">
      <path
         id="path841"
         d="M 0,0 5,-5 -12.5,0 5,5 Z"
         style="fill:#000000;fill-opacity:1;fill-rule:evenodd;stroke:#000000;stroke-width:1.00000003pt;stroke-opacity:1"
         transform="matrix(0.2,0,0,0.2,1.2,0)"
         inkscape:connector-curvature="0" />
    </marker>
    <linearGradient
       inkscape:collect="always"
       xlink:href="#linearGradient1191"
       id="linearGradient1193"
       x1="120.30042"
       y1="101.14227"
       x2="148.44133"
       y2="101.14227"
       gradientUnits="userSpaceOnUse" />
    <linearGradient
       inkscape:collect="always"
       xlink:href="#linearGradient1199"
       id="linearGradient1201"
       x1="73.795532"
       y1="64.596642"
       x2="90.906631"
       y2="64.596642"
       gradientUnits="userSpaceOnUse" />
    <linearGradient
       inkscape:collect="always"
       xlink:href="#linearGradient1207"
       id="linearGradient1209"
       x1="28.092447"
       y1="30.386127"
       x2="45.831932"
       y2="30.386127"
       gradientUnits="userSpaceOnUse" />
    <marker
       inkscape:stockid="Arrow1Send"
       orient="auto"
       refY="0"
       refX="0"
       id="Arrow1Send-3"
       style="overflow:visible"
       inkscape:isstock="true">
      <path
         inkscape:connector-curvature="0"
         id="path844-6"
         d="M 0,0 5,-5 -12.5,0 5,5 Z"
         style="fill:#5287b0;fill-opacity:1;fill-rule:evenodd;stroke:#5287b0;stroke-width:1.00000003pt;stroke-opacity:1"
         transform="matrix(-0.2,0,0,-0.2,-1.2,0)" />
    </marker>
  </defs>
  <sodipodi:namedview
     id="base"
     pagecolor="#ffffff"
     bordercolor="#666666"
     borderopacity="1.0"
     inkscape:pageopacity="0.0"
     inkscape:pageshadow="2"
     inkscape:zoom="1.979899"
     inkscape:cx="121.6812"
     inkscape:cy="68.373422"
     inkscape:document-units="mm"
     inkscape:current-layer="layer1"
     showgrid="false"
     inkscape:window-width="2560"
     inkscape:window-height="1385"
     inkscape:window-x="0"
     inkscape:window-y="27"
     inkscape:window-maximized="1" />
  <metadata
     id="metadata5">
    <rdf:RDF>
      <cc:Work
         rdf:about="">
        <dc:format>image/svg+xml</dc:format>
        <dc:type
           rdf:resource="http://purl.org/dc/dcmitype/StillImage" />
        <dc:title />
      </cc:Work>
    </rdf:RDF>
  </metadata>
  <g
     inkscape:label="Layer 1"
     inkscape:groupmode="layer"
     id="layer1"
     transform="translate(-23.810762,-22.736389)">
    <text
       xml:space="preserve"
       style="font-style:normal;font-weight:normal;font-size:8.46666622px;line-height:1.25;font-family:sans-serif;letter-spacing:0px;word-spacing:0px;fill:#5287b0;fill-opacity:1;stroke:none;stroke-width:0.26458332"
       x="22.979805"
       y="91.512711"
       id="text817"><tspan
         sodipodi:role="line"
         id="tspan815"
         x="22.979805"
         y="91.512711"
         style="fill:#5287b0;fill-opacity:1;stroke-width:0.26458332">DNA</tspan></text>
    <text
       xml:space="preserve"
       style="font-style:normal;font-weight:normal;font-size:8.46666622px;line-height:1.25;font-family:sans-serif;letter-spacing:0px;word-spacing:0px;fill:#5287b0;fill-opacity:1;stroke:none;stroke-width:0.26458332"
       x="79.886726"
       y="58.163116"
       id="text821"><tspan
         sodipodi:role="line"
         id="tspan819"
         x="79.886726"
         y="58.163116"
         style="fill:#5287b0;fill-opacity:1;stroke-width:0.26458332">RNA</tspan></text>
    <text
       xml:space="preserve"
       style="font-style:normal;font-weight:normal;font-size:8.46666622px;line-height:1.25;font-family:sans-serif;letter-spacing:0px;word-spacing:0px;fill:#5287b0;fill-opacity:1;stroke:none;stroke-width:0.26458332"
       x="133.38361"
       y="29.169071"
       id="text825"><tspan
         sodipodi:role="line"
         id="tspan823"
         x="133.38361"
         y="29.169071"
         style="fill:#5287b0;fill-opacity:1;stroke-width:0.26458332">Protein</tspan></text>
    <path
       style="fill:#5287b0;fill-opacity:1;stroke-width:0.99999988"
       d="m 98.209222,61.5881 c 0.0137,-0.857319 0.0456,-1.353414 0.0899,-1.396559 0.009,-0.009 0.430547,-0.01471 1.697001,-0.02315 0.926647,-0.0062 1.721727,-0.0137 1.766837,-0.01664 l 0.082,-0.0054 0.006,-0.637302 c 0.0224,-2.363334 0.0288,-2.931197 0.0336,-2.96023 l 0.005,-0.0328 0.0922,-9.7e-5 c 0.0507,0 0.79132,-0.01591 1.64584,-0.03525 0.85451,-0.01934 1.61768,-0.03521 1.69593,-0.03526 l 0.14227,-1.02e-4 0.006,-0.305183 c 0.004,-0.167848 0.0134,-0.965737 0.0221,-1.773088 0.009,-0.807346 0.0181,-1.500325 0.0211,-1.539954 l 0.005,-0.07205 0.21363,-0.0061 c 0.11749,-0.0033 0.58363,-0.01072 1.03586,-0.01635 0.91553,-0.01142 1.62778,-0.02546 2.05304,-0.04039 0.23089,-0.0081 0.28452,-0.01268 0.29365,-0.02501 0.0215,-0.02906 0.033,-0.348433 0.0645,-1.785761 0.0264,-1.204562 0.0466,-1.752783 0.0664,-1.804554 0.004,-0.01064 0.18978,-0.01444 0.96556,-0.01986 0.52827,-0.0037 1.33163,-0.0097 1.78524,-0.01337 l 0.82476,-0.0066 v -1.819411 -1.819363 h 2.71046 2.71046 l -0.007,0.522089 c -0.009,0.716688 -0.0301,1.234136 -0.0535,1.330645 -0.005,0.02085 -0.0118,0.02184 -0.18857,0.02737 -0.1008,0.0033 -0.89354,0.01057 -1.76162,0.0165 -0.86808,0.0059 -1.58021,0.01264 -1.58249,0.01492 -0.002,0.0022 -0.009,0.814434 -0.0157,1.804775 -0.006,0.990345 -0.0141,1.803129 -0.0171,1.806187 -0.006,0.0055 -0.72922,0.01624 -2.44592,0.03621 -1.03028,0.01197 -1.13197,0.01403 -1.14088,0.02291 -0.004,0.0037 -0.0167,0.821856 -0.0293,1.818397 -0.0125,0.996541 -0.0245,1.813392 -0.0266,1.815222 -0.002,0.0018 -0.80959,0.01337 -1.7945,0.02564 -0.98491,0.01226 -1.79286,0.02442 -1.79544,0.02696 -0.002,0.0026 -0.0149,0.819923 -0.0273,1.816365 -0.0124,0.996443 -0.0255,1.814539 -0.0289,1.817997 -0.003,0.0034 -0.0956,0.0074 -0.20469,0.0088 -0.10914,0.0014 -0.77046,0.0093 -1.4696,0.01746 -0.69915,0.0082 -1.426,0.01794 -1.61522,0.02156 l -0.34404,0.0066 -0.006,0.551015 c -0.004,0.30306 -0.009,1.128727 -0.0131,1.834807 l -0.007,1.283782 H 100.935 98.200922 Z"
       id="path879-3"
       inkscape:connector-curvature="0" />
    <path
       style="fill:#5287b0;fill-opacity:1;stroke-width:0.99999988"
       d="m 112.78369,47.078555 c 0.0137,-0.857319 0.0456,-1.353414 0.0899,-1.396559 0.009,-0.009 0.43055,-0.01471 1.69701,-0.02315 0.92665,-0.0062 1.72173,-0.0137 1.76684,-0.01664 l 0.082,-0.0054 0.006,-0.637302 c 0.0224,-2.363334 0.0288,-2.931197 0.0336,-2.96023 l 0.005,-0.0328 0.0922,-9.7e-5 c 0.0507,0 0.79132,-0.01591 1.64584,-0.03525 0.85451,-0.01934 1.61768,-0.03521 1.69593,-0.03526 l 0.14227,-1.02e-4 0.006,-0.305183 c 0.004,-0.167848 0.0134,-0.965737 0.0221,-1.773088 0.009,-0.807346 0.0181,-1.500325 0.0211,-1.539954 l 0.005,-0.07205 0.21363,-0.0061 c 0.11749,-0.0033 0.58363,-0.01072 1.03586,-0.01635 0.91553,-0.01142 1.62778,-0.02546 2.05304,-0.04039 0.23089,-0.0081 0.28452,-0.01268 0.29365,-0.02501 0.0215,-0.02906 0.033,-0.348433 0.0645,-1.785761 0.0264,-1.204562 0.0466,-1.752783 0.0664,-1.804554 0.004,-0.01064 0.18978,-0.01444 0.96556,-0.01986 0.52827,-0.0037 1.33163,-0.0097 1.78524,-0.01337 l 0.82476,-0.0066 v -1.819409 -1.819363 h 2.71045 2.71046 l -0.007,0.522089 c -0.009,0.716688 -0.0301,1.234136 -0.0535,1.330645 -0.005,0.02085 -0.0118,0.02184 -0.18857,0.02737 -0.1008,0.0033 -0.89354,0.01057 -1.76162,0.0165 -0.86808,0.0059 -1.58021,0.01264 -1.58249,0.01492 -0.002,0.0022 -0.009,0.814434 -0.0157,1.804775 -0.006,0.990345 -0.0141,1.803129 -0.0171,1.806187 -0.006,0.0055 -0.72922,0.01624 -2.44592,0.03621 -1.03028,0.01197 -1.13197,0.01403 -1.14088,0.02291 -0.004,0.0037 -0.0167,0.821856 -0.0293,1.818397 -0.0125,0.996541 -0.0245,1.813392 -0.0266,1.815222 -0.002,0.0018 -0.80959,0.01337 -1.7945,0.02564 -0.98491,0.01226 -1.79286,0.02442 -1.79544,0.02696 -0.002,0.0026 -0.0149,0.819923 -0.0273,1.816365 -0.0124,0.996443 -0.0255,1.814539 -0.0289,1.817997 -0.003,0.0034 -0.0956,0.0074 -0.20469,0.0088 -0.10914,0.0014 -0.77046,0.0093 -1.4696,0.01746 -0.69915,0.0082 -1.426,0.01794 -1.61522,0.02156 l -0.34404,0.0066 -0.006,0.551015 c -0.004,0.30306 -0.009,1.128727 -0.0131,1.834807 l -0.007,1.283782 h -2.73409 -2.73409 z"
       id="path879-3-3"
       inkscape:connector-curvature="0" />
    <path
       style="fill:#5287b0;fill-opacity:1;stroke-width:0.99999988"
       d="m 45.540349,90.845726 c 0.0137,-0.857319 0.0456,-1.353413 0.0899,-1.396559 0.009,-0.009 0.43055,-0.01471 1.69701,-0.02315 0.92665,-0.0062 1.72173,-0.01371 1.76684,-0.01664 l 0.082,-0.0054 0.006,-0.637302 c 0.0224,-2.363334 0.0288,-2.931197 0.0336,-2.96023 l 0.005,-0.0328 0.0922,-9.7e-5 c 0.0507,0 0.79132,-0.01591 1.64584,-0.03525 0.85451,-0.01934 1.617684,-0.03521 1.695934,-0.03526 l 0.14227,-1.02e-4 0.006,-0.305183 c 0.004,-0.167848 0.0134,-0.965737 0.0221,-1.773088 0.009,-0.807346 0.0181,-1.500325 0.0211,-1.539954 l 0.005,-0.07205 0.21363,-0.0061 c 0.11749,-0.0033 0.58363,-0.01072 1.03586,-0.01635 0.91553,-0.01142 1.62778,-0.02546 2.05304,-0.04039 0.23089,-0.0081 0.28452,-0.01268 0.29365,-0.02501 0.0215,-0.02906 0.033,-0.348433 0.0645,-1.785761 0.0264,-1.204562 0.0466,-1.752782 0.0664,-1.804553 0.004,-0.01064 0.18978,-0.01444 0.96556,-0.01986 0.52827,-0.0037 1.33163,-0.0097 1.78524,-0.01337 l 0.82476,-0.0066 v -1.819413 -1.819363 h 2.71045 2.71046 l -0.007,0.522089 c -0.009,0.716688 -0.0301,1.234136 -0.0535,1.330645 -0.005,0.02085 -0.0118,0.02184 -0.18857,0.02737 -0.1008,0.0033 -0.89354,0.01057 -1.76162,0.0165 -0.86808,0.0059 -1.58021,0.01264 -1.58249,0.01492 -0.002,0.0022 -0.009,0.814434 -0.0157,1.804775 -0.006,0.990345 -0.0141,1.80313 -0.0171,1.806187 -0.006,0.0055 -0.72922,0.01624 -2.44592,0.03621 -1.03028,0.01197 -1.13197,0.01403 -1.14088,0.02291 -0.004,0.0037 -0.0167,0.821856 -0.0293,1.818397 -0.0125,0.996541 -0.0245,1.813392 -0.0266,1.815222 -0.002,0.0018 -0.80959,0.01337 -1.7945,0.02564 -0.98491,0.01226 -1.79286,0.02442 -1.79544,0.02696 -0.002,0.0026 -0.0149,0.819923 -0.0273,1.816365 -0.0124,0.996442 -0.0255,1.814539 -0.0289,1.817997 -0.003,0.0034 -0.0956,0.0074 -0.20469,0.0088 -0.10914,0.0013 -0.77046,0.0093 -1.4696,0.01746 -0.699148,0.0082 -1.425998,0.01794 -1.615218,0.02156 l -0.34404,0.0066 -0.006,0.551016 c -0.004,0.303059 -0.009,1.128726 -0.0131,1.834806 l -0.007,1.283782 h -2.734088 -2.73409 z"
       id="path879-3-6"
       inkscape:connector-curvature="0" />
    <path
       style="fill:#5287b0;fill-opacity:1;stroke-width:0.99999988"
       d="m 60.114833,76.336181 c 0.0137,-0.857319 0.0456,-1.353414 0.0899,-1.396559 0.009,-0.009 0.43055,-0.01471 1.69701,-0.02315 0.92665,-0.0062 1.72173,-0.0137 1.76684,-0.01664 l 0.082,-0.0054 0.006,-0.637302 c 0.0224,-2.363334 0.0288,-2.931197 0.0336,-2.96023 l 0.005,-0.0328 0.0922,-9.7e-5 c 0.0507,0 0.79132,-0.01591 1.64584,-0.03525 0.85451,-0.01934 1.61768,-0.03521 1.69593,-0.03526 l 0.14227,-1.02e-4 0.006,-0.305183 c 0.004,-0.167848 0.0134,-0.965737 0.0221,-1.773088 0.009,-0.807346 0.0181,-1.500325 0.0211,-1.539954 l 0.005,-0.07205 0.21363,-0.0061 c 0.11749,-0.0033 0.58363,-0.01072 1.035863,-0.01635 0.915527,-0.01142 1.627771,-0.02546 2.053028,-0.04039 0.23089,-0.0081 0.28452,-0.01268 0.29365,-0.02501 0.0215,-0.02906 0.033,-0.348433 0.0645,-1.785761 0.0264,-1.204562 0.0466,-1.752783 0.0664,-1.804554 0.004,-0.01064 0.189777,-0.01444 0.965554,-0.01986 0.528267,-0.0037 1.331621,-0.0097 1.785228,-0.01337 l 0.824757,-0.0066 v -1.819407 -1.819363 h 2.710435 24.406292 l 1.82413,1.878126 c -5.468168,0 13.03205,-0.135249 -25.530658,0.01848 -0.868074,0.0059 -1.580201,0.01264 -1.582481,0.01492 -0.002,0.0022 -0.009,0.814434 -0.0157,1.804775 -0.006,0.990345 -0.0141,1.803129 -0.0171,1.806187 -0.006,0.0055 -0.729217,0.01624 -2.445908,0.03621 -1.030274,0.01197 -1.131964,0.01403 -1.140874,0.02291 -0.004,0.0037 -0.0167,0.821856 -0.0293,1.818397 -0.0125,0.996541 -0.0245,1.813392 -0.0266,1.815222 -0.002,0.0018 -0.809584,0.01337 -1.794488,0.02564 -0.984904,0.01226 -1.792851,0.02442 -1.795431,0.02696 -0.002,0.0026 -0.0149,0.819923 -0.0273,1.816365 -0.0124,0.996443 -0.0255,1.814539 -0.0289,1.817997 -0.003,0.0034 -0.0956,0.0074 -0.204687,0.0088 -0.10914,0.0014 -0.770463,0.0093 -1.469603,0.01746 -0.69915,0.0082 -1.426,0.01794 -1.61522,0.02156 l -0.34404,0.0066 -0.006,0.551015 c -0.004,0.30306 -0.009,1.128727 -0.0131,1.834807 l -0.007,1.283782 h -2.7341 -2.73409 z"
       id="path879-3-3-7"
       inkscape:connector-curvature="0"
       sodipodi:nodetypes="cccccccccsccccccccccccccccccccccccccccccsccccccccccc" />
  </g>
</svg>
