<?xml version="1.0" encoding="UTF-8" standalone="no"?>
<svg
   xmlns:dc="http://purl.org/dc/elements/1.1/"
   xmlns:cc="http://creativecommons.org/ns#"
   xmlns:rdf="http://www.w3.org/1999/02/22-rdf-syntax-ns#"
   xmlns:svg="http://www.w3.org/2000/svg"
   xmlns="http://www.w3.org/2000/svg"
   xmlns:sodipodi="http://sodipodi.sourceforge.net/DTD/sodipodi-0.dtd"
   xmlns:inkscape="http://www.inkscape.org/namespaces/inkscape"
   width="459.13074"
   height="316.64981"
   style="color:#000000;font-style:normal;font-variant:normal;font-weight:normal;font-stretch:normal;font-size:12px;line-height:normal;font-family:verdana, arial, helvetica, geneva, sans-serif;text-indent:0px;text-align:start;text-decoration:none;text-decoration-line:none;text-decoration-style:solid;text-decoration-color:#000000;letter-spacing:normal;word-spacing:0px;text-transform:none;direction:ltr;baseline-shift:0px;text-anchor:start;white-space:normal;clip-rule:nonzero;display:inline;visibility:visible;opacity:1;isolation:auto;mix-blend-mode:normal;color-interpolation:sRGB;color-interpolation-filters:linearRGB;fill:#000000;fill-opacity:1;fill-rule:nonzero;stroke:none;stroke-width:1px;stroke-linecap:butt;stroke-linejoin:miter;stroke-miterlimit:4;stroke-dasharray:none;stroke-dashoffset:0px;stroke-opacity:1;marker-start:none;marker-mid:none;marker-end:none;paint-order:fill stroke markers;color-rendering:auto;image-rendering:auto;shape-rendering:auto;text-rendering:auto"
   version="1.1"
   id="svg2"
   mask="none"
   clip-path="none"
   inkscape:version="0.91 r13725"
   sodipodi:docname="Fig2.2.svg"
   inkscape:export-filename="/home/ogris/Documents/phd-thesis/2/figures/brca1.png"
   inkscape:export-xdpi="90"
   inkscape:export-ydpi="90">
  <metadata
     id="metadata262">
    <rdf:RDF>
      <cc:Work
         rdf:about="">
        <dc:format>image/svg+xml</dc:format>
        <dc:type
           rdf:resource="http://purl.org/dc/dcmitype/StillImage" />
        <dc:title />
      </cc:Work>
    </rdf:RDF>
  </metadata>
  <defs
     id="defs260" />
  <sodipodi:namedview
     pagecolor="#ffffff"
     bordercolor="#666666"
     borderopacity="1"
     objecttolerance="10"
     gridtolerance="10"
     guidetolerance="10"
     inkscape:pageopacity="0"
     inkscape:pageshadow="2"
     inkscape:window-width="1920"
     inkscape:window-height="1176"
     id="namedview258"
     showgrid="false"
     inkscape:zoom="1.126956"
     inkscape:cx="365.82847"
     inkscape:cy="73.049628"
     inkscape:window-x="1920"
     inkscape:window-y="24"
     inkscape:window-maximized="1"
     inkscape:current-layer="g130"
     fit-margin-top="0"
     fit-margin-left="0"
     fit-margin-right="0"
     fit-margin-bottom="0" />
  <style
     type="text/css"
     id="style4">* { margin: 0px; padding: 0px; }
.query, .queryOrtholog { border: 1px solid rgb(153, 153, 153); border-radius: 4px; padding-left: 2px; padding-right: 2px; text-decoration: none; }
.query { background-color: rgb(245, 245, 127); }
.links line.unspecific { stroke: rgb(153, 153, 153); stroke-opacity: 0.6; stroke-width: 2.5px; }
circle.query { stroke: rgb(24, 24, 24); stroke-opacity: 1; stroke-width: 5px; }</style>
  <svg
     id="svg6"
     version="1.1"
     inkscape:export-filename="/home/ogris/Documents/phd-thesis/2/figures/brca1.png"
     inkscape:export-xdpi="90"
     inkscape:export-ydpi="90"
     inkscape:version="0.91 r13725"
     width="100%"
     height="100%"
     transform="translate(-394.23664,-140.29002)">
    <g
       transform="translate(-2,0)"
       id="g8">
      <g
         class="nodes"
         id="g130">
        <g
           transform="translate(-394.23664,-140.29001)"
           style="color:#000000;font-style:normal;font-variant:normal;font-weight:normal;font-stretch:normal;font-size:12px;line-height:normal;font-family:verdana, arial, helvetica, geneva, sans-serif;text-indent:0px;text-align:start;text-decoration:none;text-decoration-line:none;text-decoration-style:solid;text-decoration-color:#000000;letter-spacing:normal;word-spacing:0px;text-transform:none;direction:ltr;baseline-shift:0px;text-anchor:start;white-space:normal;clip-rule:nonzero;display:inline;visibility:visible;opacity:1;isolation:auto;mix-blend-mode:normal;color-interpolation:sRGB;color-interpolation-filters:linearRGB;fill:#000000;fill-opacity:1;fill-rule:nonzero;stroke:none;stroke-width:1px;stroke-linecap:butt;stroke-linejoin:miter;stroke-miterlimit:4;stroke-dasharray:none;stroke-dashoffset:0px;stroke-opacity:1;marker-start:none;marker-mid:none;marker-end:none;paint-order:fill stroke markers;color-rendering:auto;image-rendering:auto;shape-rendering:auto;text-rendering:auto"
           class="links"
           id="g10">
          <line
             class="unspecific"
             style="opacity:0.6;stroke:#999999;stroke-width:2.5px;stroke-opacity:0.6"
             x1="565.99341"
             y1="281.15909"
             x2="478.00803"
             y2="222.71495"
             id="line12" />
          <line
             class="unspecific"
             style="opacity:0.6;stroke:#999999;stroke-width:2.5px;stroke-opacity:0.6"
             x1="565.99341"
             y1="281.15909"
             x2="491.78577"
             y2="353.79471"
             id="line14" />
          <line
             class="unspecific"
             style="opacity:0.6;stroke:#999999;stroke-width:2.5px;stroke-opacity:0.6"
             x1="565.99341"
             y1="281.15909"
             x2="719.83844"
             y2="171.01357"
             id="line16" />
          <line
             class="unspecific"
             style="opacity:0.6;stroke:#999999;stroke-width:2.5px;stroke-opacity:0.6"
             x1="491.78577"
             y1="353.79471"
             x2="414.94983"
             y2="402.25534"
             id="line18" />
          <line
             class="unspecific"
             style="opacity:0.6;stroke:#999999;stroke-width:2.5px;stroke-opacity:0.6"
             x1="653.22253"
             y1="434.81238"
             x2="797.70721"
             y2="402.96643"
             id="line20" />
          <line
             class="unspecific"
             style="opacity:0.6;stroke:#999999;stroke-width:2.5px;stroke-opacity:0.6"
             x1="719.83844"
             y1="171.01357"
             x2="614.14691"
             y2="154.29002"
             id="line22" />
          <line
             class="unspecific"
             style="opacity:0.6;stroke:#999999;stroke-width:2.5px;stroke-opacity:0.6"
             x1="706.67108"
             y1="284.24258"
             x2="429.86099"
             y2="203.44093"
             id="line24" />
          <line
             class="unspecific"
             style="opacity:0.6;stroke:#999999;stroke-width:2.5px;stroke-opacity:0.6"
             x1="608.992"
             y1="203.12291"
             x2="719.83844"
             y2="171.01357"
             id="line26" />
          <line
             class="unspecific"
             style="opacity:0.6;stroke:#999999;stroke-width:2.5px;stroke-opacity:0.6"
             x1="448.87671"
             y1="280.81583"
             x2="614.14691"
             y2="154.29002"
             id="line28" />
          <line
             class="unspecific"
             style="opacity:0.6;stroke:#999999;stroke-width:2.5px;stroke-opacity:0.6"
             x1="706.67108"
             y1="284.24258"
             x2="789.63416"
             y2="298.10352"
             id="line30" />
          <line
             class="unspecific"
             style="opacity:0.6;stroke:#999999;stroke-width:2.5px;stroke-opacity:0.6"
             x1="448.87671"
             y1="280.81583"
             x2="706.67108"
             y2="284.24258"
             id="line32" />
          <line
             class="unspecific"
             style="opacity:0.6;stroke:#999999;stroke-width:2.5px;stroke-opacity:0.6"
             x1="491.78577"
             y1="353.79471"
             x2="540.68488"
             y2="446.93982"
             id="line34" />
          <line
             class="unspecific"
             style="opacity:0.6;stroke:#999999;stroke-width:2.5px;stroke-opacity:0.6"
             x1="653.22253"
             y1="434.81238"
             x2="429.86099"
             y2="203.44093"
             id="line36" />
          <line
             class="unspecific"
             style="opacity:0.6;stroke:#999999;stroke-width:2.5px;stroke-opacity:0.6"
             x1="660.32507"
             y1="323.98438"
             x2="797.70721"
             y2="402.96643"
             id="line38" />
          <line
             class="unspecific"
             style="opacity:0.6;stroke:#999999;stroke-width:2.5px;stroke-opacity:0.6"
             x1="448.87671"
             y1="280.81583"
             x2="660.32507"
             y2="323.98438"
             id="line40" />
          <line
             class="unspecific"
             style="opacity:0.6;stroke:#999999;stroke-width:2.5px;stroke-opacity:0.6"
             x1="448.87671"
             y1="280.81583"
             x2="414.94983"
             y2="402.25534"
             id="line42" />
          <line
             class="unspecific"
             style="opacity:0.6;stroke:#999999;stroke-width:2.5px;stroke-opacity:0.6"
             x1="565.99341"
             y1="281.15909"
             x2="674.32874"
             y2="201.0975"
             id="line44" />
          <line
             class="unspecific"
             style="opacity:0.6;stroke:#999999;stroke-width:2.5px;stroke-opacity:0.6"
             x1="706.67108"
             y1="284.24258"
             x2="674.32874"
             y2="201.0975"
             id="line46" />
          <line
             class="unspecific"
             style="opacity:0.6;stroke:#999999;stroke-width:2.5px;stroke-opacity:0.6"
             x1="653.22253"
             y1="434.81238"
             x2="742.48993"
             y2="417.38757"
             id="line48" />
          <line
             class="unspecific"
             style="opacity:0.6;stroke:#999999;stroke-width:2.5px;stroke-opacity:0.6"
             x1="565.99341"
             y1="281.15909"
             x2="528.96942"
             y2="392.556"
             id="line50" />
          <line
             class="unspecific"
             style="opacity:0.6;stroke:#999999;stroke-width:2.5px;stroke-opacity:0.6"
             x1="429.86099"
             y1="203.44093"
             x2="608.992"
             y2="203.12291"
             id="line52" />
          <line
             class="unspecific"
             style="opacity:0.6;stroke:#999999;stroke-width:2.5px;stroke-opacity:0.6"
             x1="660.32507"
             y1="323.98438"
             x2="653.22253"
             y2="434.81238"
             id="line54" />
          <line
             class="unspecific"
             style="opacity:0.6;stroke:#999999;stroke-width:2.5px;stroke-opacity:0.6"
             x1="797.70721"
             y1="402.96643"
             x2="742.48993"
             y2="417.38757"
             id="line56" />
          <line
             class="unspecific"
             style="opacity:0.6;stroke:#999999;stroke-width:2.5px;stroke-opacity:0.6"
             x1="789.63416"
             y1="298.10352"
             x2="719.83844"
             y2="171.01357"
             id="line58" />
          <line
             class="unspecific"
             style="opacity:0.6;stroke:#999999;stroke-width:2.5px;stroke-opacity:0.6"
             x1="789.63416"
             y1="298.10352"
             x2="653.22253"
             y2="434.81238"
             id="line60" />
          <line
             class="unspecific"
             style="opacity:0.6;stroke:#999999;stroke-width:2.5px;stroke-opacity:0.6"
             x1="565.99341"
             y1="281.15909"
             x2="523.82147"
             y2="175.59518"
             id="line62" />
          <line
             class="unspecific"
             style="opacity:0.6;stroke:#999999;stroke-width:2.5px;stroke-opacity:0.6"
             x1="565.99341"
             y1="281.15909"
             x2="653.22253"
             y2="434.81238"
             id="line64" />
          <line
             class="unspecific"
             style="opacity:0.6;stroke:#999999;stroke-width:2.5px;stroke-opacity:0.6"
             x1="660.32507"
             y1="323.98438"
             x2="614.14691"
             y2="154.29002"
             id="line66" />
          <line
             class="unspecific"
             style="opacity:0.6;stroke:#999999;stroke-width:2.5px;stroke-opacity:0.6"
             x1="565.99341"
             y1="281.15909"
             x2="414.94983"
             y2="402.25534"
             id="line68" />
          <line
             class="unspecific"
             style="opacity:0.6;stroke:#999999;stroke-width:2.5px;stroke-opacity:0.6"
             x1="540.68488"
             y1="446.93982"
             x2="653.22253"
             y2="434.81238"
             id="line70" />
          <line
             class="unspecific"
             style="opacity:0.6;stroke:#999999;stroke-width:2.5px;stroke-opacity:0.6"
             x1="405.23663"
             y1="309.71426"
             x2="429.86099"
             y2="203.44093"
             id="line72" />
          <line
             class="unspecific"
             style="opacity:0.6;stroke:#999999;stroke-width:2.5px;stroke-opacity:0.6"
             x1="789.63416"
             y1="298.10352"
             x2="797.70721"
             y2="402.96643"
             id="line74" />
          <line
             class="unspecific"
             style="opacity:0.6;stroke:#999999;stroke-width:2.5px;stroke-opacity:0.6"
             x1="706.67108"
             y1="284.24258"
             x2="653.22253"
             y2="434.81238"
             id="line76" />
          <line
             class="unspecific"
             style="opacity:0.6;stroke:#999999;stroke-width:2.5px;stroke-opacity:0.6"
             x1="448.87671"
             y1="280.81583"
             x2="429.86099"
             y2="203.44093"
             id="line78" />
          <line
             class="unspecific"
             style="opacity:0.6;stroke:#999999;stroke-width:2.5px;stroke-opacity:0.6"
             x1="660.32507"
             y1="323.98438"
             x2="706.67108"
             y2="284.24258"
             id="line80" />
          <line
             class="unspecific"
             style="opacity:0.6;stroke:#999999;stroke-width:2.5px;stroke-opacity:0.6"
             x1="565.99341"
             y1="281.15909"
             x2="540.68488"
             y2="446.93982"
             id="line82" />
          <line
             class="unspecific"
             style="opacity:0.6;stroke:#999999;stroke-width:2.5px;stroke-opacity:0.6"
             x1="565.99341"
             y1="281.15909"
             x2="614.14691"
             y2="154.29002"
             id="line84" />
          <line
             class="unspecific"
             style="opacity:0.6;stroke:#999999;stroke-width:2.5px;stroke-opacity:0.6"
             x1="789.63416"
             y1="298.10352"
             x2="614.14691"
             y2="154.29002"
             id="line86" />
          <line
             class="unspecific"
             style="opacity:0.6;stroke:#999999;stroke-width:2.5px;stroke-opacity:0.6"
             x1="429.86099"
             y1="203.44093"
             x2="719.83844"
             y2="171.01357"
             id="line88" />
          <line
             class="unspecific"
             style="opacity:0.6;stroke:#999999;stroke-width:2.5px;stroke-opacity:0.6"
             x1="565.99341"
             y1="281.15909"
             x2="405.23663"
             y2="309.71426"
             id="line90" />
          <line
             class="unspecific"
             style="opacity:0.6;stroke:#999999;stroke-width:2.5px;stroke-opacity:0.6"
             x1="660.32507"
             y1="323.98438"
             x2="608.992"
             y2="203.12291"
             id="line92" />
          <line
             class="unspecific"
             style="opacity:0.6;stroke:#999999;stroke-width:2.5px;stroke-opacity:0.6"
             x1="429.86099"
             y1="203.44093"
             x2="614.14691"
             y2="154.29002"
             id="line94" />
          <line
             class="unspecific"
             style="opacity:0.6;stroke:#999999;stroke-width:2.5px;stroke-opacity:0.6"
             x1="565.99341"
             y1="281.15909"
             x2="429.86099"
             y2="203.44093"
             id="line96" />
          <line
             class="unspecific"
             style="opacity:0.6;stroke:#999999;stroke-width:2.5px;stroke-opacity:0.6"
             x1="565.99341"
             y1="281.15909"
             x2="789.63416"
             y2="298.10352"
             id="line98" />
          <line
             class="unspecific"
             style="opacity:0.6;stroke:#999999;stroke-width:2.5px;stroke-opacity:0.6"
             x1="660.32507"
             y1="323.98438"
             x2="789.63416"
             y2="298.10352"
             id="line100" />
          <line
             class="unspecific"
             style="opacity:0.6;stroke:#999999;stroke-width:2.5px;stroke-opacity:0.6"
             x1="660.32507"
             y1="323.98438"
             x2="719.83844"
             y2="171.01357"
             id="line102" />
          <line
             class="unspecific"
             style="opacity:0.6;stroke:#999999;stroke-width:2.5px;stroke-opacity:0.6"
             x1="565.99341"
             y1="281.15909"
             x2="448.87671"
             y2="280.81583"
             id="line104" />
          <line
             class="unspecific"
             style="opacity:0.6;stroke:#999999;stroke-width:2.5px;stroke-opacity:0.6"
             x1="706.67108"
             y1="284.24258"
             x2="797.70721"
             y2="402.96643"
             id="line106" />
          <line
             class="unspecific"
             style="opacity:0.6;stroke:#999999;stroke-width:2.5px;stroke-opacity:0.6"
             x1="706.67108"
             y1="284.24258"
             x2="719.83844"
             y2="171.01357"
             id="line108" />
          <line
             class="unspecific"
             style="opacity:0.6;stroke:#999999;stroke-width:2.5px;stroke-opacity:0.6"
             x1="706.67108"
             y1="284.24258"
             x2="614.14691"
             y2="154.29002"
             id="line110" />
          <line
             class="unspecific"
             style="opacity:0.6;stroke:#999999;stroke-width:2.5px;stroke-opacity:0.6"
             x1="565.99341"
             y1="281.15909"
             x2="706.67108"
             y2="284.24258"
             id="line112" />
          <line
             class="unspecific"
             style="opacity:0.6;stroke:#999999;stroke-width:2.5px;stroke-opacity:0.6"
             x1="565.99341"
             y1="281.15909"
             x2="601.48975"
             y2="389.31866"
             id="line114" />
          <line
             class="unspecific"
             style="opacity:0.6;stroke:#999999;stroke-width:2.5px;stroke-opacity:0.6"
             x1="565.99341"
             y1="281.15909"
             x2="660.32507"
             y2="323.98438"
             id="line116" />
          <line
             class="unspecific"
             style="opacity:0.6;stroke:#999999;stroke-width:2.5px;stroke-opacity:0.6"
             x1="565.99341"
             y1="281.15909"
             x2="742.48993"
             y2="417.38757"
             id="line118" />
          <line
             class="unspecific"
             style="opacity:0.6;stroke:#999999;stroke-width:2.5px;stroke-opacity:0.6"
             x1="660.32507"
             y1="323.98438"
             x2="429.86099"
             y2="203.44093"
             id="line120" />
          <line
             class="unspecific"
             style="opacity:0.6;stroke:#999999;stroke-width:2.5px;stroke-opacity:0.6"
             x1="706.67108"
             y1="284.24258"
             x2="608.992"
             y2="203.12291"
             id="line122" />
          <line
             class="unspecific"
             style="opacity:0.6;stroke:#999999;stroke-width:2.5px;stroke-opacity:0.6"
             x1="491.78577"
             y1="353.79471"
             x2="429.86099"
             y2="203.44093"
             id="line124" />
          <line
             class="unspecific"
             style="opacity:0.6;stroke:#999999;stroke-width:2.5px;stroke-opacity:0.6"
             x1="565.99341"
             y1="281.15909"
             x2="797.70721"
             y2="402.96643"
             id="line126" />
          <line
             class="unspecific"
             style="opacity:0.6;stroke:#999999;stroke-width:2.5px;stroke-opacity:0.6"
             x1="565.99341"
             y1="281.15909"
             x2="608.992"
             y2="203.12291"
             id="line128" />
        </g>
        <g
           class="normal"
           style="color:#000000;font-style:normal;font-variant:normal;font-weight:normal;font-stretch:normal;font-size:12px;line-height:normal;font-family:verdana, arial, helvetica, geneva, sans-serif;text-indent:0px;text-align:start;text-decoration:none;text-decoration-line:none;text-decoration-style:solid;text-decoration-color:#000000;letter-spacing:normal;word-spacing:0px;text-transform:none;direction:ltr;baseline-shift:0px;text-anchor:start;white-space:normal;clip-rule:nonzero;display:inline;visibility:visible;opacity:1;isolation:auto;mix-blend-mode:normal;color-interpolation:sRGB;color-interpolation-filters:linearRGB;fill:#000000;fill-opacity:1;fill-rule:nonzero;stroke:none;stroke-width:1px;stroke-linecap:butt;stroke-linejoin:miter;stroke-miterlimit:4;stroke-dasharray:none;stroke-dashoffset:0px;stroke-opacity:1;marker-start:none;marker-mid:none;marker-end:none;paint-order:fill stroke markers;color-rendering:auto;image-rendering:auto;shape-rendering:auto;text-rendering:auto"
           transform="translate(171.75675,140.86907)"
           id="g132">
          <circle
             r="27"
             class="query"
             style="text-decoration:none;text-decoration-line:none;fill:#3366cc;stroke:#181818;stroke-width:5px;stroke-opacity:1"
             id="circle134"
             cx="0"
             cy="0" />
          <text
             dx="30"
             dy="6"
             id="text136">BRCA1</text>
        </g>
        <g
           class="normal"
           style="color:#000000;font-style:normal;font-variant:normal;font-weight:normal;font-stretch:normal;font-size:12px;line-height:normal;font-family:verdana, arial, helvetica, geneva, sans-serif;text-indent:0px;text-align:start;text-decoration:none;text-decoration-line:none;text-decoration-style:solid;text-decoration-color:#000000;letter-spacing:normal;word-spacing:0px;text-transform:none;direction:ltr;baseline-shift:0px;text-anchor:start;white-space:normal;clip-rule:nonzero;display:inline;visibility:visible;opacity:1;isolation:auto;mix-blend-mode:normal;color-interpolation:sRGB;color-interpolation-filters:linearRGB;fill:#000000;fill-opacity:1;fill-rule:nonzero;stroke:none;stroke-width:1px;stroke-linecap:butt;stroke-linejoin:miter;stroke-miterlimit:4;stroke-dasharray:none;stroke-dashoffset:0px;stroke-opacity:1;marker-start:none;marker-mid:none;marker-end:none;paint-order:fill stroke markers;color-rendering:auto;image-rendering:auto;shape-rendering:auto;text-rendering:auto"
           transform="translate(11,169.42427)"
           id="g138">
          <circle
             r="9"
             class="normal"
             style="fill:#3366cc"
             id="circle140"
             cx="0"
             cy="0" />
          <text
             dx="12"
             dy="6"
             id="text142">RAD18</text>
        </g>
        <g
           class="normal"
           style="color:#000000;font-style:normal;font-variant:normal;font-weight:normal;font-stretch:normal;font-size:12px;line-height:normal;font-family:verdana, arial, helvetica, geneva, sans-serif;text-indent:0px;text-align:start;text-decoration:none;text-decoration-line:none;text-decoration-style:solid;text-decoration-color:#000000;letter-spacing:normal;word-spacing:0px;text-transform:none;direction:ltr;baseline-shift:0px;text-anchor:start;white-space:normal;clip-rule:nonzero;display:inline;visibility:visible;opacity:1;isolation:auto;mix-blend-mode:normal;color-interpolation:sRGB;color-interpolation-filters:linearRGB;fill:#000000;fill-opacity:1;fill-rule:nonzero;stroke:none;stroke-width:1px;stroke-linecap:butt;stroke-linejoin:miter;stroke-miterlimit:4;stroke-dasharray:none;stroke-dashoffset:0px;stroke-opacity:1;marker-start:none;marker-mid:none;marker-end:none;paint-order:fill stroke markers;color-rendering:auto;image-rendering:auto;shape-rendering:auto;text-rendering:auto"
           transform="translate(403.47057,262.67642)"
           id="g144">
          <circle
             r="13"
             class="normal"
             style="fill:#3366cc"
             id="circle146"
             cx="0"
             cy="0" />
          <text
             dx="16"
             dy="6"
             id="text148">AURKA</text>
        </g>
        <g
           class="normal"
           style="color:#000000;font-style:normal;font-variant:normal;font-weight:normal;font-stretch:normal;font-size:12px;line-height:normal;font-family:verdana, arial, helvetica, geneva, sans-serif;text-indent:0px;text-align:start;text-decoration:none;text-decoration-line:none;text-decoration-style:solid;text-decoration-color:#000000;letter-spacing:normal;word-spacing:0px;text-transform:none;direction:ltr;baseline-shift:0px;text-anchor:start;white-space:normal;clip-rule:nonzero;display:inline;visibility:visible;opacity:1;isolation:auto;mix-blend-mode:normal;color-interpolation:sRGB;color-interpolation-filters:linearRGB;fill:#000000;fill-opacity:1;fill-rule:nonzero;stroke:none;stroke-width:1px;stroke-linecap:butt;stroke-linejoin:miter;stroke-miterlimit:4;stroke-dasharray:none;stroke-dashoffset:0px;stroke-opacity:1;marker-start:none;marker-mid:none;marker-end:none;paint-order:fill stroke markers;color-rendering:auto;image-rendering:auto;shape-rendering:auto;text-rendering:auto"
           transform="translate(97.54913,213.5047)"
           id="g150">
          <circle
             r="11"
             class="normal"
             style="fill:#3366cc"
             id="circle152"
             cx="0"
             cy="0" />
          <text
             dx="14"
             dy="6"
             id="text154">RAD51</text>
        </g>
        <g
           class="normal"
           style="color:#000000;font-style:normal;font-variant:normal;font-weight:normal;font-stretch:normal;font-size:12px;line-height:normal;font-family:verdana, arial, helvetica, geneva, sans-serif;text-indent:0px;text-align:start;text-decoration:none;text-decoration-line:none;text-decoration-style:solid;text-decoration-color:#000000;letter-spacing:normal;word-spacing:0px;text-transform:none;direction:ltr;baseline-shift:0px;text-anchor:start;white-space:normal;clip-rule:nonzero;display:inline;visibility:visible;opacity:1;isolation:auto;mix-blend-mode:normal;color-interpolation:sRGB;color-interpolation-filters:linearRGB;fill:#000000;fill-opacity:1;fill-rule:nonzero;stroke:none;stroke-width:1px;stroke-linecap:butt;stroke-linejoin:miter;stroke-miterlimit:4;stroke-dasharray:none;stroke-dashoffset:0px;stroke-opacity:1;marker-start:none;marker-mid:none;marker-end:none;paint-order:fill stroke markers;color-rendering:auto;image-rendering:auto;shape-rendering:auto;text-rendering:auto"
           transform="translate(214.75534,62.832899)"
           id="g156">
          <circle
             r="12"
             class="normal"
             style="fill:#3366cc"
             id="circle158"
             cx="0"
             cy="0" />
          <text
             dx="15"
             dy="6"
             id="text160">CCNA2</text>
        </g>
        <g
           class="normal"
           style="color:#000000;font-style:normal;font-variant:normal;font-weight:normal;font-stretch:normal;font-size:12px;line-height:normal;font-family:verdana, arial, helvetica, geneva, sans-serif;text-indent:0px;text-align:start;text-decoration:none;text-decoration-line:none;text-decoration-style:solid;text-decoration-color:#000000;letter-spacing:normal;word-spacing:0px;text-transform:none;direction:ltr;baseline-shift:0px;text-anchor:start;white-space:normal;clip-rule:nonzero;display:inline;visibility:visible;opacity:1;isolation:auto;mix-blend-mode:normal;color-interpolation:sRGB;color-interpolation-filters:linearRGB;fill:#000000;fill-opacity:1;fill-rule:nonzero;stroke:none;stroke-width:1px;stroke-linecap:butt;stroke-linejoin:miter;stroke-miterlimit:4;stroke-dasharray:none;stroke-dashoffset:0px;stroke-opacity:1;marker-start:none;marker-mid:none;marker-end:none;paint-order:fill stroke markers;color-rendering:auto;image-rendering:auto;shape-rendering:auto;text-rendering:auto"
           transform="translate(83.77139,82.424939)"
           id="g162">
          <circle
             r="8"
             class="normal"
             style="fill:#3366cc"
             id="circle164"
             cx="0"
             cy="0" />
          <text
             dx="11"
             dy="6"
             id="text166">TOPBP1</text>
        </g>
        <g
           class="normal"
           style="color:#000000;font-style:normal;font-variant:normal;font-weight:normal;font-stretch:normal;font-size:12px;line-height:normal;font-family:verdana, arial, helvetica, geneva, sans-serif;text-indent:0px;text-align:start;text-decoration:none;text-decoration-line:none;text-decoration-style:solid;text-decoration-color:#000000;letter-spacing:normal;word-spacing:0px;text-transform:none;direction:ltr;baseline-shift:0px;text-anchor:start;white-space:normal;clip-rule:nonzero;display:inline;visibility:visible;opacity:1;isolation:auto;mix-blend-mode:normal;color-interpolation:sRGB;color-interpolation-filters:linearRGB;fill:#000000;fill-opacity:1;fill-rule:nonzero;stroke:none;stroke-width:1px;stroke-linecap:butt;stroke-linejoin:miter;stroke-miterlimit:4;stroke-dasharray:none;stroke-dashoffset:0px;stroke-opacity:1;marker-start:none;marker-mid:none;marker-end:none;paint-order:fill stroke markers;color-rendering:auto;image-rendering:auto;shape-rendering:auto;text-rendering:auto"
           transform="translate(312.43445,143.95258)"
           id="g168">
          <circle
             r="18"
             class="normal"
             style="fill:#3366cc"
             id="circle170"
             cx="0"
             cy="0" />
          <text
             dx="21"
             dy="6"
             id="text172">CDK1</text>
        </g>
        <g
           class="normal"
           style="color:#000000;font-style:normal;font-variant:normal;font-weight:normal;font-stretch:normal;font-size:12px;line-height:normal;font-family:verdana, arial, helvetica, geneva, sans-serif;text-indent:0px;text-align:start;text-decoration:none;text-decoration-line:none;text-decoration-style:solid;text-decoration-color:#000000;letter-spacing:normal;word-spacing:0px;text-transform:none;direction:ltr;baseline-shift:0px;text-anchor:start;white-space:normal;clip-rule:nonzero;display:inline;visibility:visible;opacity:1;isolation:auto;mix-blend-mode:normal;color-interpolation:sRGB;color-interpolation-filters:linearRGB;fill:#000000;fill-opacity:1;fill-rule:nonzero;stroke:none;stroke-width:1px;stroke-linecap:butt;stroke-linejoin:miter;stroke-miterlimit:4;stroke-dasharray:none;stroke-dashoffset:0px;stroke-opacity:1;marker-start:none;marker-mid:none;marker-end:none;paint-order:fill stroke markers;color-rendering:auto;image-rendering:auto;shape-rendering:auto;text-rendering:auto"
           transform="translate(20.71319,261.96534)"
           id="g174">
          <circle
             r="10"
             class="normal"
             style="fill:#3366cc"
             id="circle176"
             cx="0"
             cy="0" />
          <text
             dx="13"
             dy="6"
             id="text178">BLM</text>
        </g>
        <g
           class="normal"
           style="color:#000000;font-style:normal;font-variant:normal;font-weight:normal;font-stretch:normal;font-size:12px;line-height:normal;font-family:verdana, arial, helvetica, geneva, sans-serif;text-indent:0px;text-align:start;text-decoration:none;text-decoration-line:none;text-decoration-style:solid;text-decoration-color:#000000;letter-spacing:normal;word-spacing:0px;text-transform:none;direction:ltr;baseline-shift:0px;text-anchor:start;white-space:normal;clip-rule:nonzero;display:inline;visibility:visible;opacity:1;isolation:auto;mix-blend-mode:normal;color-interpolation:sRGB;color-interpolation-filters:linearRGB;fill:#000000;fill-opacity:1;fill-rule:nonzero;stroke:none;stroke-width:1px;stroke-linecap:butt;stroke-linejoin:miter;stroke-miterlimit:4;stroke-dasharray:none;stroke-dashoffset:0px;stroke-opacity:1;marker-start:none;marker-mid:none;marker-end:none;paint-order:fill stroke markers;color-rendering:auto;image-rendering:auto;shape-rendering:auto;text-rendering:auto"
           transform="translate(146.44822,306.64981)"
           id="g180">
          <circle
             r="10"
             class="normal"
             style="fill:#3366cc"
             id="circle182"
             cx="0"
             cy="0" />
          <text
             dx="13"
             dy="6"
             id="text184">BRCA2</text>
        </g>
        <g
           class="normal"
           style="color:#000000;font-style:normal;font-variant:normal;font-weight:normal;font-stretch:normal;font-size:12px;line-height:normal;font-family:verdana, arial, helvetica, geneva, sans-serif;text-indent:0px;text-align:start;text-decoration:none;text-decoration-line:none;text-decoration-style:solid;text-decoration-color:#000000;letter-spacing:normal;word-spacing:0px;text-transform:none;direction:ltr;baseline-shift:0px;text-anchor:start;white-space:normal;clip-rule:nonzero;display:inline;visibility:visible;opacity:1;isolation:auto;mix-blend-mode:normal;color-interpolation:sRGB;color-interpolation-filters:linearRGB;fill:#000000;fill-opacity:1;fill-rule:nonzero;stroke:none;stroke-width:1px;stroke-linecap:butt;stroke-linejoin:miter;stroke-miterlimit:4;stroke-dasharray:none;stroke-dashoffset:0px;stroke-opacity:1;marker-start:none;marker-mid:none;marker-end:none;paint-order:fill stroke markers;color-rendering:auto;image-rendering:auto;shape-rendering:auto;text-rendering:auto"
           transform="translate(219.91029,14.000011)"
           id="g186">
          <circle
             r="14"
             class="normal"
             style="fill:#3366cc"
             id="circle188"
             cx="0"
             cy="0" />
          <text
             dx="17"
             dy="6"
             id="text190">MCM2</text>
        </g>
        <g
           class="normal"
           style="color:#000000;font-style:normal;font-variant:normal;font-weight:normal;font-stretch:normal;font-size:12px;line-height:normal;font-family:verdana, arial, helvetica, geneva, sans-serif;text-indent:0px;text-align:start;text-decoration:none;text-decoration-line:none;text-decoration-style:solid;text-decoration-color:#000000;letter-spacing:normal;word-spacing:0px;text-transform:none;direction:ltr;baseline-shift:0px;text-anchor:start;white-space:normal;clip-rule:nonzero;display:inline;visibility:visible;opacity:1;isolation:auto;mix-blend-mode:normal;color-interpolation:sRGB;color-interpolation-filters:linearRGB;fill:#000000;fill-opacity:1;fill-rule:nonzero;stroke:none;stroke-width:1px;stroke-linecap:butt;stroke-linejoin:miter;stroke-miterlimit:4;stroke-dasharray:none;stroke-dashoffset:0px;stroke-opacity:1;marker-start:none;marker-mid:none;marker-end:none;paint-order:fill stroke markers;color-rendering:auto;image-rendering:auto;shape-rendering:auto;text-rendering:auto"
           transform="translate(325.60178,30.723561)"
           id="g192">
          <circle
             r="14"
             class="normal"
             style="fill:#3366cc"
             id="circle194"
             cx="0"
             cy="0" />
          <text
             dx="17"
             dy="6"
             id="text196">CDC6</text>
        </g>
        <g
           class="normal"
           style="color:#000000;font-style:normal;font-variant:normal;font-weight:normal;font-stretch:normal;font-size:12px;line-height:normal;font-family:verdana, arial, helvetica, geneva, sans-serif;text-indent:0px;text-align:start;text-decoration:none;text-decoration-line:none;text-decoration-style:solid;text-decoration-color:#000000;letter-spacing:normal;word-spacing:0px;text-transform:none;direction:ltr;baseline-shift:0px;text-anchor:start;white-space:normal;clip-rule:nonzero;display:inline;visibility:visible;opacity:1;isolation:auto;mix-blend-mode:normal;color-interpolation:sRGB;color-interpolation-filters:linearRGB;fill:#000000;fill-opacity:1;fill-rule:nonzero;stroke:none;stroke-width:1px;stroke-linecap:butt;stroke-linejoin:miter;stroke-miterlimit:4;stroke-dasharray:none;stroke-dashoffset:0px;stroke-opacity:1;marker-start:none;marker-mid:none;marker-end:none;paint-order:fill stroke markers;color-rendering:auto;image-rendering:auto;shape-rendering:auto;text-rendering:auto"
           transform="translate(266.08842,183.69435)"
           id="g198">
          <circle
             r="17"
             class="normal"
             style="fill:#3366cc"
             id="circle200"
             cx="0"
             cy="0" />
          <text
             dx="20"
             dy="6"
             id="text202">CCNB1</text>
        </g>
        <g
           class="normal"
           style="color:#000000;font-style:normal;font-variant:normal;font-weight:normal;font-stretch:normal;font-size:12px;line-height:normal;font-family:verdana, arial, helvetica, geneva, sans-serif;text-indent:0px;text-align:start;text-decoration:none;text-decoration-line:none;text-decoration-style:solid;text-decoration-color:#000000;letter-spacing:normal;word-spacing:0px;text-transform:none;direction:ltr;baseline-shift:0px;text-anchor:start;white-space:normal;clip-rule:nonzero;display:inline;visibility:visible;opacity:1;isolation:auto;mix-blend-mode:normal;color-interpolation:sRGB;color-interpolation-filters:linearRGB;fill:#000000;fill-opacity:1;fill-rule:nonzero;stroke:none;stroke-width:1px;stroke-linecap:butt;stroke-linejoin:miter;stroke-miterlimit:4;stroke-dasharray:none;stroke-dashoffset:0px;stroke-opacity:1;marker-start:none;marker-mid:none;marker-end:none;paint-order:fill stroke markers;color-rendering:auto;image-rendering:auto;shape-rendering:auto;text-rendering:auto"
           transform="translate(280.09211,60.807499)"
           id="g204">
          <circle
             r="9"
             class="normal"
             style="fill:#3366cc"
             id="circle206"
             cx="0"
             cy="0" />
          <text
             dx="12"
             dy="6"
             id="text208">EZH2</text>
        </g>
        <g
           class="normal"
           style="color:#000000;font-style:normal;font-variant:normal;font-weight:normal;font-stretch:normal;font-size:12px;line-height:normal;font-family:verdana, arial, helvetica, geneva, sans-serif;text-indent:0px;text-align:start;text-decoration:none;text-decoration-line:none;text-decoration-style:solid;text-decoration-color:#000000;letter-spacing:normal;word-spacing:0px;text-transform:none;direction:ltr;baseline-shift:0px;text-anchor:start;white-space:normal;clip-rule:nonzero;display:inline;visibility:visible;opacity:1;isolation:auto;mix-blend-mode:normal;color-interpolation:sRGB;color-interpolation-filters:linearRGB;fill:#000000;fill-opacity:1;fill-rule:nonzero;stroke:none;stroke-width:1px;stroke-linecap:butt;stroke-linejoin:miter;stroke-miterlimit:4;stroke-dasharray:none;stroke-dashoffset:0px;stroke-opacity:1;marker-start:none;marker-mid:none;marker-end:none;paint-order:fill stroke markers;color-rendering:auto;image-rendering:auto;shape-rendering:auto;text-rendering:auto"
           transform="translate(258.98589,294.52236)"
           id="g210">
          <circle
             r="15"
             class="normal"
             style="fill:#3366cc"
             id="circle212"
             cx="0"
             cy="0" />
          <text
             dx="18"
             dy="6"
             id="text214">AURKB</text>
        </g>
        <g
           class="normal"
           style="color:#000000;font-style:normal;font-variant:normal;font-weight:normal;font-stretch:normal;font-size:12px;line-height:normal;font-family:verdana, arial, helvetica, geneva, sans-serif;text-indent:0px;text-align:start;text-decoration:none;text-decoration-line:none;text-decoration-style:solid;text-decoration-color:#000000;letter-spacing:normal;word-spacing:0px;text-transform:none;direction:ltr;baseline-shift:0px;text-anchor:start;white-space:normal;clip-rule:nonzero;display:inline;visibility:visible;opacity:1;isolation:auto;mix-blend-mode:normal;color-interpolation:sRGB;color-interpolation-filters:linearRGB;fill:#000000;fill-opacity:1;fill-rule:nonzero;stroke:none;stroke-width:1px;stroke-linecap:butt;stroke-linejoin:miter;stroke-miterlimit:4;stroke-dasharray:none;stroke-dashoffset:0px;stroke-opacity:1;marker-start:none;marker-mid:none;marker-end:none;paint-order:fill stroke markers;color-rendering:auto;image-rendering:auto;shape-rendering:auto;text-rendering:auto"
           transform="translate(207.25313,249.02865)"
           id="g216">
          <circle
             r="8"
             class="normal"
             style="fill:#3366cc"
             id="circle218"
             cx="0"
             cy="0" />
          <text
             dx="11"
             dy="6"
             id="text220">BRIP1</text>
        </g>
        <g
           class="normal"
           style="color:#000000;font-style:normal;font-variant:normal;font-weight:normal;font-stretch:normal;font-size:12px;line-height:normal;font-family:verdana, arial, helvetica, geneva, sans-serif;text-indent:0px;text-align:start;text-decoration:none;text-decoration-line:none;text-decoration-style:solid;text-decoration-color:#000000;letter-spacing:normal;word-spacing:0px;text-transform:none;direction:ltr;baseline-shift:0px;text-anchor:start;white-space:normal;clip-rule:nonzero;display:inline;visibility:visible;opacity:1;isolation:auto;mix-blend-mode:normal;color-interpolation:sRGB;color-interpolation-filters:linearRGB;fill:#000000;fill-opacity:1;fill-rule:nonzero;stroke:none;stroke-width:1px;stroke-linecap:butt;stroke-linejoin:miter;stroke-miterlimit:4;stroke-dasharray:none;stroke-dashoffset:0px;stroke-opacity:1;marker-start:none;marker-mid:none;marker-end:none;paint-order:fill stroke markers;color-rendering:auto;image-rendering:auto;shape-rendering:auto;text-rendering:auto"
           transform="translate(395.39752,157.8135)"
           id="g222">
          <circle
             r="14"
             class="normal"
             style="fill:#3366cc"
             id="circle224"
             cx="0"
             cy="0" />
          <text
             dx="17"
             dy="6"
             id="text226">PLK1</text>
        </g>
        <g
           class="normal"
           style="color:#000000;font-style:normal;font-variant:normal;font-weight:normal;font-stretch:normal;font-size:12px;line-height:normal;font-family:verdana, arial, helvetica, geneva, sans-serif;text-indent:0px;text-align:start;text-decoration:none;text-decoration-line:none;text-decoration-style:solid;text-decoration-color:#000000;letter-spacing:normal;word-spacing:0px;text-transform:none;direction:ltr;baseline-shift:0px;text-anchor:start;white-space:normal;clip-rule:nonzero;display:inline;visibility:visible;opacity:1;isolation:auto;mix-blend-mode:normal;color-interpolation:sRGB;color-interpolation-filters:linearRGB;fill:#000000;fill-opacity:1;fill-rule:nonzero;stroke:none;stroke-width:1px;stroke-linecap:butt;stroke-linejoin:miter;stroke-miterlimit:4;stroke-dasharray:none;stroke-dashoffset:0px;stroke-opacity:1;marker-start:none;marker-mid:none;marker-end:none;paint-order:fill stroke markers;color-rendering:auto;image-rendering:auto;shape-rendering:auto;text-rendering:auto"
           transform="translate(348.25332,277.09757)"
           id="g228">
          <circle
             r="10"
             class="normal"
             style="fill:#3366cc"
             id="circle230"
             cx="0"
             cy="0" />
          <text
             dx="13"
             dy="6"
             id="text232">TPX2</text>
        </g>
        <g
           class="normal"
           style="color:#000000;font-style:normal;font-variant:normal;font-weight:normal;font-stretch:normal;font-size:12px;line-height:normal;font-family:verdana, arial, helvetica, geneva, sans-serif;text-indent:0px;text-align:start;text-decoration:none;text-decoration-line:none;text-decoration-style:solid;text-decoration-color:#000000;letter-spacing:normal;word-spacing:0px;text-transform:none;direction:ltr;baseline-shift:0px;text-anchor:start;white-space:normal;clip-rule:nonzero;display:inline;visibility:visible;opacity:1;isolation:auto;mix-blend-mode:normal;color-interpolation:sRGB;color-interpolation-filters:linearRGB;fill:#000000;fill-opacity:1;fill-rule:nonzero;stroke:none;stroke-width:1px;stroke-linecap:butt;stroke-linejoin:miter;stroke-miterlimit:4;stroke-dasharray:none;stroke-dashoffset:0px;stroke-opacity:1;marker-start:none;marker-mid:none;marker-end:none;paint-order:fill stroke markers;color-rendering:auto;image-rendering:auto;shape-rendering:auto;text-rendering:auto"
           transform="translate(35.62434,63.150919)"
           id="g234">
          <circle
             r="17"
             class="normal"
             style="fill:#3366cc"
             id="circle236"
             cx="0"
             cy="0" />
          <text
             dx="20"
             dy="6"
             id="text238">PCNA</text>
        </g>
        <g
           class="normal"
           style="color:#000000;font-style:normal;font-variant:normal;font-weight:normal;font-stretch:normal;font-size:12px;line-height:normal;font-family:verdana, arial, helvetica, geneva, sans-serif;text-indent:0px;text-align:start;text-decoration:none;text-decoration-line:none;text-decoration-style:solid;text-decoration-color:#000000;letter-spacing:normal;word-spacing:0px;text-transform:none;direction:ltr;baseline-shift:0px;text-anchor:start;white-space:normal;clip-rule:nonzero;display:inline;visibility:visible;opacity:1;isolation:auto;mix-blend-mode:normal;color-interpolation:sRGB;color-interpolation-filters:linearRGB;fill:#000000;fill-opacity:1;fill-rule:nonzero;stroke:none;stroke-width:1px;stroke-linecap:butt;stroke-linejoin:miter;stroke-miterlimit:4;stroke-dasharray:none;stroke-dashoffset:0px;stroke-opacity:1;marker-start:none;marker-mid:none;marker-end:none;paint-order:fill stroke markers;color-rendering:auto;image-rendering:auto;shape-rendering:auto;text-rendering:auto"
           transform="translate(134.73276,252.26599)"
           id="g240">
          <circle
             r="8"
             class="normal"
             style="fill:#3366cc"
             id="circle242"
             cx="0"
             cy="0" />
          <text
             dx="11"
             dy="6"
             id="text244">CCNA1</text>
        </g>
        <g
           class="normal"
           style="color:#000000;font-style:normal;font-variant:normal;font-weight:normal;font-stretch:normal;font-size:12px;line-height:normal;font-family:verdana, arial, helvetica, geneva, sans-serif;text-indent:0px;text-align:start;text-decoration:none;text-decoration-line:none;text-decoration-style:solid;text-decoration-color:#000000;letter-spacing:normal;word-spacing:0px;text-transform:none;direction:ltr;baseline-shift:0px;text-anchor:start;white-space:normal;clip-rule:nonzero;display:inline;visibility:visible;opacity:1;isolation:auto;mix-blend-mode:normal;color-interpolation:sRGB;color-interpolation-filters:linearRGB;fill:#000000;fill-opacity:1;fill-rule:nonzero;stroke:none;stroke-width:1px;stroke-linecap:butt;stroke-linejoin:miter;stroke-miterlimit:4;stroke-dasharray:none;stroke-dashoffset:0px;stroke-opacity:1;marker-start:none;marker-mid:none;marker-end:none;paint-order:fill stroke markers;color-rendering:auto;image-rendering:auto;shape-rendering:auto;text-rendering:auto"
           transform="translate(54.64007,140.52582)"
           id="g246">
          <circle
             r="13"
             class="normal"
             style="fill:#3366cc"
             id="circle248"
             cx="0"
             cy="0" />
          <text
             dx="16"
             dy="6"
             id="text250">TOP2A</text>
        </g>
        <g
           class="normal"
           style="color:#000000;font-style:normal;font-variant:normal;font-weight:normal;font-stretch:normal;font-size:12px;line-height:normal;font-family:verdana, arial, helvetica, geneva, sans-serif;text-indent:0px;text-align:start;text-decoration:none;text-decoration-line:none;text-decoration-style:solid;text-decoration-color:#000000;letter-spacing:normal;word-spacing:0px;text-transform:none;direction:ltr;baseline-shift:0px;text-anchor:start;white-space:normal;clip-rule:nonzero;display:inline;visibility:visible;opacity:1;isolation:auto;mix-blend-mode:normal;color-interpolation:sRGB;color-interpolation-filters:linearRGB;fill:#000000;fill-opacity:1;fill-rule:nonzero;stroke:none;stroke-width:1px;stroke-linecap:butt;stroke-linejoin:miter;stroke-miterlimit:4;stroke-dasharray:none;stroke-dashoffset:0px;stroke-opacity:1;marker-start:none;marker-mid:none;marker-end:none;paint-order:fill stroke markers;color-rendering:auto;image-rendering:auto;shape-rendering:auto;text-rendering:auto"
           transform="translate(129.5848,35.305171)"
           id="g252">
          <circle
             r="8"
             class="normal"
             style="fill:#3366cc"
             id="circle254"
             cx="0"
             cy="0" />
          <text
             dx="11"
             dy="6"
             id="text256">PALB2</text>
        </g>
      </g>
    </g>
  </svg>
</svg>
