<?xml version="1.0" encoding="UTF-8" standalone="no"?>
<svg
   xmlns:dc="http://purl.org/dc/elements/1.1/"
   xmlns:cc="http://creativecommons.org/ns#"
   xmlns:rdf="http://www.w3.org/1999/02/22-rdf-syntax-ns#"
   xmlns:svg="http://www.w3.org/2000/svg"
   xmlns="http://www.w3.org/2000/svg"
   version="1.1"
   id="svg2"
   viewBox="0 0 184.38909 185.06453"
   height="52.229324mm"
   width="52.0387mm">
  <defs
     id="defs4" />
  <metadata
     id="metadata7">
    <rdf:RDF>
      <cc:Work
         rdf:about="">
        <dc:format>image/svg+xml</dc:format>
        <dc:type
           rdf:resource="http://purl.org/dc/dcmitype/StillImage" />
        <dc:title></dc:title>
      </cc:Work>
    </rdf:RDF>
  </metadata>
  <g
     transform="translate(-148.22784,-439.82995)"
     id="layer1">
    <path
       id="path54"
       style="fill:#9a0150;fill-opacity:1;fill-rule:evenodd;stroke:none"
       d="m 219.75394,518.84123 c -0.5432,-1.50267 -23.47653,-1.184 -31.76667,-1.128 -2.6516,0 -8.7244,0.20933 -8.7244,0.20933 0,0 1.75147,-7.30533 12.6552,-5.28266 4.37494,0.81866 7.01814,3.58666 12.43747,2.94666 -0.0703,-0.33466 -0.0443,-0.312 -0.16413,-0.49333 -0.33334,-0.62933 -1.7812,-0.38933 -1.79947,-1.304 1.30733,-0.54 6.2604,1.89867 6.8724,1.79733 -3.05987,-1.19866 -2.238,-1.30933 -2.29573,-1.30933 0,-0.0533 1.58226,-0.87867 2.45466,0.488 -0.70573,-1.99467 -2.686,-0.432 -4.41666,-0.812 -0.7084,-0.16 -1.448,-0.45333 -2.29174,-0.49333 0.8776,-0.82267 1.77974,-0.15467 2.29947,-0.0413 0.10947,-0.20666 0.16933,-0.13733 0.3204,-0.28533 -0.46,-2.05067 -5.69013,-3.344 -8.34373,-2.456 -0.8152,0.27333 -4.35787,-1.26133 -5.56774,-1.63867 -4.68493,-1.44933 -11.2672,-1.26533 -14.72293,1.14934 -4.26933,2.97733 -6.65733,10.03866 -2.78493,15.37733 2.2604,3.11467 6.32186,4.136 11.29426,4.58533 -0.57813,0.56934 -0.6708,1.15734 -0.32813,2.45067 0.65893,2.50533 1.58707,4.402 4.09013,6.38267 0.72134,0.574 2.312,1.01933 2.78494,1.8032 0.39733,0.66146 0.53746,1.44786 0.81613,2.124 0.8724,0.0495 1.74373,0.10666 2.61867,0.16506 0.008,0.22654 -0.0703,2.19267 -0.0703,2.19267 0,0 -2.30573,0.7448 -3.1188,2.30893 -0.3692,0.70307 -2.09733,4.36454 3.12147,6.35147 -0.48187,1.8516 -2.262,3.3204 -4.0276,3.8724 -1.16254,0.362 -2.12974,0.33333 -2.89427,1.02613 -0.5688,0.53907 -0.63653,2.11454 -0.63653,2.22654 7.14426,0 14.1584,0.0156 21.29946,0.0156 0.20414,-1.33854 -0.202,-2.30734 -1.714,-2.72654 -2.1,-0.77346 -1.95946,-0.3724 -3.7344,-1.97653 2.15627,-2.4272 0.005,-4.63293 -2.0088,-5.02093 0,-0.7708 0,-2.8984 0,-2.8984 0,0 1.64574,-0.81774 2.2864,-1.1188 2.39694,-1.10934 3.69787,-2.2848 4.49374,-3.276 1.2276,-1.55467 1.28746,-4.18227 0.67706,-5.69267 5.18494,-5.9508 2.37867,-7.6028 2.51254,-8.18013 0.64066,-2.724 1.80626,-7.00267 5.26306,-7.95334 1.202,-0.33333 3.68907,-0.33866 3.79574,-0.33866 -0.40774,-1.15334 -0.21614,-2.46934 -0.68227,-3.04667 z m -29.7396,-0.116 0,2.12667 -1.59,0 c -0.0532,-0.71334 -0.10533,-1.42 -0.15627,-2.12667 z m -3.0692,0.16267 c 0.11093,0.53866 0.17347,1.212 0.16293,1.964 l -1.55986,0 c 0.17706,-0.51067 -0.0651,-1.33334 -0.0807,-2.07867 0.3344,0.0627 1.3724,0.11467 1.4776,0.11467 z m -4.1912,-0.11467 c 0.38653,0.0533 1.2188,-0.108 1.59747,-0.048 0.10933,0.70667 0.076,1.556 0.18746,2.27067 -0.47866,0.005 -1.3308,0.25466 -1.5844,0.084 0,-0.53867 -0.23173,-1.468 -0.20053,-2.30667 z m -2.44267,0.24533 c 0.38387,0.0573 0.86974,-0.084 1.24894,-0.0267 0.10786,0.70266 0.074,1.30533 0.1844,2.016 -0.47507,0.005 -0.98174,0.0373 -1.23694,-0.136 0,-0.54534 -0.22613,-1.01867 -0.1964,-1.85334 z m 2.01827,3.308 c 0.32547,0.38 0.6588,0.75734 0.988,1.13867 l 0,0.16533 c -1.18333,-0.25333 -2.45427,-0.65333 -3.27867,-1.304 z m -7.362,-2.13333 c -0.19947,-3.1 0.79427,-5.98533 2.8656,-7.68267 4.08493,-3.35066 7.826,-4.21733 18.4052,-1.37333 1.574,0.42533 2.66933,-0.27333 4.1328,-0.005 0.57027,0.10533 1.22133,0.13733 1.71613,0.52533 -0.0416,0.244 -0.0416,0.48533 -0.0416,0.48533 0,0 -1.6224,-0.612 -2.2032,-0.18933 -0.1104,0 -0.4828,0.484 0.32134,0.98 1.15786,-0.676 1.8688,-0.196 2.1292,-0.104 -1.2604,0.79067 -0.16667,1.748 -0.16667,1.8 -3.91293,-0.0773 -5.94373,-1.49333 -8.6692,-2.612 -3.15213,-1.30267 -8.47293,-1.196 -11.6188,0.16267 -6.14693,2.64133 -6.61307,12.308 2.0016,12.71066 0.2604,0.948 0.64213,2.33867 1.03907,3.52 -8.4376,-0.36266 -9.89334,-7.91066 -9.91147,-8.21733 z m 15.8604,18.35533 c -0.004,-0.009 -0.0115,-0.0167 -0.0193,-0.0271 -0.26187,-0.212 -2.12387,-1.52614 -3.52494,-4.18027 -0.562,-1.224 -1.01773,-2.012 -0.5412,-2.51867 1.7016,-1.36666 2.7448,4.54947 4.06614,6.69894 0.0297,0.0181 0.0376,0.0271 0.0193,0.0271 z m -0.26933,-4.48066 c -0.30094,-1.54134 -0.12387,-3.05734 1.15893,-2.99467 2.1276,-0.13067 2.65627,5.24147 3.40627,8.17733 0.30986,0.10574 -1.36307,0.0329 -1.36307,0.0329 0,0 -2.32293,-0.73494 -3.20213,-5.2156 z m 4.1548,-0.81467 c 0,-2.25467 1.83853,-3.13867 2.5916,-2.66533 1.29426,0.89066 0.29426,8.50546 0.0453,8.84133 -0.3672,0.006 -1.00267,-0.0473 -1.00267,-0.0473 0,0 -1.88693,-4.53534 -1.63426,-6.12867 z m -0.59387,8.6276 c -0.0233,-0.0688 -0.40467,-1.20307 -0.42653,-1.46973 3.58853,0.2432 7.00733,0.2276 10.81986,0 -0.0939,0.30413 -0.70426,1.43746 -0.87613,1.46973 -1.97653,0.3724 -9.46093,0.17453 -9.5172,0 z m 6.5292,-2.49893 -1.77493,0 c 0.13693,-3.50867 -0.2516,-5.71 0.75093,-7.22334 0.4428,-0.83733 2.01987,-2.136 2.99907,-0.88133 0.4348,1.69067 -0.90734,5.6624 -1.97507,8.10467 z m 5.54787,-8.42867 c 1.56106,0.34 0.8584,6.18547 -2.78014,8.4136 -0.2172,0 -1.14173,0.0624 -1.36306,0.0624 1,-2.65627 1.52613,-8.84133 4.1432,-8.476 z m -4.09374,11.90933 c 0,0 -2.40986,1.49894 -5.32133,2.04587 0,-0.59893 0.0453,-2 0.0453,-2 z m 0.6016,14.2256 c 0.9948,1.74214 5.29427,2.0416 4.42294,2.70574 -5.77707,0 -16.5724,0 -16.5724,0 0,0 0.0104,-0.14334 0.074,-0.52094 8.06093,-2.04946 4.18746,-7.76293 9.8656,-10.04426 0.15933,-0.0676 0,5.3256 0,5.3256 -0.2432,1.12493 0.60573,1.89586 -3.436,4.0364 0,0.0573 4.69906,-0.61974 5.64586,-1.50254 z m -7.32813,-4.0396 c -0.0219,-0.0281 -2.276,-2.75733 -0.3656,-4.82506 2.98547,-3.23427 9.9984,-3.22654 11.00107,-7.952 0.2812,-0.1068 2.2968,-1.36307 2.4088,-1.36307 1.2708,8.1964 -11.40467,7.2708 -13.04427,14.14013 z m 11.086,-13.91093 c -0.8376,0.49587 -1.30467,0.2692 -1.31773,0.2692 0,0 2.30986,-1.58853 3.276,-6.7256 0.7656,-1.76533 1.78226,-1.688 2.26826,-1.36 2.18067,1.36 -2.79533,7.22733 -4.22653,7.8164 z m 3.80573,-9.38707 c -1.09373,0.22134 -1.74586,0.37467 -2.324,1.328 -0.44533,-0.82666 -0.33333,-0.82666 -1.64066,-1.26933 -1.71507,0 -2.3724,0.55467 -2.89214,1.39867 -0.1208,-0.74934 -1.1208,-1.34267 -2.12506,-1.568 -1.85,0 -1.9948,0.74533 -2.7432,1.568 0,0 -0.57974,-1.77334 -2.29067,-1.62267 -1.56973,0 -2.45573,0.952 -2.70827,2.012 -0.586,-0.63467 -0.48693,-1.59333 -2.37866,-1.68667 -0.75774,-0.0573 -1.95307,0.532 -2.176,1.568 -0.10627,0 -0.88654,-0.952 -1.75107,-1.30133 -0.1068,-0.492 -0.98067,-5.89733 -2.40627,-7.35467 0,-0.009 0.78654,-0.31733 1.88134,0.40934 1.5208,0.82133 2.1968,5.81466 2.1968,5.81466 l 1.07546,-0.72533 c 0,0 -0.0703,-3.18 -0.7536,-5.428 0.42027,-0.012 1.27294,-0.11867 1.72867,0.428 0.82187,0.9 1.1828,4.43333 1.1828,4.43333 l 0.99587,-0.71066 c 0,0 -0.26987,-2.61867 -0.45054,-4.39734 0.474,-0.005 1.00107,-0.032 1.47654,0.58534 0.6328,0.93066 0.9,3.22133 0.9,3.22133 l 0.91666,-0.90933 c 0,0 -0.2604,-1.49067 -0.42866,-2.952 7.62613,-0.116 16.65626,-0.184 18.0156,0.088 0.0521,0 -2.17334,2.26133 -3.30094,7.07066 z m 8.26974,-9.08 c -1.53387,0.38934 -18.28907,-0.61333 -26.9828,0.18134 l 0,-2.12667 c 12.21453,-0.56267 26.91666,0.452 26.91666,0.452 0,0 0.2708,0.81333 0.0661,1.49333" />
    <path
       id="path56"
       style="fill:#9a0150;fill-opacity:1;fill-rule:evenodd;stroke:none"
       d="m 308.163,518.07456 c -4.60666,-8.60266 -14.16133,-6.17066 -15.59333,-5.49866 -4.10133,1.16133 -8.10933,6.74533 -8,12.268 -5.21733,-5.55467 -2.764,-16.31334 -2.712,-16.808 0.0747,-1.28 0.23467,-1.66534 0.016,-2.432 1.23867,-0.34667 1.248,-0.33867 2.1,-1.35334 3.284,-4.74533 0.59334,-5.40266 -1.29466,-3.08133 0.21066,-3.08533 -1.41334,-1.828 -2.29067,-1.47467 -0.0733,-2.184 -1.632,-1.01466 -1.96267,-0.488 -0.95866,-3.22533 -3.556,-0.45866 -4.256,0.64934 -3.00666,-0.98134 -4.53066,0.49066 -4.58533,0.49066 2.80133,0.69734 2.568,1.472 2.62267,1.472 -0.32934,1.02267 -1.24934,1.344 -2.62267,1.30934 0.0547,0.16666 2.12667,1.02933 3.27467,-0.32667 1.24266,-1.85067 -1.19467,-2.464 -1.19467,-2.572 1.40533,0.012 2.96,0.552 3.81733,0.77333 3.12134,0.8 5.37867,2.14134 5.56267,5.232 0.0827,1.47067 -0.42267,3.15867 -0.656,4.25867 -0.57467,2.70267 -0.648,6.92 0,9.324 0.72667,2.72533 4.05467,10.65333 5.74267,7.19333 0.72666,-1.5 0.772,-4.084 2.02933,-7.52 1.51333,-4.10133 6.22267,-7.47733 11.94667,-6.29466 10.11333,2.1 8.84533,10.19466 8.53066,11.116 -0.304,0.91066 -0.98933,2.032 -0.98933,2.032 0,0 1.65733,-6.928 -3.75067,-8.09467 1.42,1.464 2.50267,8.092 -0.67466,10.80267 2.84133,-5.28934 0.468,-11.11334 -4.80534,-12.33334 2.152,2.14134 4.80534,7.18267 1.96,11.11734 0.4,-3.524 0.26267,-8.472 -6.016,-9.62534 8.908,5.10267 2.99067,14.75734 2.99067,14.864 7.86533,-7.592 4.04533,-13.248 4.04533,-13.248 0,0 4.26,2.99334 -0.11466,11.888 6.47466,-3.88133 4.57466,-10.44533 4.63199,-10.44533 2.40267,1.59067 0.62667,7.13467 0.62667,7.24133 0.10667,0 1.852,-1.88133 2.48,-4.10933 0.68933,-2.45467 -0.0747,-4.88133 -0.85867,-6.32667" />
    <path
       id="path58"
       style="fill:#9a0150;fill-opacity:1;fill-rule:evenodd;stroke:none"
       d="m 274.98967,503.4559 c 0.21334,0.124 1.468,-0.876 1.468,-0.98267 -0.876,-0.248 -1.25466,-0.64933 -2.452,-0.65467 0.0707,0.34134 0.47467,1.468 0.984,1.63734" />
    <path
       id="path60"
       style="fill:#9a0150;fill-opacity:1;fill-rule:evenodd;stroke:none"
       d="m 281.49501,558.23136 0.49466,0 c -0.092,0.55467 -0.49466,1.20054 -0.49466,1.31254 1.32666,-0.0885 1.68266,-0.4844 1.96266,-1.15374 -0.0493,-1.10413 -0.72666,-1.21093 -1.30533,-1.7968 0.0213,-0.1068 0.71333,-0.7136 0.82,-1.14066 0.14,-0.5912 -0.74133,-2.39587 -0.48933,-3.276 0.22666,-0.78134 0.94666,-0.7656 1.14133,-1.6328 -0.324,-0.06 -0.652,-0.112 -0.97867,-0.16667 -0.77733,-3.698 1.74934,-5.29333 2.10667,-8.47813 1.85867,0.3792 3.65867,0.1484 5.092,-0.52347 -3.09333,-0.12507 -8.29733,-1.32133 -10.26533,-2.44013 -3.10667,-1.03907 -8.58267,-7.43427 -9.28267,-8.59427 -1.44667,-2.4 -2.85733,-6.92533 -1.72,-11.37867 0.86,-3.44 5.01467,-11.21333 5.23333,-12.764 -0.17466,-1.56533 -2.28266,-2.39333 -2.62,-2.45333 0.0747,0.484 0.24134,0.60667 0.32934,0.81467 -5.18267,2.00266 -3.92667,5.784 -1.96534,5.56666 0.0733,0.32 -0.63866,1.26 0.81867,1.636 -0.35067,1.04534 -3.60133,6.20134 -3.76533,9.97867 -0.44934,10.48533 5.16666,13.52133 5.89333,14.72973 2.408,3.99427 -0.71867,6.4244 -2.15067,6.70574 -1.892,0.36973 -3.07733,0.73533 -4.064,0.44786 -0.85733,-0.24266 -1.22933,-1.27346 -1.96666,-1.26453 -1.528,0.0755 -1.68267,1.27493 -2.608,1.9052 0,0.26147 2.048,-1.13707 1.952,-0.42973 -0.136,0.53386 -0.932,1.51666 -0.656,2.9412 0.54,-0.31254 0.17866,-0.4516 0.49333,-0.98027 0.32933,-0.564 1.17733,-0.85147 1.636,-1.3088 0.488,0.052 0.97733,0.10827 1.47067,0.1604 0.0587,0.0557 0.112,0.1104 0.164,0.164 -0.005,1.2448 -0.388,2.13027 -1.14667,2.62507 l 0,0.32546 c 1.15467,-0.28386 2.13333,-1.18386 2.292,-2.4572 2.37733,-0.0105 3.85467,0.17707 5.23733,0.98174 0.12134,-0.43494 -0.0653,-0.91667 0.16267,-1.31094 0.97733,-0.7448 2.096,-0.49373 3.38,-1.17186 0.26533,-0.1344 0.844,-0.57294 1.03733,-0.79427 0.0547,-0.0521 0.23067,-0.0147 0.23067,0.0416 4.08267,3.15373 1.62267,11.65107 1.496,12.08853 0.38,0.17187 0.47067,0.2552 0.47067,0.2552 0,0 0.0387,0.0939 0.108,0.21627 0.036,0.026 0.068,0.0443 0.0733,0.0547 1.788,-3.45107 1.356,-9.14227 0.40267,-11.34014 -0.84134,-1.9464 -4.608,-5.362 -6.21467,-6.87866 l 0,-0.1588 c 0.712,0.59626 5.63333,3.95666 9.09467,4.41146 0.0627,1.99467 -1.408,5.5504 -1.408,5.6052 -0.003,1.16814 0,2.2124 0.16533,3.07187 -0.19467,0.85147 -0.11333,2.21093 -0.39333,3.2968 0,0.3828 0.12266,0.78387 0.12266,1.15893 -0.24,0.5 -1.02666,0.5 -1.2,1.27867 -0.30133,-0.0496 -0.52,-0.31307 -0.64266,-0.5 -0.168,-0.14067 -0.584,-0.45053 -0.584,-0.45053 0,0 0.003,-0.008 0.005,-0.0209 -0.008,-0.003 -0.0213,-0.008 -0.0293,-0.0129 -0.692,0.33587 -0.99467,0.72387 -2.51334,0.32547 -0.424,0.44266 -0.82133,0.7448 -1.14533,1.30213 -1.232,-0.14587 -3.308,-1.02867 -4.748,-0.4896 -2.04,0.776 -4.51333,3.55733 -4.51333,3.55733 0,0 -0.632,0.90094 -0.0653,1.1848 0.464,0.20787 2.70267,0.14067 3.772,0.1172 0.91734,-0.0183 5.26934,-0.0547 6.36667,-0.27866 0.82267,-0.164 3.89867,-0.1172 2.948,-0.6484 -0.60267,-0.4036 -5.232,-0.32294 -5.232,-0.32294 -1.752,0 -3.76533,-0.0989 -3.71333,-0.1536 1.22266,-2.16933 4.83333,-2.28133 5.00533,-2.15893 0.0653,0.1016 0.032,0.4376 0.0133,1.00267 l 0.32667,0 c 0.39867,-0.90627 0.972,-1.09947 1.47733,-1.80987 0.46267,0.0181 0.696,0.0703 0.98267,0.16667 -0.58667,1.1796 0.864,2.41146 0.864,2.3568 0.36,-0.3308 -0.14667,-1.0964 0.11467,-1.53907 0.312,-0.36467 0.832,-0.44067 1.144,-0.81773 0.75333,0.1692 0.71866,0.74213 0.98,1.30986" />
    <path
       id="path62"
       style="fill:#9a0150;fill-opacity:1;fill-rule:evenodd;stroke:none"
       d="m 292.75101,523.07323 c 1.42,1.11867 2.08933,1.27333 3.18533,3.46 1.964,3.92667 -1.11733,6.644 -1.11733,6.756 4.54133,-2.83067 3.92933,-11.076 -1.192,-12.14667 0.68,0.60934 2.59333,1.66267 3.088,4.64134 0,0.112 -1.896,-2.776 -3.964,-2.71067" />
    <path
       id="path64"
       style="fill:#9a0150;fill-opacity:1;fill-rule:evenodd;stroke:none"
       d="m 273.82567,529.4599 c -0.248,-0.21334 -2.93866,-3.17867 -1.61866,-10.128 -0.10934,0 -4.08267,6.58933 1.61866,10.128" />
    <path
       id="path66"
       style="fill:#9a0150;fill-opacity:1;fill-rule:evenodd;stroke:none"
       d="m 287.10434,538.65056 c -0.51467,0.16667 -4.53467,0.93494 -9.284,-4.304 -0.0587,0.0893 3.19733,7.0264 9.284,4.304" />
    <path
       id="path68"
       style="fill:#9a0150;fill-opacity:1;fill-rule:evenodd;stroke:none"
       d="m 287.10434,538.65056 c 0.0387,-0.0104 0.0627,-0.0208 0.0573,-0.0208 -0.0187,0.008 -0.0373,0.0131 -0.0573,0.0208" />
    <path
       id="path70"
       style="fill:#9a0150;fill-opacity:1;fill-rule:evenodd;stroke:none"
       d="m 277.88567,530.9599 c -0.08,0.11333 3.22934,8.9808 10.71067,6.084 -0.62933,0.17293 -5.59467,0.92293 -10.71067,-6.084" />
    <path
       id="path72"
       style="fill:#9a0150;fill-opacity:1;fill-rule:evenodd;stroke:none"
       d="m 288.59634,537.0439 c 0.044,-0.012 0.0733,-0.0209 0.068,-0.0235 -0.024,0.0104 -0.048,0.0183 -0.068,0.0235" />
    <path
       id="path74"
       style="fill:#9a0150;fill-opacity:1;fill-rule:evenodd;stroke:none"
       d="m 287.39367,533.5159 c -0.048,-0.024 -0.0707,-0.036 -0.0707,-0.0307 0.0227,0.0107 0.0413,0.02 0.0707,0.0307" />
    <path
       id="path76"
       style="fill:#9a0150;fill-opacity:1;fill-rule:evenodd;stroke:none"
       d="m 287.39367,533.5159 c 0.55467,0.34533 4.472,3.47946 2.81334,11.99666 0.12933,-0.0172 4.396,-8.48066 -2.81334,-11.99666" />
    <path
       id="path78"
       style="fill:#9a0150;fill-opacity:1;fill-rule:evenodd;stroke:none"
       d="m 288.82434,532.5719 c -0.0427,-0.0187 -0.0693,-0.028 -0.0667,-0.0213 0.024,0.005 0.048,0.0147 0.0667,0.0213" />
    <path
       id="path80"
       style="fill:#9a0150;fill-opacity:1;fill-rule:evenodd;stroke:none"
       d="m 288.82434,532.5719 c 0.60933,0.26266 4.932,2.804 4.50667,11.46413 0.12666,-0.0312 3.14133,-9.01347 -4.50667,-11.46413" />
    <path
       id="path82"
       style="fill:#9a0150;fill-opacity:1;fill-rule:evenodd;stroke:none"
       d="m 288.82167,531.22523 c 0.016,0.004 0.028,0.004 0.044,0.004 -0.028,-0.004 -0.044,-0.007 -0.044,-0.004" />
    <path
       id="path84"
       style="fill:#9a0150;fill-opacity:1;fill-rule:evenodd;stroke:none"
       d="m 288.86567,531.22923 c 0.496,0.092 6.23867,1.92267 6.908,10.21413 0.12134,-0.0573 1.88267,-9.44746 -6.908,-10.21413" />
    <path
       id="path86"
       style="fill:#9a0150;fill-opacity:1;fill-rule:evenodd;stroke:none"
       d="m 275.19767,528.78923 c 0,0.0387 -1.83466,-2.316 -1.14266,-7.07067 -0.076,0 -2.388,4.38534 1.14266,7.07067" />
    <path
       id="path88"
       style="fill:#9a0150;fill-opacity:1;fill-rule:evenodd;stroke:none"
       d="m 288.56701,557.4527 c -1.612,0.0156 -2.17867,0.86986 -2.12534,0.97653 1.44267,0.34907 3.568,0.47133 5.112,1.61467 0.42134,-0.0313 0.94,0.0312 0.94,0.0312 0,0 -0.804,-2.32814 -3.92666,-2.6224" />
    <path
       id="path90"
       style="fill:#9a0150;fill-opacity:1;fill-rule:evenodd;stroke:none"
       d="m 280.55367,560.40056 0,0.32814 c 1.14534,0.0417 2.99734,0.27613 4.08534,0.31986 2.916,0.12547 6.888,-0.4448 7.27333,-0.5776 0.46133,0 0.58133,-0.28653 0.58133,-0.39586 -1.57866,-0.0547 -3.15866,-0.112 -4.74,-0.164 -0.80933,0.5728 -5.76133,0.2208 -7.2,0.48946" />
    <path
       id="path92"
       style="fill:#9a0150;fill-opacity:1;fill-rule:evenodd;stroke:none"
       d="m 279.50967,555.0439 -0.0947,0.0859 0.47733,0.47654 0.21733,0.0885 0.0333,-0.0989 -0.0813,-0.32814 -0.552,-0.22386" />
    <path
       id="path94"
       style="fill:#9a0150;fill-opacity:1;fill-rule:evenodd;stroke:none"
       d="m 246.49767,546.88496 c -0.088,-1.9036 -0.088,-4.31506 0,-6.21506 5.95067,-0.67454 9.98,-3.87867 11.368,-8.266 4.33867,-13.68667 -9.88933,-15.23467 -11.204,-15.956 -0.0547,-1.196 0.104,-2.36 0.0493,-3.56667 9.13466,-1.17467 12.36533,-9.48267 7.47466,-16.72 -2.07066,-3.07067 -8.72533,-4.256 -8.83333,-4.256 -0.0787,-4.37733 -0.59067,-10.46933 -2.03333,-12.94933 -0.81467,-0.764 -1.356,-0.85734 -2.224,-0.95734 -4.99987,-0.13066 -3.9244,12.48667 -4.10147,12.99867 -2.22653,-0.27333 -4.1,-1.11733 -4.88013,-2.98267 -0.7032,-1.69066 0.2328,-3.196 0.23586,-3.196 3.01667,-0.156 4.1432,-3.97066 4.0036,-7.64133 -0.0443,-1.19067 -0.45826,-2.97467 0,-3.76 0.0391,-1.904 -0.74213,-1.08533 -1.64053,-2.01867 -0.24067,-0.36533 0.32293,-1.252 0.6536,-1.57866 1.27347,-1.25733 2.71707,-2.53867 4.26107,-3.60267 -1.212,0.35467 -4.01894,2.88267 -4.42774,2.92267 -1.54013,0.32133 0.71614,-5.70667 0.66147,-5.70667 -0.56507,1.344 -1.2708,3.06934 -1.69693,4.79334 -0.34734,1.40399 1.1188,1.73466 0.06,3.06266 -0.2068,0.25733 -0.69227,-0.024 -1.148,0.164 -0.5172,0.21867 -7.38067,6.29867 -5.49894,10.192 0.16934,0.36 0.68227,1.08133 0.42974,1.91733 -0.34014,1.112 -1.30467,2.032 -1.6396,3.27334 -2.1104,7.84133 4.55466,11.01066 10.3896,11.63866 0.052,0.0573 -0.0313,3.364 0.0391,5.06 -5.90106,0.63467 -10.64066,2.85067 -12.87666,7.18934 -1.1328,2.188 -1.31614,5.92266 0,8.184 2.59386,4.464 6.4652,6.35066 11.44693,8.504 0.0131,0.98666 0.038,4.464 0.038,4.844 -5.38173,1.1 -10.6448,3.252 -13.12133,7.26293 -1.6016,2.58747 -1.57547,6.78547 0,9.33227 2.0156,3.25266 7.94786,6.63026 12.5948,7.20053 -0.0333,1.03907 0.1448,4.61467 0,5.0652 -1.36454,0.1484 -5.24587,2.05467 -7.19894,6.21867 -2.20573,6.61933 2.7812,9.3724 7.0364,11.45573 -0.0235,5.28173 -0.7864,11.076 -0.65773,15.05 0.7244,1.138 1.43747,2.03907 2.78533,2.46093 0.55214,0.25267 2.16187,-0.3984 3.27254,-0.32813 0.484,0.0287 0.61733,0.138 0.81866,0.32813 1.02934,0.974 5.59334,-0.69533 6.216,-2.12493 0.136,-0.31773 0,-3.04427 0,-4.26307 -0.052,-3.2188 -0.10666,-5.99733 -0.15866,-9.20933 1.076,-1.00733 2.60533,-2.83853 3.42533,-4.06987 4.424,-6.68746 -2.76,-6.31813 -3.91867,-6.18746 0.0547,-0.8208 -0.072,-1.58334 -0.016,-2.40107 5.89867,-1.1432 10.84667,-2.70827 12.26534,-8.3724 2.64,-10.5208 -8.00667,-12.6796 -12.24934,-12.78907 z m -6.65466,-67.20373 c 0.60533,-0.81867 1.49333,-1.18933 2.36933,-0.67733 1.74267,1.00666 1.96667,9.348 2.156,12.084 0.13067,1.81466 0.62133,9.776 0.164,11.12666 -1.35333,0.31067 -5.684,1.04934 -5.684,1.04934 0,0 -1.31333,-19.20134 0.99467,-23.58267 z m -4.30934,16.96933 c 0.0953,-1.20266 0.8792,-2.556 0.68907,-2.792 -0.42453,-0.22266 -3.68747,1.48 -3.79533,1.48 0.32133,-0.94666 2.24586,-2.86533 1.71093,-2.92266 -0.23853,-0.20934 -4.32973,0.47333 -5.15,0.47333 0,-0.0547 2.84373,-1.54267 2.7224,-1.804 -0.0125,-0.32667 -3.6964,-1.34267 -3.8656,-1.47067 0.5536,-0.22533 2.23173,-0.572 2.1848,-0.85066 0.0235,-0.496 -1.33853,-1.46134 -2.1848,-1.928 0.5536,-0.184 2.13173,-0.39867 2.2604,-0.74534 0.1068,-0.85066 -0.91413,-1.19733 -1.2812,-2.20133 -0.0781,-0.0573 1.7968,-2.01867 0.95307,-2.372 -2.93747,-1.21067 3.25626,-9.66667 3.7276,-9.632 1.09533,0.0507 1.19946,0.24933 1.82706,0.67733 -0.0573,1.532 -0.83333,2.09867 -1.16306,3.276 -0.27187,0.996 -0.76134,2.85067 -0.6276,3.96267 0.5136,-0.34 0.72146,-0.74267 1.14226,-1.184 -0.2256,-1.28667 0.32547,-1.98667 0.68227,-2.912 1.21453,4.74533 -1.44013,8.388 -3.65787,8.568 -0.005,0 -0.005,0.003 -0.003,0.005 -0.0516,0.0227 -0.0937,0.16134 -0.0937,0.16134 l 0.003,10e-4 c -0.3932,1.00933 -0.28013,0.68133 -0.4432,1.296 -0.36453,1.39733 -0.0521,5.57067 5.68907,6.00133 -0.0104,1.428 0.11973,2.832 -0.0183,4.09467 -0.43746,0.224 -1.25933,0.81733 -1.3088,0.81733 z m -5.3188,25.40534 c 0,-0.0547 3.16667,-2.236 3.02974,-2.708 -0.26934,-0.79467 -6.43854,-1.08267 -7.04014,-1.59067 -0.50413,-0.80667 4.0104,-0.172 4.08854,-0.816 0.28386,-0.57733 -3.926,-4.20133 -3.926,-4.25733 1.72546,0.56 4.6016,2.61066 5.24786,2.05333 0.4724,-0.36267 -2.79053,-6.19467 -2.79053,-6.304 1.5208,1.52533 4.42547,4.15867 4.96093,3.91067 0.65614,-0.396 -1.36093,-5.28667 -1.03133,-5.55067 1.39173,0.43333 4.2552,4.26933 4.91707,3.95867 0.496,-0.232 -0.99,-4.28267 -0.99,-4.44667 1.826,0.92933 6.138,4.58267 6.68466,4.38133 0.612,-0.67866 -2.76133,-4.98266 -2.76133,-5.036 2.18133,0.76534 9.532,3.152 9.82267,2.78267 0.33733,-0.47733 -5.73334,-4.53067 -5.73334,-4.58267 8.74534,-0.316 8.83467,-0.86933 8.83467,-0.98133 0.22667,-0.73733 -6.58933,-2.456 -6.70267,-2.456 3.94667,-1.39733 5.01467,-2.12667 5.06934,-2.12667 -0.56267,-0.96533 -4.56667,-0.53466 -6.05467,-0.49066 -0.104,-1.57867 -0.216,-3.29067 -0.32533,-4.87067 4.07866,0.26133 8.228,2.968 9.16266,6.17867 1.40267,4.79466 0.616,8.904 -3.452,11.20666 -3.65333,2.07067 -11.788,2.168 -13.55466,2.57067 -4.0644,0.94667 -3.11494,3.39067 -1.89627,4.88533 0.0573,1.476 0.22667,2.16534 -0.0703,3.11867 -0.11346,0.812 -5.0416,1.92667 -5.4896,1.17067 z m 9.03614,9.23733 c -0.27334,0 -1.316,0.20933 -1.59334,0.20933 0,-3.48666 0.236,-15.94266 -0.0787,-16.94266 2.09333,-0.49734 5.42533,-0.63334 7.776,-1.216 0.0293,3.44533 0.18,15.81066 0.18,16.524 -0.35067,0.496 -4.256,1.33866 -5.37467,1.33733 -0.18267,-1.55333 -0.412,-11.40933 -0.412,-11.40933 0,0 -0.384,1.73866 -0.49733,1.73866 -0.04,2.98267 0.0573,9.70267 0,9.75867 z m -6.76894,21.31053 c 0.786,-1.2292 0.91774,-2.5156 1.07814,-3.16933 -0.76454,-0.21613 -8.17347,0.1224 -8.17347,0.0704 1.17973,-0.55987 4.17707,-1.5808 4.0912,-1.9584 0.1536,-0.84373 -5.1536,-3.34893 -5.55893,-3.93227 1.91413,0.2588 5.25946,1.32814 5.39746,0.8136 0.24734,-0.55053 -3.112,-5.50786 -3.112,-5.55733 1.97654,0.9416 4.98334,3.81253 5.4568,3.5432 0.52134,-0.20307 -1.53226,-5.40107 -1.53226,-5.5068 1.2968,0.8636 3.94893,3.698 4.4244,3.4324 0.29586,-0.16413 -0.82027,-4.69 -0.82027,-4.91133 1.4724,1.42173 3.90587,3.81226 4.30187,3.66546 0.44533,-0.0547 -0.37734,-4.9188 -0.37734,-4.9708 1.98534,1.32267 4.75334,4.45 5.404,4.3328 0.59867,-0.3568 -0.98533,-4.3008 -0.98533,-4.35813 1.456,0.39867 6.136,3.742 6.792,3.28253 0.62267,-1.052 -3.028,-4.3492 -3.028,-4.40253 1.96533,0.27333 7.45333,1.37867 8.02133,0.488 0.272,-0.85333 -5.676,-3.21467 -5.73066,-3.27067 1.15733,-0.316 6.96933,-2.02266 6.50533,-2.81466 -0.53867,-0.85467 -7.17867,0 -6.83067,-0.46134 0.02,-0.81466 3.82934,-2.76666 3.752,-3.39333 -0.572,-0.972 -3.55466,0.24267 -5.06,0.28533 0.005,-2.02933 0.14267,-4.06933 0.164,-5.88933 4.26134,0.45867 8.06667,2.44267 9.65334,5.72933 3.04533,6.316 -0.61734,12.67974 -5.24134,14.5636 -3.908,1.58747 -9.96,1.09534 -14.39266,2.28907 -4.15627,1.11453 -3.0744,4.70733 -1.63014,5.56507 l 0,5.56146 c -0.788,0.3984 -2.51826,0.974 -2.5688,0.974 z m 13.03294,5.89587 c -0.108,0.28907 -0.032,0.16667 -0.16267,0.33587 -0.95733,0.7604 -3.45733,0.86466 -5.072,0.81773 -0.11067,-3.70573 -0.244,-17.54693 0,-18.25933 1.45867,-0.21614 4.964,-0.5636 5.072,-0.5636 0.0533,3.05733 0.44533,17.19533 0.16267,17.66933 z m -5.776,1.1744 c -0.848,0.24227 -1.36934,0.35947 -2.08134,0.46613 -0.024,-2.86453 -0.12266,-17.27333 0.472,-18.19786 0.20267,-0.33747 1.056,-0.41934 1.16534,-0.41934 0.0213,6.8724 0.46133,11.66667 0.444,18.15107 z m -0.276,35.15413 c -0.65734,0.06 -1.30934,0.11467 -1.96934,0.16667 0.42534,-3.71613 0.344,-7.4504 -0.48706,-10.96347 -0.16414,-0.68493 0.67506,-2.59693 0.5724,-2.96666 -0.1792,-0.66147 -0.43334,-1.33854 -0.5412,-1.8104 -0.12494,-0.54947 0.1172,-1.23907 0.18226,-1.53334 0.39627,-1.80213 0.45094,-7.67973 0.45094,-7.67973 0,0 0.27466,-0.94787 2.23866,-1.112 0,0 0.47067,17.7532 -0.44666,25.89893 z m 1.964,0.65374 c -0.41467,-0.0521 -0.332,-6.8724 -0.332,-8.448 0.64133,-1.5 4.74533,-5.4588 4.74533,-5.4588 0,0 0.0987,8.94066 0.14267,12.136 -0.99067,1.5364 -4.46667,2.08066 -4.556,1.7708 z m 6.276,-18.57134 c -0.0933,-0.45573 -0.70134,-1.10106 -0.608,-1.47866 0.11866,-0.88027 1.488,-1.97707 1.352,-2.52134 -0.38667,-0.39533 -1.07867,-0.26253 -1.812,-0.1428 0,-0.6124 0.024,-0.90146 0.024,-1.50773 1.83866,-0.0265 3.99066,0.052 3.936,2.1744 -0.044,1.70573 -3.57867,5.5256 -6.18934,8.14067 -1.22133,1.21666 -3.74933,4.08906 -3.80133,4.08906 -0.0133,-0.7812 -0.005,-1.38026 0.32933,-1.79946 0.23734,-0.6276 1.668,-1.39587 1.77334,-1.58854 0.14266,-0.44893 -0.42934,-0.59173 -0.33067,-0.83693 0.37467,-0.59587 2.36267,-1.2808 2.652,-1.58333 0.156,-0.52867 -0.0387,-1.17667 0.0333,-1.36934 0.20934,-0.83853 2.48534,-1.25786 2.64134,-1.576 z m -7.052,-8.10106 c 0,0 4.64533,-0.54947 4.70133,-0.49267 0.003,1.83853 0.41467,6.43013 -0.16267,8.03173 -0.53733,1.46094 -4.20133,5.55254 -4.256,5.55254 0.0133,-3.2744 -0.28266,-13.0916 -0.28266,-13.0916 z m 13.964,-4.8308 c -2.09867,1.42453 -7.184,3.39586 -13.872,3.53386 -6.79894,0.13027 -6.68587,3.786 -5.24067,4.536 0.0887,1.3468 0,0.57814 0,2.37547 -0.92547,-0.0156 -3.6796,0.1172 -3.8968,0.1172 0,-0.0599 1.73173,-1.37027 1.63907,-1.888 -0.1276,-0.52133 -3.50214,-0.888 -3.436,-1.05987 0.0688,-0.52866 2.91666,-0.77133 3.07666,-1.1932 0.1224,-0.62453 -3.2928,-2.20266 -3.24333,-2.41666 0.4376,-0.21574 4.0912,0.70573 4.60053,0.24266 0.31614,-0.51613 -2.63693,-3.1276 -2.63693,-3.17973 1.87347,0.31987 4.5364,1.74173 4.71347,1.46613 0.3204,-0.30773 -1.27334,-3.31773 -1.27334,-3.4244 0.85934,0.5468 4.57067,2.8172 4.70267,2.60934 0.296,-0.20574 -1.27067,-3.04694 -1.27067,-3.10414 1.02267,0.29947 5.80267,3.45307 6.27334,3.2968 0.54533,-0.2812 -2.34667,-4.00826 -2.34667,-4.1172 1.36667,0.55214 7.32933,2.85427 7.69067,2.45574 0.18666,-0.3828 -3.59734,-3.22387 -3.59734,-3.276 2.136,0.0156 7.408,-0.15627 7.50934,-0.69534 0.104,-0.57026 -5.70667,-1.78906 -5.876,-1.9244 0.0107,-0.25 6.76,-2.35426 6.35466,-2.86466 -1.25466,-0.47654 -6.62533,-0.3984 -6.84533,-0.3984 0.264,-0.64587 4.976,-3.32027 4.75067,-3.5964 -0.35467,-0.33334 -4.92934,0.81 -5.636,0.81 -0.136,-1.1068 -0.0773,-3.01827 -0.0933,-4.38294 3.63467,-0.0364 8.33067,1.61467 9.816,3.89334 2.7,4.1536 1.27867,10.0624 -1.86266,12.1848" />
    <path
       id="path96"
       style="fill:#9a0150;fill-opacity:1;fill-rule:nonzero;stroke:none"
       d="m 171.61341,585.52616 -2.59387,0.64067 c -0.1952,0.0391 -0.30613,0.0755 -0.51453,-0.0157 -0.29267,-0.1276 -0.44787,-0.3932 -0.44787,-0.6952 0,-0.39067 0.3416,-0.64334 0.7176,-0.64334 0.15107,0 0.4636,0.0833 0.63654,0.112 l 2.20213,0.38547 z m 0.56093,-1.4532 -1.94533,-1.21866 c -0.34373,-0.19534 -0.74173,-0.40107 -0.74173,-0.862 0,-0.4068 0.30573,-0.70107 0.71093,-0.70107 0.48547,0 0.6224,0.37453 0.85786,0.71667 l 1.24587,1.92453 z m 0.1276,2.87507 -1.42973,2.21613 c -0.18853,0.27867 -0.34373,0.41147 -0.7032,0.41147 -0.376,0 -0.66667,-0.28907 -0.66667,-0.66147 0,-0.45053 0.3724,-0.6172 0.69587,-0.83333 l 1.94533,-1.2656 z m 1.36093,0.0156 c -0.8048,0 -1.48853,-0.65627 -1.48853,-1.4844 0,-0.802 0.63947,-1.4844 1.4744,-1.4844 0.79427,0 1.47347,0.65373 1.47347,1.44013 0,0.8256 -0.6172,1.52867 -1.45934,1.52867 z m -0.1224,-3.52347 -0.56,-2.5656 c -0.0457,-0.21613 -0.0781,-0.3416 0,-0.54213 0.0939,-0.2808 0.35267,-0.45267 0.63654,-0.45267 0.3896,0 0.74626,0.32507 0.74626,0.71614 0,0.14066 -0.0963,0.46093 -0.126,0.60373 l -0.48066,2.24053 z m 0.20307,4.03134 0.52347,2.28386 c 0.0349,0.13534 0.112,0.4452 0.112,0.60414 0,0.3828 -0.3724,0.68746 -0.7448,0.68746 -0.3308,0 -0.68494,-0.33853 -0.68494,-0.68746 0,-0.15894 0.0771,-0.4688 0.10934,-0.60414 l 0.4636,-2.28386 z m 1.2396,-3.55734 1.2276,-1.92186 c 0.23067,-0.37294 0.374,-0.73227 0.88333,-0.73227 0.3724,0 0.686,0.32547 0.686,0.6984 0,0.5052 -0.36106,0.6484 -0.75013,0.89587 l -1.8932,1.21866 z m 0.1536,2.90107 1.97133,1.2656 c 0.34014,0.21613 0.69907,0.36973 0.69907,0.83333 0,0.3932 -0.30733,0.71094 -0.71307,0.71094 -0.31146,0 -0.4484,-0.13547 -0.60573,-0.36974 l -1.4896,-2.30733 z m 0.56253,-1.5052 2.23334,-0.4428 c 0.15573,-0.0364 0.46613,-0.0937 0.60626,-0.0937 0.3724,0 0.71347,0.30733 0.71347,0.6824 0,0.35413 -0.34107,0.67706 -0.69893,0.67706 -0.20307,0 -0.43227,-0.0625 -0.6208,-0.0912 l -2.23334,-0.5156 0,-0.21613" />
    <path
       id="path98"
       style="fill:#9a0150;fill-opacity:1;fill-rule:nonzero;stroke:none"
       d="m 303.49367,585.50536 -2.596,0.64054 c -0.20133,0.0469 -0.30933,0.0756 -0.512,-0.0156 -0.29466,-0.1224 -0.452,-0.3932 -0.452,-0.69787 0,-0.38547 0.34534,-0.63547 0.71734,-0.63547 0.152,0 0.46,0.0808 0.63066,0.112 l 2.212,0.3828 z m 0.552,-1.4532 -1.93733,-1.21613 c -0.33733,-0.19787 -0.74933,-0.4088 -0.74933,-0.86453 0,-0.40467 0.31466,-0.69587 0.72266,-0.69587 0.47734,0 0.61334,0.36973 0.85067,0.71667 l 1.24133,1.92186 z m 0.128,2.87507 -1.432,2.21613 c -0.18266,0.27867 -0.33866,0.41147 -0.69066,0.41147 -0.37734,0 -0.676,-0.28133 -0.676,-0.65893 0,-0.45054 0.37733,-0.6172 0.70666,-0.83587 l 1.93467,-1.26307 z m 1.36533,0.0156 c -0.80533,0 -1.49333,-0.65893 -1.49333,-1.4792 0,-0.80213 0.63867,-1.48693 1.47733,-1.48693 0.788,0 1.47867,0.65106 1.47867,1.44266 0,0.82294 -0.62533,1.52347 -1.46267,1.52347 z m -0.12266,-3.52867 -0.56,-2.55826 c -0.0507,-0.21827 -0.0787,-0.34334 0,-0.5412 0.0907,-0.27867 0.35866,-0.4536 0.63866,-0.4536 0.38934,0 0.74134,0.32813 0.74134,0.71093 0,0.14893 -0.0933,0.464 -0.124,0.6072 l -0.47867,2.23493 z m 0.20533,4.03907 0.52133,2.27867 c 0.0307,0.13533 0.108,0.45053 0.108,0.6068 0,0.38013 -0.36666,0.68746 -0.74666,0.68746 -0.32134,0 -0.68267,-0.33853 -0.68267,-0.68746 0,-0.15627 0.0827,-0.47147 0.112,-0.6068 l 0.46667,-2.27867 z m 1.23867,-3.55733 1.224,-1.9244 c 0.23333,-0.37294 0.37066,-0.7276 0.89066,-0.7276 0.368,0 0.68134,0.32293 0.68134,0.69893 0,0.5052 -0.35867,0.6484 -0.744,0.8932 l -1.896,1.21613 z m 0.156,2.90106 1.972,1.26307 c 0.34133,0.21867 0.69733,0.36973 0.69733,0.83587 0,0.388 -0.30933,0.71093 -0.71067,0.71093 -0.31333,0 -0.45866,-0.138 -0.61333,-0.36973 l -1.49067,-2.30987 z m 0.56133,-1.5052 2.232,-0.44533 c 0.15733,-0.0339 0.47067,-0.0937 0.608,-0.0937 0.37067,0 0.712,0.30733 0.712,0.67973 0,0.35413 -0.34133,0.6848 -0.69333,0.6848 -0.208,0 -0.44134,-0.0624 -0.62667,-0.0937 l -2.232,-0.51814 0,-0.2136" />
    <path
       id="path100"
       style="fill:#9a0150;fill-opacity:1;fill-rule:nonzero;stroke:none"
       d="m 215.79821,458.6599 -0.95414,0.24133 c -0.4276,0.0707 -0.7584,-0.184 -1.012,-0.78133 -0.32813,-0.78667 -0.83333,-2.264 -1.42186,-3.97733 0,0 -0.5948,-1.752 -0.60934,-1.79867 0.0115,0.0147 0.0781,-0.008 0.0781,-0.008 l 0,0 c 0,0.0107 0.28386,0.208 0.28386,0.208 0.57814,0.40933 5.8176,3.524 6.9296,3.99067 1.0756,0.45066 1.7344,0.692 2.79947,0.43466 l 1.32293,-0.41066 c 0,0 1.13027,-0.32934 3.28227,-0.58534 l 2.11987,-0.184 c 0.22026,-0.0227 0.36093,-0.0787 0.33746,-0.26266 -0.0156,-0.15467 -0.1224,-0.172 -0.3448,-0.14667 l -0.29946,0.032 c -0.29587,0.036 -0.51454,-0.003 -0.65,-0.10933 -0.10934,-0.084 -0.1692,-0.21334 -0.19267,-0.39467 -0.0235,-0.228 0.0156,-0.71067 0.16147,-1.24133 l 0.74573,-2.98534 c 0.024,-0.116 0.0548,-0.15333 0.14333,-0.16133 l 4.4572,-0.50667 c 0.0901,-0.008 0.14174,0.016 0.18854,0.10134 l 2.08333,4.04933 c 0.0381,0.068 0.0485,0.128 0.0485,0.18 0.0181,0.06 0.0156,0.132 -0.0287,0.18533 -0.0297,0.0413 -0.0756,0.0653 -0.12507,0.076 l -0.008,0.005 c -0.18227,0.0413 -0.29014,0.088 -0.27454,0.236 0.0177,0.15466 0.23027,0.14266 0.55414,0.11866 l 0.0885,-0.005 3.778,-0.392 c 0.60133,-0.068 0.816,-0.12 0.88933,-0.21733 l 0.004,-0.012 c 0.024,-0.0307 0.0373,-0.0667 0.0347,-0.10667 -0.001,-0.0307 -0.0187,-0.0547 -0.0373,-0.076 -0.0493,-0.084 -0.15467,-0.088 -0.27334,-0.072 l -0.84666,0.0147 c -0.46667,-0.06 -1.068,-0.332 -1.98974,-1.96 l -4.02506,-7.40934 -2.33427,-4.30533 c -0.24747,-0.42133 -0.39587,-0.616 -0.59907,-0.592 -0.21973,0.0253 -0.3176,0.288 -0.48426,0.87867 l -3.57454,13.11733 c -0.19786,0.72267 -0.40053,1.33067 -0.8708,1.688 -0.474,0.24267 -1.48853,0.13467 -1.48853,0.13467 -1.0948,-0.044 -2.17707,-0.548 -3.22507,-1.036 l -0.1916,-0.0893 c -0.9792,-0.44933 -6.07813,-3.196 -7.06613,-3.85066 0.4192,-0.86934 2.3192,-4.71334 2.71093,-5.48267 0.48947,-0.96 0.988,-1.632 1.56507,-2.11867 0.32027,-0.25866 0.76827,-0.49466 1.02867,-0.58 0.0896,-0.0347 0.14733,-0.0693 0.1864,-0.10933 0.0464,-0.028 0.0781,-0.0787 0.0781,-0.14133 0,-0.092 -0.0812,-0.172 -0.17707,-0.172 -0.003,0 -0.008,0.001 -0.0136,0.001 -0.0791,-0.007 -0.17026,0.02 -0.24573,0.0453 l -2.21093,0.81867 -1.97507,0.61067 c -0.0729,0.0213 -0.12653,0.0467 -0.16667,0.0707 -0.0708,0.0227 -0.124,0.0853 -0.124,0.16267 0,0.056 0.0261,0.10133 0.0677,0.13333 0.0652,0.0707 0.16826,0.0707 0.29586,0.0573 0.1792,-0.024 0.2964,0.064 0.376,0.27466 0.0157,0.0493 0.0235,0.10667 0.0235,0.17467 0,0.32133 -0.20467,0.824 -0.4416,1.43067 l -0.0521,0.12933 c -0.1964,0.50133 -0.92547,2.068 -1.57654,3.444 0,0 -0.9652,2.09333 -0.96773,2.09733 -0.003,-0.004 -0.0333,0.008 -0.0568,0.0173 -0.0156,-0.0387 -0.30627,-0.892 -0.30627,-0.892 -0.97293,-2.84534 -1.14426,-3.35734 -1.3124,-3.972 -0.0652,-0.24534 -0.10426,-0.44267 -0.10426,-0.612 0,-0.32534 0.138,-0.52134 0.4256,-0.68667 l 0.50933,-0.236 c 0.0573,-0.02 0.18747,-0.0693 0.2188,-0.176 l 0,0 c 0.005,-0.0133 0.0156,-0.0267 0.0156,-0.0467 0,-0.003 -0.003,-0.008 -0.003,-0.012 0,0 0.003,0 0.003,-0.003 0,-0.0613 -0.0339,-0.10934 -0.0808,-0.13734 -0.008,-0.008 -0.0129,-0.0133 -0.0129,-0.0133 -0.0756,-0.0373 -0.19534,-0.0227 -0.40374,0.0467 l -1.3348,0.49066 -0.94533,0.35067 -0.8568,0.26933 -1.83333,0.58267 c -0.26934,0.096 -0.42547,0.18533 -0.37347,0.344 0.0599,0.16933 0.24227,0.132 0.41253,0.0787 0.25254,-0.0867 0.5912,-0.18267 0.75934,-0.19734 0.67973,-0.08 0.91826,0.18934 1.16146,0.788 0.24587,0.59334 0.4204,1.10534 1.388,3.95067 l 1.17454,3.41733 c 0.58853,1.744 1.10413,3.252 1.27973,4.08534 0.10827,0.54133 0.16667,1.004 -0.1808,1.20666 l -0.65773,0.31067 c -0.14694,0.0493 -0.2396,0.112 -0.2552,0.19467 -0.0204,0.124 0.0823,0.19866 0.0823,0.19866 0.0896,0.0653 0.20307,0.0267 0.3828,-0.0333 l 1.4896,-0.544 0.888,-0.33333 0.86974,-0.27467 1.88546,-0.60133 c 0.25107,-0.0813 0.3604,-0.20534 0.31254,-0.34267 -0.0849,-0.17467 -0.3256,-0.08 -0.3256,-0.08 z m 16.7448,-9.68933 c -0.005,0.02 -0.0312,0.0293 -0.064,0.0347 l -3.67814,0.42267 c -0.0235,0.004 -0.0417,0 -0.0547,-0.0147 -0.0157,-0.0147 -0.0209,-0.0467 -0.0157,-0.0893 l 1.27187,-5.12 c 0.012,-0.10133 0.0433,-0.172 0.0772,-0.176 0.0391,-0.005 0.0676,0.0747 0.0911,0.13733 0.005,0.0173 2.36986,4.74267 2.36986,4.74267 0.008,0.0133 0.0156,0.0427 0.003,0.0627" />
    <path
       id="path102"
       style="fill:#9a0150;fill-opacity:1;fill-rule:nonzero;stroke:none"
       d="m 238.10967,609.09643 c -5.71613,-0.1744 -8.452,3.836 -8.57186,7.6432 -0.1188,3.7996 2.29013,7.974 7.8724,8.14853 2.41413,0.0833 4.51946,-0.65893 6.08613,-2.12507 1.55067,-1.46346 2.44,-3.53906 2.51867,-5.86973 0.14266,-4.6432 -2.88534,-7.6328 -7.90534,-7.79693 z m 0.17867,14.77346 c -1.57347,-0.0495 -2.95107,-0.6588 -3.9812,-1.75786 -1.3188,-1.40614 -2.00213,-3.51294 -1.92973,-5.90614 0.0729,-2.26573 0.664,-3.9272 1.75573,-4.96626 1.074,-1.00254 2.42187,-1.17707 3.36053,-1.1484 1.46667,0.0443 2.772,0.6328 3.76934,1.70053 1.276,1.3568 1.94266,3.40107 1.86666,5.75 -0.18266,5.83853 -3.44666,6.3672 -4.84133,6.32813" />
    <path
       id="path104"
       style="fill:#9a0150;fill-opacity:1;fill-rule:nonzero;stroke:none"
       d="m 265.73367,620.95323 c -0.032,0.0651 -0.112,0.10413 -0.26933,0.14066 l -2.39733,0.552 -0.876,0.1928 -0.916,0.25254 -2.404,0.65106 c -0.204,0.0364 -0.34667,0.0364 -0.38534,-0.11973 -0.036,-0.15107 0.0333,-0.2396 0.12534,-0.26053 0.21333,-0.052 1.168,-0.36187 1.52,-0.5364 0.552,-0.2708 0.61333,-0.55214 0.51733,-1.19534 -0.13733,-0.86973 -0.54267,-2.51306 -1.01067,-4.41146 l -0.76933,-3.09627 0,0 c 0,0 -0.65333,-2.55733 -0.65333,-2.5652 -0.116,-0.46093 -0.17067,-0.6692 -0.44,-0.60413 -0.25867,0.0677 -0.99334,0.664 -1.528,1.09893 l -0.49467,0.39067 c -0.352,0.24733 -0.48,-0.0495 -0.48,-0.0495 -0.036,-0.15373 0.0827,-0.28387 0.13467,-0.3464 0.076,-0.0547 3.17733,-3.4244 3.76,-4.1172 0.14533,-0.17187 0.30666,-0.34893 0.46,-0.38013 0.10666,-0.0261 0.25466,0.0181 0.34533,0.36973 l 0.0507,0.25267 c 0.13733,0.65613 0.5,2.40093 1.108,4.84893 l 0.892,3.612 c 0.44933,1.80467 0.87733,3.52333 1.16666,4.3672 0.21334,0.60413 0.372,0.86453 1.02,0.83853 0.30134,-0.0105 1.148,-0.15626 1.30934,-0.198 0,0 0.37066,-0.0312 0.21466,0.31254" />
    <path
       id="path106"
       style="fill:#9a0150;fill-opacity:1;fill-rule:nonzero;stroke:none"
       d="m 277.05101,612.20056 c -0.97467,-2.36453 -3.648,-2.638 -5.09867,-2.7812 0.0853,-0.0833 0.176,-0.17707 0.26267,-0.2812 0.64133,-0.67187 1.844,-2.3464 1.04666,-4.26827 -0.304,-0.74213 -0.80133,-1.25786 -1.48266,-1.5364 -0.944,-0.39586 -2.2,-0.30733 -3.528,0.25 -2.46,1 -3.25467,2.68747 -3.25467,4.03907 0,0.4348 0.0853,0.83853 0.22133,1.17187 0.568,1.36706 1.872,2.10146 4.10134,2.29946 -0.28,0.2656 -0.54,0.5624 -0.77867,0.88014 -0.804,1.01826 -1.22667,2.09893 -1.22667,3.15626 0,0.526 0.0987,1.03654 0.30267,1.5208 0.38933,0.9324 1.05733,1.62507 1.932,1.98187 1.17067,0.4948 2.68267,0.4088 4.26933,-0.25267 3.24667,-1.34106 4.08267,-4.1328 3.23334,-6.17973 z m -5.10534,-2.7708 c 0.22534,0.0261 0.49067,0.0599 0.77467,0.0989 -0.28133,-0.0364 -0.54933,-0.0624 -0.79067,-0.0859 0.005,-0.003 0.008,-0.0104 0.016,-0.0131 z m -4.804,-1.58853 c 0.0293,0.0365 0.0547,0.0704 0.0813,0.1068 -0.068,-0.1068 -0.128,-0.22134 -0.18134,-0.3464 -0.12933,-0.32027 -0.196,-0.66147 -0.196,-0.97907 0,-0.29173 0.0547,-0.57813 0.16134,-0.83333 0.23333,-0.5652 0.70133,-0.9948 1.38666,-1.28907 1.18534,-0.49227 2.392,0.0676 2.928,1.35933 0.72134,1.75254 -0.0973,2.99214 -0.648,3.57294 -1.416,-0.17707 -2.32133,-0.448 -2.91066,-0.8932 0.20533,0.164 0.452,0.30466 0.72266,0.42186 -0.62933,-0.25266 -1.068,-0.6016 -1.344,-1.11986 z m 2.18534,3.24226 c -0.22,-0.0261 -0.42934,-0.0521 -0.63334,-0.0833 0.20934,0.0312 0.42534,0.0468 0.644,0.0728 -0.003,0 -0.005,0.0105 -0.0107,0.0105 z m 4.264,6.33334 c -1.50667,0.6224 -3.208,-0.15107 -3.876,-1.75787 -0.84,-2.03387 0.076,-3.68493 0.70133,-4.4896 1.97467,0.27867 3.86267,0.54693 4.62533,2.3932 0.668,1.60947 0.0573,3.2396 -1.45066,3.85427" />
    <path
       id="path108"
       style="fill:#9a0150;fill-opacity:1;fill-rule:nonzero;stroke:none"
       d="m 288.97501,610.37509 -2.13734,1.2344 -0.76533,0.45054 -0.816,0.51293 -2.1,1.31253 c -0.18133,0.10414 -0.31067,0.14587 -0.39867,0.003 -0.0787,-0.13027 -0.0347,-0.24227 0.0453,-0.29173 0.18533,-0.112 1.00533,-0.67187 1.29733,-0.94014 0.44133,-0.4244 0.41733,-0.71093 0.136,-1.30986 -0.39867,-0.80467 -1.30267,-2.3072 -2.26933,-3.91147 l -1.652,-2.72907 -0.86534,-1.40893 -0.51466,-0.83333 c -0.168,-0.27867 -0.28,-0.4688 -0.41067,-0.5052 l -0.18667,0.0495 c -0.22933,0.138 -0.74666,0.90373 -1.12266,1.47133 0,0 -0.36934,0.54426 -0.38,0.55466 0,0 -0.24267,0.362 -0.46134,0.086 -0.0853,-0.13546 -0.0107,-0.29426 0.0267,-0.362 0.0493,-0.0859 2.02267,-4.22919 2.372,-5.04426 0,0 0.21467,-0.57813 0.476,-0.5364 0.092,0.0233 0.18533,0.1172 0.284,0.2812 l 0.14133,0.24747 2.47334,4.28373 1.92533,3.1824 c 0.96267,1.59106 1.876,3.10666 2.40533,3.82546 0.37467,0.50267 0.60534,0.71094 1.224,0.50267 0.29067,-0.10427 1.05734,-0.5 1.19067,-0.5808 0.0747,-0.0468 0.19467,-0.0312 0.27467,0.1016 0,0 0.14133,0.19787 -0.192,0.35413" />
    <path
       id="path110"
       style="fill:#9a0150;fill-opacity:1;fill-rule:nonzero;stroke:none"
       d="m 296.16834,595.0339 c -0.79467,-0.95307 -2.916,-3.1848 -5.43733,-3.41134 -1.24534,-0.10946 -2.43067,0.28374 -3.50667,1.1796 -2.80267,2.34894 -2.46133,6.026 0.93867,10.08853 2.31333,2.77614 5.88266,4.81254 8.956,2.25267 1.09733,-0.93227 1.71733,-2.06253 1.83333,-3.3828 0.17867,-2.0156 -0.78133,-4.3412 -2.784,-6.72666 z m 0.63467,9.11986 c -1.9,1.5964 -5.08934,-0.8464 -7.23867,-3.41933 -1.87333,-2.2396 -2.83867,-4.22907 -2.71467,-5.59893 0.0507,-0.55987 0.27467,-1.00254 0.66667,-1.33334 0.45733,-0.388 1.02,-0.5468 1.672,-0.4896 1.864,0.16667 4.112,2.1224 5.59733,3.888 2.66134,3.19534 3.412,5.79427 2.01734,6.9532" />
    <path
       id="path112"
       style="fill:#9a0150;fill-opacity:1;fill-rule:nonzero;stroke:none"
       d="m 164.37901,509.56523 c -1.15107,-1.784 -3.04067,-3.032 -5.31773,-3.528 -2.11987,-0.45333 -4.0688,-0.15733 -5.63547,0.856 -1.71613,1.104 -2.91147,3.01733 -3.44787,5.524 -1.2068,5.59067 2.25107,8.99867 5.974,9.80133 3.71707,0.80134 8.26294,-0.82533 9.43747,-6.27866 0.50933,-2.364 0.16147,-4.564 -1.0104,-6.37467 z m 0.15627,5.324 c -0.75787,3.53867 -4.29427,5.36533 -8.59747,4.444 -5.33227,-1.15067 -5.48067,-4.33733 -5.0968,-6.13467 0.73067,-3.37333 4.164,-5.10266 8.34787,-4.20266 5.70466,1.22666 5.63906,4.52933 5.3464,5.89333" />
    <path
       id="path114"
       style="fill:#9a0150;fill-opacity:1;fill-rule:nonzero;stroke:none"
       d="m 155.25141,497.41723 c 0.0755,-0.0253 0.13387,-0.104 0.20573,-0.256 l 0.33334,-0.56533 c 0.414,-0.55067 0.77493,-0.53334 1.38013,-0.292 0.59747,0.23733 1.1016,0.468 3.86827,1.76933 l 3.21093,1.50133 c 1.6692,0.77867 3.11347,1.456 3.82973,1.90667 0.46347,0.3 0.84107,0.57867 0.74734,0.96933 0,0.003 -0.2396,0.68534 -0.2396,0.68534 -0.0651,0.144 -0.0849,0.24 -0.0573,0.30933 0,0 0.06,0.15733 0.22667,0.092 0.0807,-0.032 0.1588,-0.13067 0.24053,-0.30133 l 0.54854,-1.27467 0.31506,-0.70267 0.15627,-0.34 1.3984,-2.80533 1.19266,-2.436 c 0.43867,-0.94533 0.40107,-1.10133 0.0365,-1.40667 -0.45987,-0.39866 -1.7552,-1.16133 -1.9688,-1.26266 -0.20573,-0.0907 -0.34013,-0.13867 -0.40987,0.0147 -0.0823,0.17067 0.0464,0.26934 0.1912,0.35334 0.32654,0.20533 0.72653,0.65866 0.8552,0.97866 0.2672,0.65334 -0.007,1.32534 -0.48187,2.348 -0.68853,1.46534 -1.03226,1.832 -1.42279,2.004 -0.49747,0.224 -1.76414,-0.368 -4.0652,-1.44933 l -3.2864,-1.536 c -2.71614,-1.27333 -3.2084,-1.50133 -3.76467,-1.81067 -0.66507,-0.352 -0.84213,-0.64133 -0.7156,-1.12666 l 0.27867,-0.74 c 0.0984,-0.20534 0.1328,-0.364 -0.0213,-0.43467 -0.15573,-0.072 -0.26146,0.0773 -0.3776,0.32 l -0.66666,1.512 -0.4308,0.98933 -0.45414,0.904 -0.77493,1.56134 c -0.0964,0.21466 -0.12507,0.33866 -0.0964,0.41733 0,0 0.0557,0.15067 0.2188,0.104" />
    <path
       id="path116"
       style="fill:#9a0150;fill-opacity:1;fill-rule:nonzero;stroke:none"
       d="m 199.47687,452.88123 c 0.0281,-0.10533 -0.0317,-0.272 -0.19533,-0.548 l -1.00827,-1.83733 -0.15213,-0.28267 c -0.0896,-0.15066 -0.2396,-0.124 -0.38907,-0.076 -0.63066,0.176 -1.41666,0.43734 -2.48333,1.06 -1.29427,0.768 -2.17187,1.82934 -2.47133,2.984 -0.236,0.92134 -0.1016,1.848 0.39586,2.688 0.88534,1.49467 2.33587,2.25334 4.99734,2.60134 l 1.16773,0.14933 c 2.038,0.25467 2.79587,0.89067 3.314,1.75867 0.55573,0.952 0.34387,2.432 -1.1484,3.31466 -0.72547,0.42667 -2.13907,0.95734 -3.48067,-0.288 -0.27613,-0.25866 -0.5464,-0.576 -0.67293,-0.788 -0.0537,-0.0973 -0.18133,-0.31066 -0.3724,-0.2 -0.18387,0.10267 -0.0599,0.39867 0.0443,0.60667 l 0.0432,0.084 1.20786,2.23867 c 0.22654,0.38533 0.33854,0.44666 0.702,0.4 0.90107,-0.10267 1.73814,-0.41734 2.798,-1.04 1.11507,-0.656 1.87907,-1.42267 2.34534,-2.34667 0.3296,-0.66667 0.452,-1.28933 0.452,-1.85733 0,-0.928 -0.33227,-1.68267 -0.60307,-2.13467 -0.9688,-1.64133 -2.39853,-2.36 -5.46253,-2.75467 l -0.69787,-0.0787 c -2.00213,-0.232 -2.8032,-0.56934 -3.2912,-1.39334 -0.19947,-0.34533 -0.29587,-0.688 -0.29587,-1.03333 0,-0.73067 0.4532,-1.44 1.30214,-1.936 1.07706,-0.63333 1.86306,-0.45333 2.362,-0.26267 0.62653,0.236 1.026,0.71067 1.1156,0.86667 0.0875,0.14133 0.16306,0.22133 0.24266,0.23867 0,0 0.16667,0.0333 0.2344,-0.13334" />
    <path
       id="path118"
       style="fill:#9a0150;fill-opacity:1;fill-rule:nonzero;stroke:none"
       d="m 257.10834,456.54257 c -0.096,0.068 -0.252,0.0573 -0.36533,0.0387 l -2.16934,-0.40666 -0.912,-0.172 -0.93333,-0.128 -1.57867,-0.228 c -0.28133,-0.0453 -0.40666,-0.144 -0.38133,-0.292 0.0267,-0.15867 0.22267,-0.144 0.37067,-0.12 l 0.72133,0.0373 c 0.40533,-0.009 0.572,-0.332 0.724,-0.87867 0.232,-0.81333 0.48933,-2.352 0.816,-4.30133 l 0.60667,-3.616 c 0.48666,-2.928 0.57466,-3.452 0.64,-4.08933 0.072,-0.672 -0.068,-1.02667 -0.47067,-1.19334 -0.23067,-0.10533 -0.50667,-0.16533 -0.69867,-0.196 -0.16933,-0.0307 -0.336,-0.0853 -0.30133,-0.28266 0.0227,-0.152 0.22667,-0.14934 0.52933,-0.1 l 1.45867,0.28133 1.10933,0.212 0.95734,0.13733 1.468,0.21067 c 0.216,0.036 0.33866,0.0827 0.388,0.15333 l 0.024,0.0973 c -0.0347,0.19466 -0.204,0.19466 -0.37867,0.16533 l -0.60133,-0.0387 c -0.504,0.008 -0.732,0.25867 -0.9,0.992 -0.144,0.63334 -0.24934,1.24 -0.74,4.19067 l -0.584,3.492 c -0.312,1.86667 -0.58267,3.47067 -0.648,4.34933 -0.0307,0.55734 0.0627,0.916 0.61733,1.08267 l 0.992,0.24533 c 0.144,0.0253 0.24533,0.0693 0.28667,0.12934 0,0 0.0493,0.15866 -0.0467,0.228" />
    <path
       id="path120"
       style="fill:#9a0150;fill-opacity:1;fill-rule:nonzero;stroke:none"
       d="m 293.90967,461.22657 c 0.17067,0.11466 0.34267,-0.0573 0.55867,-0.37467 l 1.24,-1.68267 0.19867,-0.25466 c 0.0973,-0.14667 0.0107,-0.27334 -0.0973,-0.39334 -0.39466,-0.46533 -0.98266,-1.09466 -2.00933,-1.79866 -1.236,-0.856 -2.56667,-1.20934 -3.74133,-0.99334 -0.932,0.172 -1.72,0.68134 -2.268,1.488 -0.99334,1.43334 -1.068,3.064 -0.26267,5.62667 l 0.35333,1.12533 c 0.62267,1.956 0.368,2.90934 -0.20266,3.74534 -0.628,0.90266 -2.06,1.33333 -3.48534,0.348 -0.69733,-0.47467 -1.77333,-1.54 -1.20533,-3.276 0.11867,-0.364 0.29067,-0.74134 0.42533,-0.93734 0.064,-0.0933 0.21067,-0.30533 0.0267,-0.432 -0.172,-0.116 -0.37867,0.10934 -0.52533,0.29734 l -1.58267,2.11333 c -0.14267,0.20533 -0.20533,0.33467 -0.20533,0.45867 0,0.104 0.044,0.20666 0.13066,0.34666 0.47334,0.77467 1.11334,1.40267 2.12534,2.104 1.06266,0.732 2.08133,1.10667 3.11066,1.13867 1.97334,0.0493 3.08267,-1.116 3.56534,-1.816 1.08133,-1.56667 1.13733,-3.16933 0.2,-6.112 l -0.22667,-0.66933 c -0.62533,-1.91067 -0.65467,-2.78267 -0.11067,-3.568 0.70534,-1.02267 1.92667,-1.15867 3.11467,-0.34 1.03067,0.71333 1.19467,1.50666 1.22933,2.03733 0.052,0.66533 -0.22,1.23067 -0.31866,1.376 0,0 -0.248,0.336 -0.0373,0.44267" />
    <path
       id="path122"
       style="fill:#9a0150;fill-opacity:1;fill-rule:nonzero;stroke:none"
       d="m 293.57901,476.55323 c 0.12,-0.11733 0.26933,0.012 0.37333,0.11867 l 0.56667,0.456 c 0.336,0.23466 0.76133,-0.028 1.164,-0.34667 0.66933,-0.512 1.79066,-1.612 3.1,-2.88267 0,0 5.88666,-5.73199 5.92133,-5.76799 -0.0347,-0.032 -2.128,-2.07067 -2.128,-2.07067 -0.80133,-0.77333 -1.22667,-1.08267 -1.76,-0.98667 -0.39733,0.0747 -0.628,0.18667 -0.73067,0.244 0,0 -0.34,0.17467 -0.412,-0.124 0,-0.068 0.0467,-0.14666 0.16134,-0.26133 0.23466,-0.224 1.80133,-1.22 1.956,-1.312 0.216,-0.132 0.36666,-0.192 0.47066,-0.0933 l 0.108,0.21866 c 0.0533,0.148 0.12667,0.34134 0.32267,0.57734 0.36667,0.464 0.87467,1.04 1.32667,1.50666 l 5.55466,5.704 c 0,0 1.024,0.908 1.03733,0.91733 l 0.18,0.12534 0.276,0.20133 c 0.12134,0.12133 0.005,0.248 -0.19333,0.44533 0,0 -1.71067,1.58534 -1.71067,1.588 -0.136,0.1 -0.28133,0.20267 -0.39333,0.0907 -0.0467,-0.0493 -0.0653,-0.0907 -0.0653,-0.14133 0,-0.0893 0.0733,-0.192 0.2,-0.33334 l 0.14133,-0.17066 c 0.10667,-0.11734 0.20267,-0.296 0.20267,-0.56267 0,-0.404 -0.23334,-1.012 -1.04934,-1.888 0,0 -1.68933,-1.82267 -1.68933,-1.85867 l 0,0 c -0.003,0.004 -5.90533,5.75067 -5.90533,5.75067 -1.32133,1.288 -2.45467,2.396 -3.01067,3.072 -0.21466,0.26 -0.408,0.52 -0.408,0.80933 0,0.15334 0.052,0.31467 0.18,0.48 l 0.656,0.78534 c 0.11734,0.12 0.156,0.208 0.156,0.276 0,0.044 -0.0213,0.0773 -0.0493,0.10533 -0.10133,0.0987 -0.26267,0.0493 -0.44533,-0.13467 l -1.52267,-1.62533 -0.636,-0.67867 -0.66133,-0.64933 -1.14534,-1.124 c 0,0 -0.32,-0.31733 -0.13866,-0.46" />
    <path
       id="path124"
       style="fill:#9a0150;fill-opacity:1;fill-rule:nonzero;stroke:none"
       d="m 314.84967,478.56256 c 0.13467,-0.0867 0.28667,0.096 0.43333,0.316 l 0.812,1.256 0.60534,0.94 0.56533,0.8 0.856,1.19734 c 0.11867,0.17333 0.23067,0.38933 0.10133,0.47866 -0.16666,0.10667 -0.28666,-0.02 -0.38,-0.16 l -0.38266,-0.46933 c -0.36134,-0.35867 -0.7,-0.35333 -1.33867,0.0293 -0.54933,0.32134 -0.98267,0.61734 -3.38267,2.24267 l -3.10533,2.096 c -1.63467,1.10267 -2.928,1.98 -3.6,2.52667 -0.42,0.35866 -0.61467,0.672 -0.35467,1.192 l 0.5,0.89066 c 0.15867,0.24 0.112,0.34134 0.04,0.388 -0.11866,0.0813 -0.26133,0.007 -0.41333,-0.20533 l -1.20533,-1.86267 -0.5,-0.77333 -0.55333,-0.77733 -0.916,-1.28667 c 0,0 -0.29067,-0.34 -0.0493,-0.47733 0.13734,-0.0947 0.26267,0.06 0.34534,0.184 l 0.47333,0.54933 c 0.28533,0.28 0.62667,0.18267 1.12666,-0.0853 0.75334,-0.38267 2.024,-1.248 3.636,-2.33467 l 3.04934,-2.06267 c 2.48533,-1.68133 2.93466,-1.98266 3.43866,-2.37333 0.53734,-0.40933 0.69867,-0.76267 0.54,-1.17067 -0.064,-0.188 -0.184,-0.40666 -0.33466,-0.63866 0,0 -0.21067,-0.29734 -0.007,-0.40934" />
    <path
       id="path126"
       style="fill:#9a0150;fill-opacity:1;fill-rule:nonzero;stroke:none"
       d="m 309.89367,499.07056 c 0,0 0.36533,0.62534 0.368,0.628 0.22133,0.31867 0.64533,0.26134 1.21333,0.0787 0.808,-0.25067 2.24934,-0.88667 3.95334,-1.63867 0,0 7.47866,-3.29466 7.52133,-3.312 -0.0573,-0.124 -1.27067,-2.68533 -1.27067,-2.68533 -0.48266,-1.00667 -0.77333,-1.43867 -1.30533,-1.53467 -0.404,-0.0733 -0.65733,-0.0493 -0.76933,-0.0307 -0.132,0.024 -0.27467,0.0267 -0.34,-0.11734 -0.068,-0.164 0.0467,-0.24933 0.23733,-0.332 0.29467,-0.12666 2.10267,-0.51466 2.28933,-0.54933 0.25334,-0.044 0.41467,-0.0493 0.46934,0.084 l 0.028,0.23733 c 0,0.152 0,0.36267 0.0987,0.65734 0.18934,0.56666 0.46267,1.28533 0.72667,1.872 l 3.208,7.28666 c 0,0 0.64533,1.212 0.652,1.21867 l 0.12133,0.17733 0.188,0.288 0.008,0.12 c -0.0293,0.084 -0.13333,0.13734 -0.33866,0.22667 0,0 -2.15734,0.884 -2.15867,0.88533 -0.16,0.0507 -0.332,0.096 -0.39333,-0.0507 -0.02,-0.0333 -0.0307,-0.0667 -0.0307,-0.0973 0,-0.11066 0.11067,-0.18666 0.31333,-0.296 l 0.19867,-0.10666 c 0.20667,-0.112 0.46667,-0.37067 0.46667,-0.96267 0,-0.39067 -0.11067,-0.912 -0.404,-1.628 0,0 -0.93867,-2.272 -0.93867,-2.33067 l 0,0 c -0.0107,0.003 -7.54133,3.324 -7.54133,3.324 -1.68134,0.74267 -3.13867,1.38267 -3.88934,1.82667 -0.37866,0.21333 -0.712,0.44533 -0.712,0.86 0,0.0813 0.0107,0.172 0.0413,0.268 l 0.34133,0.968 c 0,0 0.152,0.44267 -0.16933,0.39333 -0.10667,-0.0413 -0.184,-0.176 -0.23067,-0.288 l -0.84667,-2.02133 -0.37066,-0.88133 -0.40534,-0.86934 -0.672,-1.42533 c -0.0773,-0.17867 -0.14133,-0.32667 -0.064,-0.388 0,0 0.232,-0.22933 0.40667,0.14533" />
    <path
       id="path128"
       style="fill:#9a0150;fill-opacity:1;fill-rule:nonzero;stroke:none"
       d="m 330.08434,514.03856 c 0.21066,-0.0253 0.172,-0.21333 0.11466,-0.496 l -0.304,-1.456 -0.204,-0.96933 -0.17466,-1.06533 -0.296,-1.82534 c -0.0533,-0.28666 -0.12267,-0.45466 -0.28667,-0.42666 -0.17867,0.036 -0.168,0.21333 -0.13333,0.4 0.0453,0.25866 0.0907,0.608 0.08,0.77333 -0.0187,0.68533 -0.31867,0.88533 -0.94934,1.04267 -0.62266,0.15333 -1.14266,0.25066 -4.048,0.78266 l -3.01866,0.56134 c -2.504,0.46 -4.068,1.32933 -4.93067,2.73733 -1.09333,1.764 -0.71867,3.79067 -0.55733,4.656 0.20933,1.14533 0.65866,2.62 2.19333,3.864 1.724,1.396 4.05467,1.19867 6.31333,0.77867 l 2.19334,-0.39867 c 2.952,-0.54667 3.48266,-0.64133 4.11733,-0.72133 0.74267,-0.096 1.05067,0.036 1.23333,0.508 l 0.168,0.55733 c 0.0333,0.176 0.076,0.27333 0.14134,0.31867 0,0 0.148,0.0693 0.23866,-0.0453 0.0493,-0.068 0.052,-0.18933 0.0133,-0.408 l -0.35734,-1.68266 -0.11866,-0.55467 c -0.008,-0.0427 -0.364,-2.28933 -0.364,-2.28933 -0.0493,-0.26534 -0.11734,-0.43067 -0.28267,-0.39867 -0.176,0.028 -0.168,0.20533 -0.13467,0.39333 l 0.072,0.72134 c -0.0147,0.68133 -0.31866,0.87866 -0.948,1.036 -0.624,0.156 -1.14666,0.25066 -4.184,0.80933 l -2.46933,0.45867 c -2.12267,0.38533 -3.84667,0.624 -5.09867,-0.24 -1.13466,-0.77734 -1.46933,-2.01734 -1.56266,-2.512 -0.12534,-0.69067 -0.19734,-1.604 0.35333,-2.60934 0.69067,-1.25066 2.01067,-1.95466 4.56133,-2.42533 l 2.89067,-0.532 c 2.91867,-0.54267 3.44533,-0.63867 4.07733,-0.716 0.74,-0.0907 1.05067,0.0347 1.22934,0.50933 l 0.168,0.56 c 0,0 0.10133,0.35334 0.264,0.304" />
    <path
       id="path130"
       style="fill:#9a0150;fill-opacity:1;fill-rule:nonzero;stroke:none"
       d="m 329.82834,530.3639 c 0.11466,0.0373 0.35333,0.128 0.68266,0.368 0.396,0.30133 0.48,0.76933 0.48,1.71866 0,0.0733 0,0.156 0,0.236 0,0 -0.0573,2.84 -0.06,2.97334 -0.044,-0.004 -8.26933,-0.38134 -8.26933,-0.38134 -1.816,-0.088 -3.37867,-0.16133 -4.20667,-0.29733 -0.59466,-0.088 -0.99466,-0.22933 -1.052,-0.61733 l -0.0507,-0.72 c 0,-0.0187 0.003,-0.0387 0,-0.0613 -0.02,-0.37866 -0.3,-0.244 -0.3,-0.244 -0.0707,0.06 -0.104,0.18 -0.112,0.368 l -0.04,1.57734 -0.02,0.95266 -0.0653,0.95574 -0.14266,2.19266 c -0.008,0.16667 0.02,0.29427 0.08,0.3604 0,0 0.11866,0.0991 0.232,0.0172 0.0547,-0.0484 0.088,-0.15 0.0933,-0.29573 l 0.12667,-1.01413 c 0.11733,-0.61347 0.58666,-0.68494 1.10666,-0.7188 0.868,-0.0572 2.45467,0.0193 4.292,0.0975 0,0 8.22667,0.39067 8.23467,0.39067 l 0,0 c -0.0267,0.0129 -0.2,2.5 -0.2,2.5 -0.136,1.97027 -0.81733,2.27853 -1.21067,2.2932 l -0.22133,0.0104 c -0.29467,0.003 -0.42667,0.0416 -0.43733,0.224 l 0,0.009 c 0,0.15267 0.172,0.18747 0.332,0.21507 0.004,0 2.32933,0.16666 2.32933,0.16666 0.22533,0.0104 0.348,0.005 0.41067,-0.0509 l 0.0467,-0.11053 -0.0413,-0.3296 -0.0347,-0.2276 c -0.005,-0.0396 -0.036,-1.3828 -0.036,-1.3828 l 0.372,-7.94947 c 0.0293,-0.648 0.10134,-1.42 0.19067,-2.00267 0.036,-0.3 0.13467,-0.492 0.2,-0.63333 l 0.0787,-0.224 c 0.0107,-0.14533 -0.13334,-0.20933 -0.38267,-0.27867 -0.18533,-0.0547 -1.972,-0.51333 -2.29333,-0.52933 -0.16,-0.0107 -0.25467,0.008 -0.30934,0.056 0,0 -0.19066,0.252 0.19734,0.38667" />
    <path
       id="path132"
       style="fill:#9a0150;fill-opacity:1;fill-rule:nonzero;stroke:none"
       d="m 315.667,546.95016 c 0.0387,0.0624 0.0387,0.15987 0,0.31094 l -0.0973,0.71506 c -0.0173,0.4036 0.404,0.6068 0.91867,0.81774 0.77733,0.302 2.28666,0.6848 4.04133,1.1276 l 3.50667,0.8932 0.12533,0.0339 c 2.876,0.72654 3.38933,0.85934 4.01733,0.97134 0.63334,0.1276 0.992,0.0729 1.29467,-0.53907 0.0773,-0.14893 0.184,-0.4844 0.252,-0.73693 0.0413,-0.162 0.0867,-0.2552 0.152,-0.28907 0,0 0.116,-0.06 0.23867,0.0547 0.044,0.0755 0.0387,0.20053 -0.0213,0.42973 l -0.42133,1.57547 -0.0373,0.1224 -0.31067,1.09373 -0.0627,0.23173 c -0.27066,1.06254 -1.08666,4.29947 -1.156,4.6328 l -0.1,0.86987 0.005,0.1276 -0.005,0.2188 c -0.0307,0.14053 -0.18,0.0989 -0.23333,0.0885 l -0.18133,-0.0756 -1.044,-0.40933 -0.38534,-0.11933 -0.88,-0.29734 c -0.0627,-0.0333 -0.20933,-0.11146 -0.18,-0.26506 10e-4,0 10e-4,-0.0105 0.003,-0.0235 0,0 0.0187,-0.14587 0.224,-0.11987 l 0,0 c 0.0627,0 0.12267,0 0.12267,0 0.15333,0.0339 0.47333,0.0885 0.72133,0.0521 0.35867,-0.0391 0.644,-0.14374 1.01467,-1.10414 0.12,-0.3308 0.68266,-2.37293 0.78,-2.7448 l -0.005,-0.0808 -0.14133,-0.0729 -4.924,-1.25 -0.176,-0.005 c 0,0 -0.044,0.0677 -0.048,0.0781 -0.43733,1.7084 -0.70267,2.82294 -0.75067,3.112 -0.0787,0.48174 -0.0947,0.7708 0.0693,1.026 0.11466,0.16147 0.18133,0.26307 0.156,0.35947 -0.0133,0.0651 -0.0627,0.15627 -0.21467,0.112 l -0.16933,-0.0652 c 0,0 -1.21334,-0.44533 -1.21867,-0.44533 0,0 -1.284,-0.4088 -1.28933,-0.4088 -0.15334,-0.0416 -0.38534,-0.0964 -0.33867,-0.29947 0,0 0.068,-0.18227 0.24533,-0.1484 l 0.18667,0.0339 0.53733,0.0624 c 0.46934,0.005 0.784,-0.26814 1.01334,-0.87494 0.136,-0.3672 0.65333,-2.33853 0.76,-2.75 l -0.003,-0.0651 -0.14533,-0.0729 -1.54,-0.39586 -0.80667,-0.2084 -2.21333,-0.5572 c -1.29867,-0.29174 -1.68534,-0.138 -2.2,1.90626 -0.12534,0.4896 -0.33334,1.30987 -0.23334,1.88534 0.10534,0.54426 0.42667,0.87506 1.20534,1.22133 0,0 0.44933,0.198 0.18,0.41413 -0.0773,0.0495 -0.20934,0.0183 -0.34934,-0.0183 -0.452,-0.1172 -1.72666,-0.60934 -2.10266,-0.80467 -0.488,-0.26827 -0.43734,-0.46613 -0.24667,-1.20573 l 0.74133,-2.75254 0.17467,-0.60426 0.56933,-2.0104 0.26134,-1.11454 0.30133,-1.3516 c 0.0467,-0.1864 0.10933,-0.29946 0.18533,-0.34266 0,0 0.144,-0.0636 0.228,0.0511" />
    <path
       id="path134"
       style="fill:#9a0150;fill-opacity:1;fill-rule:nonzero;stroke:none"
       d="m 323.095,565.34336 c 0.068,-0.0208 0.15867,-0.005 0.3,0.062 0.288,0.14627 1.756,1.28174 1.90134,1.39894 0.20133,0.16666 0.304,0.28906 0.244,0.4192 l -0.16667,0.17453 c -0.11733,0.10107 -0.27467,0.23173 -0.42933,0.49213 -0.32,0.5152 -0.69467,1.19227 -0.97067,1.7704 l -3.48,7.15414 c 0,0 -0.51067,1.2812 -0.516,1.2864 l -0.052,0.21093 c 0,0 -0.092,0.32293 -0.092,0.32813 -0.076,0.15107 -0.23467,0.0912 -0.484,-0.0312 0,0 -2.07333,-1.06253 -2.07333,-1.06773 -0.14267,-0.0885 -0.28667,-0.19267 -0.22134,-0.33853 0.0813,-0.16667 0.216,-0.14067 0.496,-0.0339 l 0.20534,0.0833 c 0.36266,0.1432 1.11466,0.12454 2.02266,-1.6432 0,0 1.13734,-2.20053 1.16667,-2.20573 l 0,0 c -0.008,-0.008 -7.416,-3.6068 -7.42667,-3.612 -1.65333,-0.80987 -3.07466,-1.5104 -3.89466,-1.79213 -0.48534,-0.174 -0.95334,-0.28907 -1.296,0.2192 l -0.52134,0.89066 c -0.11866,0.25734 -0.23466,0.2708 -0.30933,0.23174 -0.21467,-0.11974 -0.0253,-0.46614 -0.0253,-0.46614 l 0.996,-1.9692 0.43866,-0.83546 0.384,-0.862 0.66667,-1.45054 c 0.08,-0.1692 0.16133,-0.26293 0.248,-0.29426 0,0 0.12933,-0.0181 0.22267,0.0964 0.005,0.0208 0.0107,0.0391 0.0107,0.0599 0,0.0651 -0.024,0.1432 -0.076,0.2448 l -0.24666,0.67707 c -0.0107,0.0469 -0.0147,0.0964 -0.0147,0.14067 0,0.30733 0.304,0.56773 0.748,0.83853 0.72,0.47653 2.152,1.16667 3.80667,1.97133 0,0 7.34133,3.56507 7.38533,3.58547 0.02,-0.0391 1.23067,-2.70267 1.23067,-2.70267 0.29466,-0.66973 0.46133,-1.1172 0.46133,-1.4792 0,-0.18533 -0.0453,-0.34373 -0.13333,-0.50773 -0.20667,-0.3516 -0.39067,-0.53173 -0.47867,-0.5964 -0.0733,-0.0703 -0.14933,-0.15107 -0.14933,-0.2552 0,0 -0.0147,-0.14067 0.12266,-0.19267" />
    <path
       id="path136"
       style="fill:#9a0150;fill-opacity:1;fill-rule:nonzero;stroke:none"
       d="m 182.04047,481.09323 c 0.10414,0.003 0.20667,-0.0787 0.36187,-0.22133 l 1.298,-1.30134 0.23587,-0.24 0.4204,-0.37466 1.42866,-1.292 c 0.18227,-0.18 0.33334,-0.36 0.19787,-0.5 -0.1136,-0.116 -0.26147,-0.005 -0.39587,0.116 -0.21093,0.204 -0.50253,0.46266 -0.84373,0.61333 -0.43333,0.19867 -1.0364,-0.144 -2.0208,-1.12667 l -5.97293,-5.97733 c 0.0276,-0.005 0.67186,0.0453 0.67186,0.0453 1.25267,0.096 3.85987,0.288 6.31254,0.34267 l 3.762,0.0987 4.60826,0.108 c 0.3136,0.008 0.62454,0 0.79787,-0.14534 0.005,-0.004 0.0105,-0.007 0.0157,-0.012 l 0.004,0 0,-0.004 c 0.0448,-0.032 0.0729,-0.0893 0.0729,-0.16 0,-0.0293 -0.005,-0.0573 -0.0156,-0.084 -0.0376,-0.11066 -0.1328,-0.252 -0.29534,-0.42133 l -8.56773,-9.35466 c -0.76973,-0.836 -0.91667,-1.244 -0.63173,-1.72 l 0.3896,-0.45467 c 0.1864,-0.17733 0.23173,-0.316 0.138,-0.41067 -0.12867,-0.14533 -0.3152,0.0147 -0.4896,0.18267 l -1.13547,1.13867 -0.2552,0.264 -0.53013,0.472 -1.2756,1.15333 c -0.18227,0.17467 -0.29734,0.304 -0.29947,0.416 l 0.0453,0.108 0.12134,0.0627 c 0.0729,0.003 0.1584,-0.0427 0.26506,-0.14667 0.2084,-0.19733 0.55107,-0.52533 0.85427,-0.64533 0.49893,-0.19067 0.89733,0.005 1.71507,0.84 l 6.34213,6.40133 0.0433,0.0467 -0.124,-0.007 -0.0781,-0.005 0,0 c -0.39693,-0.0213 -1.9396,-0.0933 -1.9396,-0.0933 l -4.30467,-0.188 c -4.32453,-0.10133 -8.91666,-0.388 -8.96253,-0.392 l -0.2812,-0.016 c -0.348,-0.0293 -0.5688,-0.044 -0.70573,0.08 -0.18494,0.17334 0.0713,0.48934 0.27706,0.712 l 8.06147,8.75333 c 1.18587,1.28534 1.5156,1.756 1.25787,2.212 -0.15787,0.272 -0.4324,0.54934 -0.57974,0.688 -0.1156,0.108 -0.16666,0.18934 -0.1688,0.26267 0,0 0.0219,0.18933 0.1756,0.176" />
    <path
       id="path138"
       style="fill:#9a0150;fill-opacity:1;fill-rule:nonzero;stroke:none"
       d="m 179.18474,484.81323 c -0.0677,-0.048 -0.186,-0.0547 -0.34067,0.18533 l -0.6448,0.79334 c -0.39213,0.42666 -0.75106,0.35866 -1.2448,0.0987 -0.75413,-0.42266 -2.03906,-1.30933 -3.6692,-2.42666 l -2.91146,-2.01067 c -2.52347,-1.73867 -2.97507,-2.05467 -3.48707,-2.44933 -0.59106,-0.45867 -0.72026,-0.772 -0.51453,-1.236 l 0.29067,-0.52667 c 0.0963,-0.14 0.1728,-0.29467 0.0104,-0.40667 -0.13547,-0.0973 -0.28494,0.0893 -0.40374,0.25867 l -0.79786,1.22533 -0.54587,0.82934 -0.66667,0.924 -0.85933,1.18933 c -0.13027,0.18267 -0.18747,0.30667 -0.19533,0.392 -0.003,0.0107 -0.005,0.0173 -0.005,0.024 0,0.005 0.003,0.0133 0.003,0.0187 0,0.004 0,0.005 0,0.005 l 0.005,0.003 c 0.0104,0.076 0.0781,0.132 0.164,0.132 0.0365,0 0.0651,-0.0107 0.0912,-0.0267 0.0713,-0.032 0.13174,-0.10133 0.18227,-0.17867 0.15627,-0.23466 0.32187,-0.41866 0.47133,-0.54533 0.32027,-0.29867 0.70467,-0.276 1.28907,0.076 0.53493,0.32267 0.96453,0.62 3.34733,2.26133 l 3.0928,2.132 c 1.5572,1.07067 2.9072,1.99734 3.54947,2.56267 0.43493,0.372 0.65106,0.65733 0.4948,1.028 l -0.348,0.632 c -0.0869,0.128 -0.1208,0.22267 -0.10774,0.29333 0,0 0.0208,0.12934 0.20054,0.124 0.0937,-0.0133 0.19013,-0.0973 0.2968,-0.248 l 0.8672,-1.32933 0.5156,-0.792 0.5548,-0.76533 1.27186,-1.78134 c 0.1552,-0.216 0.1708,-0.38533 0.0443,-0.46533" />
    <path
       id="path140"
       style="fill:#9a0150;fill-opacity:1;fill-rule:nonzero;stroke:none"
       d="m 163.64461,540.68816 -0.0912,-1.63546 -0.0468,-0.80734 -0.005,-0.61973 -0.0287,-2.34173 c -0.0131,-0.284 -0.086,-0.42 -0.24226,-0.41467 -0.11867,0.003 -0.18067,0.104 -0.17547,0.272 l -0.0484,0.9792 c -0.0563,0.5588 -0.41667,0.71347 -1.0584,0.80107 -0.84373,0.12706 -2.4416,0.17706 -4.29587,0.238 l -0.2812,0.009 -0.1052,-0.0276 -0.0355,-0.1052 -0.0156,-1.74947 c -0.003,-0.144 0.0156,-0.25333 0.1172,-0.34666 l 1.30626,-1.00934 1.4084,-1.07066 c 1.57187,-1.224 2.44787,-2.00667 2.86974,-2.85467 0.26973,-0.54933 0.35053,-1.08133 0.314,-2.172 l -0.0624,-1.91067 c -0.005,-0.15866 -0.0276,-0.26133 -0.0719,-0.32133 -0.008,-0.012 -0.0131,-0.02 -0.0204,-0.0293 -0.003,0 -0.003,-0.003 -0.003,-0.003 l 0,-10e-4 c -0.0287,-0.0307 -0.0704,-0.052 -0.11986,-0.052 -0.0233,0 -0.0452,0.005 -0.0645,0.0133 -0.0667,0.0187 -0.13853,0.08 -0.13333,0.26267 l -0.0427,0.56533 c -0.0521,0.328 -0.19013,1.148 -1.28493,2.27733 -1.0432,1.064 -2.47293,2.26934 -4.28173,3.80134 l -0.8604,0.72933 c -0.0287,-0.0347 -0.0625,-0.0627 -0.0912,-0.0973 -0.0844,-0.096 -0.16934,-0.19467 -0.25107,-0.284 -1.40413,-1.52267 -2.6984,-2.18534 -4.23227,-2.13867 -1.4516,0.0507 -2.41666,0.98667 -2.7276,1.472 -0.72653,1.14133 -0.78653,2.53333 -0.74586,3.73467 l 0.148,2.8352 0.009,0.80053 0.0219,1.95053 c 0.007,0.288 0.0468,0.46867 0.21506,0.46614 0.18227,-0.0104 0.20054,-0.186 0.19534,-0.38027 -0.0104,-0.25773 0,-0.6104 0.0339,-0.7744 0.11974,-0.67707 0.4516,-0.82707 1.09894,-0.8844 0.638,-0.0636 1.18906,-0.0792 4.2344,-0.17973 l 3.55826,-0.11454 c 1.83494,-0.0547 3.42867,-0.10413 4.28294,-0.0349 0.5452,0.0609 1.00613,0.14067 1.09893,0.53227 l 0.10147,0.7136 c 0.008,0.1552 0.0313,0.25253 0.0887,0.302 l 0,0 c 0.026,0.0251 0.0624,0.0469 0.10414,0.0469 0.0312,0 0.0588,-0.0156 0.0833,-0.0323 0.0979,-0.0484 0.14053,-0.17973 0.1328,-0.4104 z m -7.586,-3.64426 c -0.052,0.1328 -0.12387,0.17133 -0.3348,0.17813 l -6.10427,0.1916 c -0.15986,0.008 -0.226,-0.0317 -0.264,-0.15107 -0.0615,-0.1848 -0.0948,-0.51973 -0.11306,-1.0572 -0.0224,-0.7548 0.2704,-1.53613 0.79013,-2.0948 0.63027,-0.672 1.56253,-1.036 2.7672,-1.068 1.85413,-0.0627 2.69267,0.64534 3.02813,1.07467 0.2604,0.34133 0.35574,0.596 0.3792,1.40133 0.0208,0.5748 -0.0365,1.14867 -0.14853,1.52534" />
    <path
       id="path142"
       style="fill:#9a0150;fill-opacity:1;fill-rule:nonzero;stroke:none"
       d="m 167.98314,559.0699 -0.5224,-1.88027 -0.11666,-0.4088 -0.46774,-2.08067 c -0.0495,-0.1876 -0.11973,-0.35426 -0.3088,-0.30213 -0.15373,0.0416 -0.15373,0.1536 -0.0989,0.35413 l 0.0744,0.2964 c 0.13027,0.52654 0.008,0.8104 -0.38907,0.91454 -0.21613,0.0521 -0.70106,0.0808 -1.25413,0.0104 l -3.05053,-0.34627 c -0.124,-0.0104 -0.16147,-0.0261 -0.1812,-0.11987 l -1.1068,-4.34106 c -0.0199,-0.0937 0,-0.15107 0.0807,-0.2084 l 3.73187,-2.60934 c 0.0911,-0.0729 0.17293,-0.0833 0.23693,-0.0781 0.003,0 0.008,-0.005 0.0131,-0.005 0.13907,0 0.1848,0.0885 0.26667,0.2656 0.0495,0.0885 0.11453,0.1328 0.2176,0.10933 0.14426,-0.0364 0.1016,-0.2448 0.0391,-0.5624 l -0.0156,-0.0912 -0.8984,-3.69013 c -0.15,-0.5848 -0.18333,-0.81773 -0.33333,-0.85053 -0.2604,-0.0348 -0.22547,0.30893 -0.22547,0.30893 l 0.12654,0.83067 c 0.008,0.4672 -0.18494,1.112 -1.67614,2.23546 l -6.7968,4.9776 -3.9584,2.9016 c -0.38533,0.2916 -0.5624,0.47907 -0.51293,0.67187 0.0599,0.21867 0.33227,0.27333 0.9432,0.3672 l 13.47867,1.77333 c 0.74893,0.0991 1.38173,0.21614 1.80466,0.64587 0.27494,0.23173 0.32294,1.46093 0.32294,1.46093 0.10053,1.08334 -0.25214,2.22654 -0.59747,3.3308 l -0.0624,0.1952 c -0.3084,1.02347 -2.336,6.448 -2.85947,7.5204 -0.92866,-0.29426 -4.94893,-1.6584 -5.79573,-1.95573 -1.01667,-0.35413 -1.74853,-0.75733 -2.3136,-1.2552 -0.30053,-0.286 -0.5948,-0.6948 -0.712,-0.93707 -0.064,-0.13013 -0.12027,-0.19573 -0.1864,-0.21346 l -0.14067,0.0125 -0.0912,0.0937 c -0.0249,0.0812 -0.003,0.18014 0.0704,0.326 l 1.1052,2.07294 0.8724,1.8776 c 0.0719,0.1432 0.1328,0.21613 0.1984,0.23386 l 0.138,-0.0125 c 0.13494,-0.0729 0.11414,-0.20053 0.0765,-0.34893 -0.0479,-0.17454 0.0209,-0.29947 0.21773,-0.40414 0.28493,-0.1428 0.89693,0.005 1.6652,0.1984 l 0.1156,0.026 c 0.5224,0.1276 2.15773,0.638 3.60053,1.08547 0,0 2.2276,0.68493 2.2328,0.68493 l 0,0 c 0,0.005 0.012,0.0343 0.0224,0.0525 -0.0417,0.0208 -1.02346,0.5308 -1.02346,0.5308 -2.4844,1.2348 -3.00267,1.49266 -3.5756,1.7348 -0.68894,0.29946 -1.0208,0.26306 -1.328,-0.1432 -0.0193,-0.0265 -0.30107,-0.47654 -0.30107,-0.47654 -0.0339,-0.0677 -0.13493,-0.26613 -0.3188,-0.1828 -0.15253,0.0781 -0.10307,0.25307 0.0156,0.49787 l 0.65107,1.224 0.48693,0.9244 0.39173,0.81987 0.81667,1.72186 c 0.10413,0.20827 0.17973,0.3068 0.26147,0.33547 l 0.1292,-0.0125 c 0.16146,-0.0833 0.0979,-0.26094 0.0181,-0.41934 -0.1156,-0.2348 -0.2588,-0.55466 -0.29427,-0.7244 -0.17186,-0.65626 0.0609,-0.9344 0.6328,-1.2552 0.54174,-0.31773 1.00894,-0.55426 3.62507,-1.862 l 3.3672,-1.68706 c 1.6328,-0.82027 3.03906,-1.52387 3.8344,-1.80467 0.51813,-0.17707 0.97026,-0.29947 1.2176,0.0183 l 0.39066,0.612 c 0.0719,0.13013 0.138,0.20826 0.2084,0.22866 0.4244,0.0339 0.1276,-0.4896 0.1276,-0.4896 l -0.74226,-1.3932 -0.4468,-0.83813 -0.3932,-0.84373 -0.8516,-1.77387 c -0.1104,-0.23133 -0.25107,-0.32507 -0.3776,-0.26 -0.0584,0.0287 -0.0896,0.0808 -0.0896,0.15107 0,0.0547 0.0192,0.1172 0.0495,0.18226 0,0.005 0.36614,0.90894 0.36614,0.90894 0.0245,0.0776 0.0375,0.15573 0.0375,0.22866 0,0.3208 -0.22133,0.60987 -0.67186,0.88067 -0.72387,0.4292 -2.09787,1.11933 -3.6864,1.9084 0,0 -1.71613,0.85987 -1.75893,0.88067 l 0.002,0 c 0,-0.0265 -0.024,-0.0708 -0.024,-0.0708 0,0.0235 0.17346,-0.31507 0.17346,-0.31507 0.3256,-0.62453 2.70574,-6.24173 3.0208,-7.4032 0.29694,-1.1224 0.44534,-1.80733 0.0496,-2.83067 l -0.57453,-1.2292 c -0.19267,-0.32293 -0.39427,-0.90626 -0.39427,-0.90626 z m -7.44013,-3.638 c -0.0131,0.0208 -0.0468,0.0312 -0.0859,0.0312 l -5.24746,-0.58854 c -0.10934,0.003 -0.176,-0.0183 -0.18334,-0.0495 -0.009,-0.0364 0.062,-0.0729 0.1208,-0.10414 0.0157,-0.006 4.38134,-2.98706 4.38134,-2.98706 0.0156,-0.005 0.0405,-0.0208 0.0588,-0.0104 0.0287,0.0104 0.0417,0.0391 0.0469,0.0677 l 0.914,3.586 c 0.003,0.0129 0.003,0.0181 0.003,0.0287 0,0.0104 -0.003,0.026 -0.008,0.026" />
    <path
       id="path144"
       style="fill:#9a0150;fill-opacity:1;fill-rule:nonzero;stroke:none"
       d="m 188.46074,608.94536 -0.60787,-0.58853 c -0.2864,-0.38014 -0.51293,-1 -0.001,-2.7916 l 2.4588,-8.1484 1.39946,-4.6276 c 0.12867,-0.46107 0.16147,-0.7032 0.003,-0.83333 -0.17867,-0.13547 -0.436,-0.0209 -0.97133,0.27333 l -11.83867,6.68493 c -1.0328,0.58067 -1.6952,0.78907 -2.44267,0.34374 l -0.5016,-0.362 c -0.34733,-0.1536 -0.37853,0.1224 -0.37853,0.1224 0.008,0.086 0.0755,0.16146 0.23067,0.28906 l 1.54266,1.17707 0.34227,0.25267 1.62387,1.388 c 0.12773,0.1068 0.2292,0.17453 0.2928,0.13546 0.29733,-0.14853 -0.005,-0.42973 -0.005,-0.42973 l -0.2328,-0.18747 c -0.42187,-0.33333 -0.49374,-0.6432 -0.24067,-0.96093 0.1432,-0.17187 0.51667,-0.48707 1.00107,-0.76307 l 2.6484,-1.56253 c 0.0989,-0.0624 0.1448,-0.0651 0.212,-0.0129 l 3.4964,2.80986 c 0.0744,0.0573 0.0921,0.11974 0.0624,0.21347 l -1.41507,4.32813 c -0.0407,0.13547 -0.1172,0.19533 -0.176,0.224 l -0.007,0 c -0.0271,0.0183 -0.0609,0.0312 -0.1,0.0312 -0.0391,0.003 -0.0755,-0.005 -0.10413,-0.0208 l -0.0131,0.003 c -0.1552,-0.10427 -0.27187,-0.14854 -0.362,-0.0339 -0.0948,0.11973 0.0651,0.26293 0.3136,0.474 l 0.0615,0.0599 2.93333,2.414 c 0.47813,0.3776 0.66293,0.4948 0.7776,0.48173 0.2916,-0.0859 -0.002,-0.3828 -0.002,-0.3828 z m 0.2136,-13.89053 c -0.008,0.0181 -1.7068,5.01293 -1.7068,5.01293 -0.008,0.0157 -0.0172,0.0417 -0.0391,0.0495 -0.0287,0.005 -0.0547,-0.0104 -0.0719,-0.0312 l -2.88907,-2.29947 c -0.0208,-0.0183 -0.0297,-0.0312 -0.0297,-0.0469 0,-0.026 0.0193,-0.052 0.0516,-0.0833 l 4.54053,-2.69 c 0.0819,-0.0652 0.15107,-0.0937 0.17973,-0.0652 0.0287,0.0183 -0.005,0.0937 -0.0353,0.15373" />
    <path
       id="path146"
       style="fill:#9a0150;fill-opacity:1;fill-rule:nonzero;stroke:none"
       d="m 207.15914,602.17456 c 0.088,-0.0989 0.25107,0.0208 0.49067,0.1432 l 1.5208,0.8204 0.612,0.33587 0.3344,0.15106 1.4484,0.68747 c 0.21826,0.1172 0.42706,0.2344 0.33853,0.41667 -0.0629,0.11986 -0.2088,0.1224 -0.43533,0.005 l -0.5584,-0.22907 c -0.54694,-0.1068 -0.87494,0.17707 -1.41667,1.17707 l -5.98693,11.1848 c 0,0 -0.28654,0.53133 -0.54694,0.44013 -0.20826,-0.1068 -0.32026,-0.4088 -0.4156,-0.71093 l -1.41933,-4.3568 -1.16147,-3.60934 c -0.764,-2.33853 -1.4504,-4.862 -1.77853,-6.07546 0,0 -0.1704,-0.612 -0.17973,-0.64067 l 0,0 -3.65467,7.61453 c -0.6016,1.25 -0.7188,1.92974 -0.3932,2.27867 0.25253,0.27093 0.58853,0.4636 0.85667,0.59893 0.14853,0.0756 0.2276,0.14587 0.2516,0.21627 0,0 0.0219,0.1588 -0.1172,0.20307 -0.0875,0.0287 -0.21614,-0.003 -0.4312,-0.112 l -1.71507,-0.92707 -0.4688,-0.2708 -0.30053,-0.14067 -1.6604,-0.79426 c -0.1844,-0.0964 -0.30054,-0.16667 -0.3308,-0.2656 0,0 -0.0541,-0.15374 0.10426,-0.22134 0.0729,-0.0261 0.16667,0 0.30467,0.0676 0.1796,0.0991 0.53387,0.26307 0.84267,0.32294 0.51826,0.0912 0.85413,-0.37494 1.66773,-1.91667 l 5.59013,-10.50253 c 0.15467,-0.30733 0.29427,-0.474 0.42187,-0.5156 0,0 0.2604,-0.14587 0.47133,0.65627 l 0.074,0.26293 c 0.0104,0.0391 1.2604,4.4688 2.59787,8.5808 l 1.2448,4.10933 c 0,0 0.43227,1.45307 0.55733,1.862 l 0.0364,0.11453 0.0312,0.12507 0.0287,-0.0808 c 0.086,-0.1796 3.93493,-8.10933 3.93493,-8.10933 0.30734,-0.63547 0.45054,-1.04947 0.436,-1.3568 -0.006,-0.21347 -0.0819,-0.38014 -0.21626,-0.54427 -0.21187,-0.24213 -0.626,-0.45573 -0.88894,-0.58586 0,0 -0.34533,-0.1876 -0.12093,-0.40894" />
    <path
       id="path148"
       style="fill:#9a0150;fill-opacity:1;fill-rule:nonzero;stroke:none"
       d="m 228.65087,609.58869 -0.5844,-0.0964 c -0.55466,0.003 -0.82186,0.33334 -1.14586,1.42454 l -3.58334,12.17186 c -0.0651,0.23427 -0.1276,0.38534 -0.20573,0.47134 -0.0416,0.0495 -0.1016,0.0885 -0.1692,0.0885 -0.0209,0 -0.0391,-0.005 -0.0547,-0.0131 l -0.0141,0.005 c -0.007,-0.005 -0.009,-0.0129 -0.0135,-0.0129 -0.008,-0.003 -0.0141,-0.008 -0.0245,-0.0105 -0.2032,-0.0807 -0.3776,-0.34627 -0.5156,-0.60147 l -2.324,-4.04693 -1.82453,-3.22134 c -1.21094,-2.1172 -2.3932,-4.44266 -2.95827,-5.55466 0,0 -0.3088,-0.5912 -0.32707,-0.61987 l 0,-0.003 -2.02866,8.19533 c -0.33694,1.35933 -0.3136,2.0468 0.0755,2.31253 0.30627,0.21614 0.67614,0.328 0.9636,0.41134 0,0 0.44014,0.11466 0.224,0.38546 -0.0699,0.0781 -0.2224,0.0391 -0.4464,-0.0235 l -1.86093,-0.5572 -0.526,-0.16147 -0.31613,-0.0756 -1.7944,-0.4348 c -0.54427,-0.12507 -0.39054,-0.3464 -0.39054,-0.3464 0.074,-0.16413 0.22654,-0.13027 0.38534,-0.0808 0.19013,0.0496 0.57293,0.14067 0.89173,0.13813 0.51973,-0.0157 0.75413,-0.55213 1.2396,-2.22146 l 3.33493,-11.4244 c 0.0833,-0.29427 0.21707,-0.66934 0.46614,-0.60414 0.17706,0.0468 0.27853,0.25254 0.43333,0.5572 l 0.12907,0.25 c 0.29426,0.57294 2.3412,4.46614 4.29586,7.8724 l 2.03227,3.73174 c 0,0 0.8776,1.6172 0.9844,1.83333 l 0,0 0.008,0.0183 0.005,0.005 0,0 0.0468,0.0885 0.0157,-0.0547 0.005,0.003 c 0.0285,-0.1068 2.20667,-8.7552 2.20667,-8.7552 0.1188,-0.4844 0.18653,-0.83853 0.18653,-1.10947 0,-0.37493 -0.11987,-0.59893 -0.36093,-0.7864 -0.25107,-0.19533 -0.7068,-0.32026 -0.98547,-0.3932 -0.1968,-0.0573 -0.28227,-0.1224 -0.28533,-0.2344 -0.005,-0.1016 0.078,-0.15893 0.078,-0.15893 0.0969,-0.0572 0.2672,-0.0233 0.5084,0.0417 l 1.65053,0.5052 0.676,0.20307 0.36827,0.086 1.55106,0.3828 c 0.20827,0.0573 0.40107,0.1224 0.40107,0.2032 0,0 0.0676,0.3176 -0.42347,0.21613" />
    <path
       id="path150"
       style="fill:#9a0150;fill-opacity:1;fill-rule:nonzero;stroke:none"
       d="m 266.32167,459.4319 c -0.0787,0.18267 -0.316,0.116 -0.54,0.032 l -1.788,-0.75467 -0.50666,-0.22133 -0.33334,-0.116 -1.70933,-0.62667 c -0.23467,-0.0947 -0.42667,-0.18533 -0.34933,-0.37866 0.0627,-0.152 0.25066,-0.096 0.38533,-0.0413 0.236,0.0893 0.57733,0.20667 0.872,0.23467 0.524,0.04 0.816,-0.45333 1.46933,-2.07333 l 4.552,-10.99734 c 0.112,-0.28533 0.284,-0.65066 0.524,-0.556 0.172,0.0667 0.25334,0.28134 0.372,0.608 l 0.10134,0.26 c 0.0187,0.04 1.69866,4.34934 3.42,8.29067 l 1.65066,3.99867 c 0,0 0.76534,1.86266 0.76534,1.88133 0,0 0.008,0 0.0107,0.003 l 0.0333,0.0773 0.0187,-0.044 c 0,0 0.0333,-0.088 0.0333,-0.0853 0.0453,-0.104 3.10266,-8.37067 3.10266,-8.37067 0.21067,-0.55467 0.31734,-0.94667 0.31734,-1.24933 0,-0.28 -0.096,-0.47734 -0.28134,-0.65734 -0.23466,-0.21466 -0.668,-0.392 -0.94133,-0.496 -0.17733,-0.0693 -0.26133,-0.14533 -0.26133,-0.24266 0,-0.0267 0.005,-0.0533 0.016,-0.0813 0.0733,-0.176 0.31466,-0.0933 0.58266,0.0133 l 1.58267,0.67466 0.66,0.27867 0.33733,0.116 1.512,0.548 c 0.204,0.084 0.33867,0.15467 0.37734,0.24933 l -0.0813,0.21467 c -0.0813,0.0333 -0.19466,0.0187 -0.36266,-0.048 l -0.56667,-0.15733 c -0.55467,-0.0547 -0.85733,0.248 -1.29467,1.29866 l -4.872,11.71334 c -0.11066,0.28933 -0.22133,0.44533 -0.336,0.49466 l -0.16533,0 c -0.21733,-0.084 -0.35733,-0.38 -0.488,-0.67066 l -1.85467,-4.24534 -1.48533,-3.44 c -0.98667,-2.24533 -1.90667,-4.68266 -2.35067,-5.86 0,0 -0.232,-0.604 -0.24266,-0.62666 l 0,-0.003 -2.90667,7.93067 c -0.47467,1.308 -0.524,1.996 -0.172,2.31066 0.27733,0.23867 0.632,0.39867 0.91467,0.51067 0,0 0.348,0.116 0.27866,0.304" />
  </g>
</svg>
