%!PS-Adobe-3.0 EPSF-3.0
%%Creator: cairo 1.14.6 (http://cairographics.org)
%%CreationDate: Wed Apr 19 14:55:36 2017
%%Pages: 1
%%DocumentData: Clean7Bit
%%LanguageLevel: 2
%%BoundingBox: 0 -1 379 199
%%EndComments
%%BeginProlog
save
50 dict begin
/q { gsave } bind def
/Q { grestore } bind def
/cm { 6 array astore concat } bind def
/w { setlinewidth } bind def
/J { setlinecap } bind def
/j { setlinejoin } bind def
/M { setmiterlimit } bind def
/d { setdash } bind def
/m { moveto } bind def
/l { lineto } bind def
/c { curveto } bind def
/h { closepath } bind def
/re { exch dup neg 3 1 roll 5 3 roll moveto 0 rlineto
      0 exch rlineto 0 rlineto closepath } bind def
/S { stroke } bind def
/f { fill } bind def
/f* { eofill } bind def
/n { newpath } bind def
/W { clip } bind def
/W* { eoclip } bind def
/BT { } bind def
/ET { } bind def
/pdfmark where { pop globaldict /?pdfmark /exec load put }
    { globaldict begin /?pdfmark /pop load def /pdfmark
    /cleartomark load def end } ifelse
/BDC { mark 3 1 roll /BDC pdfmark } bind def
/EMC { mark /EMC pdfmark } bind def
/cairo_store_point { /cairo_point_y exch def /cairo_point_x exch def } def
/Tj { show currentpoint cairo_store_point } bind def
/TJ {
  {
    dup
    type /stringtype eq
    { show } { -0.001 mul 0 cairo_font_matrix dtransform rmoveto } ifelse
  } forall
  currentpoint cairo_store_point
} bind def
/cairo_selectfont { cairo_font_matrix aload pop pop pop 0 0 6 array astore
    cairo_font exch selectfont cairo_point_x cairo_point_y moveto } bind def
/Tf { pop /cairo_font exch def /cairo_font_matrix where
      { pop cairo_selectfont } if } bind def
/Td { matrix translate cairo_font_matrix matrix concatmatrix dup
      /cairo_font_matrix exch def dup 4 get exch 5 get cairo_store_point
      /cairo_font where { pop cairo_selectfont } if } bind def
/Tm { 2 copy 8 2 roll 6 array astore /cairo_font_matrix exch def
      cairo_store_point /cairo_font where { pop cairo_selectfont } if } bind def
/g { setgray } bind def
/rg { setrgbcolor } bind def
/d1 { setcachedevice } bind def
%%EndProlog
%%BeginSetup
%%EndSetup
%%Page: 1 1
%%BeginPageSetup
%%PageBoundingBox: 0 -1 379 199
%%EndPageSetup
q 0 -1 379 200 rectclip q
0 g
6.4 w
0 J
1 j
[] 0.0 d
4 M q 0 -1 -1 0 0 198.790695 cm
63.379 -95.262 m 63.379 -83.773 54.066 -74.461 42.578 -74.461 c 31.09 -74.461
 21.777 -83.773 21.777 -95.262 c 21.777 -106.75 31.09 -116.062 42.578 -116.062
 c 54.066 -116.062 63.379 -106.75 63.379 -95.262 c h
63.379 -95.262 m S Q
q 0 -1 -1 0 0 198.790695 cm
84.637 -354.762 m 84.637 -343.273 75.324 -333.961 63.84 -333.961 c 52.352
 -333.961 43.039 -343.273 43.039 -354.762 c 43.039 -366.25 52.352 -375.562
 63.84 -375.562 c 75.324 -375.562 84.637 -366.25 84.637 -354.762 c h
84.637 -354.762 m S Q
q 0 -1 -1 0 0 198.790695 cm
123.43 -89.699 m 123.43 -78.211 114.117 -68.898 102.629 -68.898 c 91.141
 -68.898 81.828 -78.211 81.828 -89.699 c 81.828 -101.184 91.141 -110.496
 102.629 -110.496 c 114.117 -110.496 123.43 -101.184 123.43 -89.699 c h
123.43 -89.699 m S Q
q 0 -1 -1 0 0 198.790695 cm
105.648 -151.113 m 105.648 -139.629 96.336 -130.316 84.848 -130.316 c 73.363
 -130.316 64.051 -139.629 64.051 -151.113 c 64.051 -162.602 73.363 -171.914
 84.848 -171.914 c 96.336 -171.914 105.648 -162.602 105.648 -151.113 c h
105.648 -151.113 m S Q
q 0 -1 -1 0 0 198.790695 cm
45.039 -40.402 m 45.039 -28.914 35.727 -19.602 24.238 -19.602 c 12.754 
-19.602 3.441 -28.914 3.441 -40.402 c 3.441 -51.891 12.754 -61.203 24.238
 -61.203 c 35.727 -61.203 45.039 -51.891 45.039 -40.402 c h
45.039 -40.402 m S Q
q 0 -1 -1 0 0 198.790695 cm
195.352 -92.121 m 195.352 -80.633 186.039 -71.32 174.551 -71.32 c 163.062
 -71.32 153.75 -80.633 153.75 -92.121 c 153.75 -103.609 163.062 -112.922
 174.551 -112.922 c 186.039 -112.922 195.352 -103.609 195.352 -92.121 c 
h
195.352 -92.121 m S Q
q 0 -1 -1 0 0 198.790695 cm
129.086 -24.238 m 129.086 -12.754 119.773 -3.441 108.285 -3.441 c 96.797
 -3.441 87.484 -12.754 87.484 -24.238 c 87.484 -35.727 96.797 -45.039 108.285
 -45.039 c 119.773 -45.039 129.086 -35.727 129.086 -24.238 c h
129.086 -24.238 m S Q
q 0 -1 -1 0 0 198.790695 cm
190.504 -274.758 m 190.504 -263.27 181.191 -253.957 169.703 -253.957 c 
158.215 -253.957 148.902 -263.27 148.902 -274.758 c 148.902 -286.246 158.215
 -295.559 169.703 -295.559 c 181.191 -295.559 190.504 -286.246 190.504 -274.758
 c h
190.504 -274.758 m S Q
q 0 -1 -1 0 0 198.790695 cm
133.125 -307.082 m 133.125 -295.594 123.812 -286.281 112.324 -286.281 c
 100.836 -286.281 91.523 -295.594 91.523 -307.082 c 91.523 -318.57 100.836
 -327.883 112.324 -327.883 c 123.812 -327.883 133.125 -318.57 133.125 -307.082
 c h
133.125 -307.082 m S Q
q 0 -1 -1 0 0 198.790695 cm
170.301 -353.145 m 170.301 -341.656 160.988 -332.344 149.5 -332.344 c 138.012
 -332.344 128.699 -341.656 128.699 -353.145 c 128.699 -364.633 138.012 -373.945
 149.5 -373.945 c 160.988 -373.945 170.301 -364.633 170.301 -353.145 c h
170.301 -353.145 m S Q
q 0 -1 -1 0 0 198.790695 cm
65.242 -293.344 m 65.242 -281.855 55.93 -272.543 44.441 -272.543 c 32.957
 -272.543 23.645 -281.855 23.645 -293.344 c 23.645 -304.832 32.957 -314.145
 44.441 -314.145 c 55.93 -314.145 65.242 -304.832 65.242 -293.344 c h
65.242 -293.344 m S Q
0 j
q 0 -1 -1 0 0 198.790695 cm
64.887 -297.605 m 92.102 -302.824 l S Q
q 0 -1 -1 0 0 198.790695 cm
78.227 -339.531 m 97.797 -320.941 l S Q
q 0 -1 -1 0 0 198.790695 cm
135.684 -339.184 m 123.715 -322.629 l S Q
q 0 -1 -1 0 0 198.790695 cm
102.195 -324.664 m 80.605 -341.32 l S Q
q 0 -1 -1 0 0 198.790695 cm
129.754 -297.375 m 150.801 -284.266 l S Q
q 0 -1 -1 0 0 198.790695 cm
41.441 -51.402 m 86.34 -78.621 l S Q
q 0 -1 -1 0 0 198.790695 cm
129.582 -345.598 m 61.035 -304.867 l S Q
q 0 -1 -1 0 0 198.790695 cm
61.961 -92.961 m 82.988 -90.727 l S Q
q 0 -1 -1 0 0 198.790695 cm
89.945 -131.547 m 95.918 -110.426 l S Q
q 0 -1 -1 0 0 198.790695 cm
153.906 -90.91 m 124.281 -89.699 l S Q
q 0 -1 -1 0 0 198.790695 cm
106.102 -44.637 m 104.004 -68.871 l S Q
q 0 -1 -1 0 0 198.790695 cm
151.852 -285.551 m 130.551 -301.984 l S Q
q 0 -1 -1 0 0 198.790695 cm
50.344 -273.992 m 79.473 -171.48 l S Q
q 0 -1 -1 0 0 198.790695 cm
110.711 -287.688 m 106.668 -112.324 l S Q
q 0 -1 -1 0 0 198.790695 cm
170.914 -114.344 m 120.004 -286.477 l S Q
Q Q
showpage
%%Trailer
end restore
%%EOF
