<?xml version="1.0" encoding="UTF-8"?>
<svg xmlns="http://www.w3.org/2000/svg" xmlns:xlink="http://www.w3.org/1999/xlink" width="534pt" height="450pt" viewBox="0 0 534 450" version="1.1">
<defs>
<g>
<symbol overflow="visible" id="glyph0-0">
<path style="stroke:none;" d=""/>
</symbol>
<symbol overflow="visible" id="glyph0-1">
<path style="stroke:none;" d="M 4.59375 -2.359375 C 4.59375 -3.859375 3.84375 -4.734375 2.625 -4.734375 C 2 -4.734375 1.546875 -4.5 1.203125 -3.984375 L 1.203125 -6.40625 L 0.46875 -6.40625 L 0.46875 0 L 1.140625 0 L 1.140625 -0.65625 C 1.484375 -0.125 1.953125 0.125 2.59375 0.125 C 3.8125 0.125 4.59375 -0.859375 4.59375 -2.359375 Z M 3.828125 -2.3125 C 3.828125 -1.265625 3.296875 -0.546875 2.484375 -0.546875 C 1.71875 -0.546875 1.203125 -1.265625 1.203125 -2.3125 C 1.203125 -3.390625 1.71875 -4.09375 2.484375 -4.0625 C 3.3125 -4.0625 3.828125 -3.34375 3.828125 -2.3125 Z M 3.828125 -2.3125 "/>
</symbol>
<symbol overflow="visible" id="glyph0-2">
<path style="stroke:none;" d="M 4.515625 -2.09375 C 4.515625 -2.765625 4.453125 -3.1875 4.328125 -3.53125 C 4.03125 -4.28125 3.328125 -4.734375 2.46875 -4.734375 C 1.171875 -4.734375 0.359375 -3.796875 0.359375 -2.28125 C 0.359375 -0.765625 1.15625 0.125 2.453125 0.125 C 3.5 0.125 4.234375 -0.46875 4.421875 -1.40625 L 3.671875 -1.40625 C 3.46875 -0.796875 3.0625 -0.546875 2.46875 -0.546875 C 1.703125 -0.546875 1.140625 -1.03125 1.125 -2.09375 Z M 3.734375 -2.75 C 3.734375 -2.75 3.734375 -2.703125 3.71875 -2.6875 L 1.140625 -2.6875 C 1.203125 -3.515625 1.71875 -4.0625 2.453125 -4.0625 C 3.171875 -4.0625 3.734375 -3.46875 3.734375 -2.75 Z M 3.734375 -2.75 "/>
</symbol>
<symbol overflow="visible" id="glyph0-3">
<path style="stroke:none;" d="M 1.328125 0 L 1.328125 -6.40625 L 0.59375 -6.40625 L 0.59375 0 Z M 1.328125 0 "/>
</symbol>
<symbol overflow="visible" id="glyph0-4">
<path style="stroke:none;" d="M 4.484375 -2.265625 C 4.484375 -3.859375 3.71875 -4.734375 2.390625 -4.734375 C 1.09375 -4.734375 0.3125 -3.859375 0.3125 -2.3125 C 0.3125 -0.75 1.09375 0.125 2.40625 0.125 C 3.6875 0.125 4.484375 -0.75 4.484375 -2.265625 Z M 3.71875 -2.28125 C 3.71875 -1.203125 3.203125 -0.546875 2.40625 -0.546875 C 1.578125 -0.546875 1.078125 -1.1875 1.078125 -2.3125 C 1.078125 -3.40625 1.578125 -4.0625 2.40625 -4.0625 C 3.234375 -4.0625 3.71875 -3.421875 3.71875 -2.28125 Z M 3.71875 -2.28125 "/>
</symbol>
<symbol overflow="visible" id="glyph0-5">
<path style="stroke:none;" d="M 6.234375 -4.609375 L 5.40625 -4.609375 L 4.484375 -1.015625 L 3.578125 -4.609375 L 2.6875 -4.609375 L 1.796875 -1.015625 L 0.859375 -4.609375 L 0.046875 -4.609375 L 1.390625 0 L 2.21875 0 L 3.109375 -3.609375 L 4.03125 0 L 4.875 0 Z M 6.234375 -4.609375 "/>
</symbol>
<symbol overflow="visible" id="glyph0-6">
<path style="stroke:none;" d=""/>
</symbol>
<symbol overflow="visible" id="glyph0-7">
<path style="stroke:none;" d="M 6.6875 0 L 6.6875 -3.453125 C 6.6875 -4.28125 6.234375 -4.734375 5.359375 -4.734375 C 4.75 -4.734375 4.375 -4.5625 3.953125 -4.03125 C 3.671875 -4.53125 3.3125 -4.734375 2.703125 -4.734375 C 2.09375 -4.734375 1.6875 -4.515625 1.296875 -3.953125 L 1.296875 -4.609375 L 0.625 -4.609375 L 0.625 0 L 1.359375 0 L 1.359375 -2.890625 C 1.359375 -3.5625 1.84375 -4.09375 2.4375 -4.09375 C 2.984375 -4.09375 3.296875 -3.765625 3.296875 -3.171875 L 3.296875 0 L 4.015625 0 L 4.015625 -2.890625 C 4.015625 -3.5625 4.515625 -4.09375 5.109375 -4.09375 C 5.640625 -4.09375 5.953125 -3.75 5.953125 -3.171875 L 5.953125 0 Z M 6.6875 0 "/>
</symbol>
<symbol overflow="visible" id="glyph0-8">
<path style="stroke:none;" d="M 4.359375 0 L 4.359375 -6.40625 L 3.625 -6.40625 L 3.625 -4.03125 C 3.3125 -4.5 2.828125 -4.734375 2.203125 -4.734375 C 1.015625 -4.734375 0.234375 -3.8125 0.234375 -2.34375 C 0.234375 -0.796875 1 0.125 2.234375 0.125 C 2.875 0.125 3.3125 -0.109375 3.703125 -0.671875 L 3.703125 0 Z M 3.625 -2.28125 C 3.625 -1.21875 3.109375 -0.546875 2.34375 -0.546875 C 1.53125 -0.546875 1 -1.234375 1 -2.3125 C 1 -3.375 1.53125 -4.0625 2.328125 -4.0625 C 3.125 -4.0625 3.625 -3.359375 3.625 -2.28125 Z M 3.625 -2.28125 "/>
</symbol>
<symbol overflow="visible" id="glyph0-9">
<path style="stroke:none;" d="M 1.34375 0 L 1.34375 -4.609375 L 0.609375 -4.609375 L 0.609375 0 Z M 1.4375 -5.296875 L 1.4375 -6.21875 L 0.53125 -6.21875 L 0.53125 -5.296875 Z M 1.4375 -5.296875 "/>
</symbol>
<symbol overflow="visible" id="glyph0-10">
<path style="stroke:none;" d="M 4.703125 -0.015625 L 4.703125 -0.578125 C 4.625 -0.546875 4.59375 -0.546875 4.546875 -0.546875 C 4.296875 -0.546875 4.15625 -0.6875 4.15625 -0.921875 L 4.15625 -3.484375 C 4.15625 -4.296875 3.546875 -4.734375 2.421875 -4.734375 C 1.296875 -4.734375 0.609375 -4.3125 0.578125 -3.25 L 1.3125 -3.25 C 1.375 -3.8125 1.703125 -4.0625 2.390625 -4.0625 C 3.046875 -4.0625 3.421875 -3.8125 3.421875 -3.375 L 3.421875 -3.1875 C 3.421875 -2.875 3.234375 -2.75 2.65625 -2.671875 C 1.625 -2.546875 1.453125 -2.5 1.171875 -2.390625 C 0.640625 -2.171875 0.375 -1.765625 0.375 -1.203125 C 0.375 -0.359375 0.953125 0.125 1.875 0.125 C 2.46875 0.125 3.046875 -0.109375 3.453125 -0.546875 C 3.53125 -0.1875 3.84375 0.0625 4.203125 0.0625 C 4.359375 0.0625 4.46875 0.046875 4.703125 -0.015625 Z M 3.421875 -1.59375 C 3.421875 -0.9375 2.75 -0.515625 2.046875 -0.515625 C 1.46875 -0.515625 1.140625 -0.71875 1.140625 -1.21875 C 1.140625 -1.703125 1.453125 -1.90625 2.25 -2.015625 C 3.015625 -2.125 3.171875 -2.15625 3.421875 -2.28125 Z M 3.421875 -1.59375 "/>
</symbol>
<symbol overflow="visible" id="glyph0-11">
<path style="stroke:none;" d="M 4.28125 0 L 4.28125 -3.484375 C 4.28125 -4.25 3.71875 -4.734375 2.828125 -4.734375 C 2.140625 -4.734375 1.703125 -4.484375 1.296875 -3.828125 L 1.296875 -4.609375 L 0.609375 -4.609375 L 0.609375 0 L 1.34375 0 L 1.34375 -2.546875 C 1.34375 -3.484375 1.859375 -4.09375 2.609375 -4.09375 C 3.1875 -4.09375 3.546875 -3.75 3.546875 -3.1875 L 3.546875 0 Z M 4.28125 0 "/>
</symbol>
<symbol overflow="visible" id="glyph0-12">
<path style="stroke:none;" d="M 4.28125 -4.609375 L 3.453125 -4.609375 L 2.140625 -0.875 L 0.921875 -4.609375 L 0.09375 -4.609375 L 1.703125 0 L 2.5 0 Z M 4.28125 -4.609375 "/>
</symbol>
<symbol overflow="visible" id="glyph0-13">
<path style="stroke:none;" d="M 4.453125 -3 C 4.453125 -5.15625 3.78125 -6.234375 2.421875 -6.234375 C 1.078125 -6.234375 0.375 -5.140625 0.375 -3.046875 C 0.375 -0.953125 1.078125 0.125 2.421875 0.125 C 3.734375 0.125 4.453125 -0.953125 4.453125 -3 Z M 3.671875 -3.0625 C 3.671875 -1.296875 3.265625 -0.515625 2.40625 -0.515625 C 1.578125 -0.515625 1.171875 -1.34375 1.171875 -3.046875 C 1.171875 -4.75 1.578125 -5.546875 2.421875 -5.546875 C 3.25 -5.546875 3.671875 -4.734375 3.671875 -3.0625 Z M 3.671875 -3.0625 "/>
</symbol>
<symbol overflow="visible" id="glyph0-14">
<path style="stroke:none;" d="M 1.6875 0 L 1.6875 -0.921875 L 0.765625 -0.921875 L 0.765625 0 Z M 1.6875 0 "/>
</symbol>
<symbol overflow="visible" id="glyph0-15">
<path style="stroke:none;" d="M 3.25 -4.5 C 3.25 -5.359375 2.59375 -6.03125 1.75 -6.03125 C 0.9375 -6.03125 0.25 -5.34375 0.25 -4.515625 C 0.25 -3.6875 0.9375 -3.015625 1.765625 -3.015625 C 2.578125 -3.015625 3.25 -3.6875 3.25 -4.5 Z M 2.640625 -4.515625 C 2.640625 -4.03125 2.25 -3.640625 1.765625 -3.640625 C 1.265625 -3.640625 0.859375 -4.03125 0.859375 -4.515625 C 0.859375 -5.015625 1.265625 -5.40625 1.75 -5.40625 C 2.25 -5.40625 2.640625 -5.015625 2.640625 -4.515625 Z M 5.9375 -6.234375 L 5.359375 -6.234375 L 1.875 0.171875 L 2.46875 0.171875 Z M 7.5625 -1.3125 C 7.5625 -2.15625 6.890625 -2.828125 6.046875 -2.828125 C 5.234375 -2.828125 4.5625 -2.15625 4.5625 -1.34375 C 4.5625 -0.515625 5.234375 0.171875 6.0625 0.171875 C 6.875 0.171875 7.5625 -0.515625 7.5625 -1.3125 Z M 6.953125 -1.3125 C 6.953125 -0.84375 6.546875 -0.453125 6.0625 -0.453125 C 5.5625 -0.453125 5.15625 -0.84375 5.15625 -1.34375 C 5.15625 -1.828125 5.5625 -2.21875 6.046875 -2.21875 C 6.546875 -2.21875 6.953125 -1.828125 6.953125 -1.3125 Z M 6.953125 -1.3125 "/>
</symbol>
<symbol overflow="visible" id="glyph0-16">
<path style="stroke:none;" d="M 4.515625 -2.0625 C 4.515625 -3.296875 3.6875 -4.109375 2.5 -4.109375 C 2.0625 -4.109375 1.703125 -4 1.34375 -3.734375 L 1.59375 -5.34375 L 4.1875 -5.34375 L 4.1875 -6.109375 L 0.96875 -6.109375 L 0.5 -2.84375 L 1.21875 -2.84375 C 1.578125 -3.265625 1.875 -3.421875 2.359375 -3.421875 C 3.1875 -3.421875 3.71875 -2.890625 3.71875 -1.96875 C 3.71875 -1.0625 3.203125 -0.546875 2.359375 -0.546875 C 1.6875 -0.546875 1.265625 -0.890625 1.078125 -1.59375 L 0.3125 -1.59375 C 0.5625 -0.359375 1.265625 0.125 2.375 0.125 C 3.640625 0.125 4.515625 -0.75 4.515625 -2.0625 Z M 4.515625 -2.0625 "/>
</symbol>
<symbol overflow="visible" id="glyph0-17">
<path style="stroke:none;" d="M 3.046875 0 L 3.046875 -6.234375 L 2.546875 -6.234375 C 2.265625 -5.28125 2.09375 -5.140625 0.890625 -5 L 0.890625 -4.4375 L 2.28125 -4.4375 L 2.28125 0 Z M 3.046875 0 "/>
</symbol>
<symbol overflow="visible" id="glyph0-18">
<path style="stroke:none;" d="M 4.5 -4.40625 C 4.5 -5.46875 3.671875 -6.234375 2.5 -6.234375 C 1.21875 -6.234375 0.484375 -5.59375 0.4375 -4.078125 L 1.21875 -4.078125 C 1.28125 -5.125 1.703125 -5.5625 2.46875 -5.5625 C 3.171875 -5.5625 3.703125 -5.0625 3.703125 -4.390625 C 3.703125 -3.890625 3.40625 -3.46875 2.859375 -3.15625 L 2.046875 -2.703125 C 0.75 -1.96875 0.375 -1.375 0.296875 0 L 4.453125 0 L 4.453125 -0.765625 L 1.171875 -0.765625 C 1.25 -1.28125 1.53125 -1.59375 2.296875 -2.046875 L 3.171875 -2.53125 C 4.046875 -2.984375 4.5 -3.640625 4.5 -4.40625 Z M 4.5 -4.40625 "/>
</symbol>
<symbol overflow="visible" id="glyph0-19">
<path style="stroke:none;" d="M 4.203125 -1.578125 L 3.453125 -1.578125 C 3.328125 -0.84375 2.953125 -0.546875 2.328125 -0.546875 C 1.515625 -0.546875 1.03125 -1.171875 1.03125 -2.265625 C 1.03125 -3.40625 1.515625 -4.0625 2.3125 -4.0625 C 2.921875 -4.0625 3.3125 -3.703125 3.40625 -3.0625 L 4.140625 -3.0625 C 4.0625 -4.1875 3.359375 -4.734375 2.328125 -4.734375 C 1.078125 -4.734375 0.265625 -3.796875 0.265625 -2.265625 C 0.265625 -0.78125 1.0625 0.125 2.3125 0.125 C 3.40625 0.125 4.109375 -0.53125 4.203125 -1.578125 Z M 4.203125 -1.578125 "/>
</symbol>
<symbol overflow="visible" id="glyph0-20">
<path style="stroke:none;" d="M 2.234375 0 L 2.234375 -0.609375 C 2.140625 -0.59375 2.015625 -0.578125 1.875 -0.578125 C 1.5625 -0.578125 1.484375 -0.671875 1.484375 -1 L 1.484375 -4.015625 L 2.234375 -4.015625 L 2.234375 -4.609375 L 1.484375 -4.609375 L 1.484375 -5.875 L 0.75 -5.875 L 0.75 -4.609375 L 0.125 -4.609375 L 0.125 -4.015625 L 0.75 -4.015625 L 0.75 -0.671875 C 0.75 -0.203125 1.0625 0.0625 1.640625 0.0625 C 1.8125 0.0625 1.984375 0.046875 2.234375 0 Z M 2.234375 0 "/>
</symbol>
<symbol overflow="visible" id="glyph0-21">
<path style="stroke:none;" d="M 4.28125 0 L 4.28125 -3.484375 C 4.28125 -4.25 3.71875 -4.734375 2.828125 -4.734375 C 2.171875 -4.734375 1.78125 -4.546875 1.34375 -3.96875 L 1.34375 -6.40625 L 0.609375 -6.40625 L 0.609375 0 L 1.34375 0 L 1.34375 -2.546875 C 1.34375 -3.484375 1.84375 -4.09375 2.59375 -4.09375 C 3.109375 -4.09375 3.546875 -3.796875 3.546875 -3.1875 L 3.546875 0 Z M 4.28125 0 "/>
</symbol>
<symbol overflow="visible" id="glyph0-22">
<path style="stroke:none;" d="M 4.203125 -4.609375 L 3.40625 -4.609375 L 2.140625 -1.015625 L 0.953125 -4.609375 L 0.171875 -4.609375 L 1.734375 0.015625 L 1.453125 0.75 C 1.328125 1.078125 1.171875 1.203125 0.859375 1.203125 C 0.75 1.203125 0.640625 1.171875 0.46875 1.140625 L 0.46875 1.796875 C 0.625 1.875 0.78125 1.921875 0.96875 1.921875 C 1.484375 1.921875 1.90625 1.625 2.15625 0.96875 Z M 4.203125 -4.609375 "/>
</symbol>
<symbol overflow="visible" id="glyph0-23">
<path style="stroke:none;" d="M 2.828125 -3.96875 L 2.828125 -4.71875 C 2.703125 -4.734375 2.640625 -4.734375 2.546875 -4.734375 C 2.0625 -4.734375 1.703125 -4.453125 1.28125 -3.78125 L 1.28125 -4.609375 L 0.609375 -4.609375 L 0.609375 0 L 1.34375 0 L 1.34375 -2.390625 C 1.34375 -3.4375 1.6875 -3.953125 2.828125 -3.96875 Z M 2.828125 -3.96875 "/>
</symbol>
<symbol overflow="visible" id="glyph0-24">
<path style="stroke:none;" d="M 4.234375 0 L 4.234375 -4.609375 L 3.515625 -4.609375 L 3.515625 -2.0625 C 3.515625 -1.125 3.015625 -0.515625 2.25 -0.515625 C 1.671875 -0.515625 1.296875 -0.859375 1.296875 -1.421875 L 1.296875 -4.609375 L 0.578125 -4.609375 L 0.578125 -1.125 C 0.578125 -0.359375 1.140625 0.125 2.046875 0.125 C 2.71875 0.125 3.15625 -0.109375 3.578125 -0.71875 L 3.578125 0 Z M 4.234375 0 "/>
</symbol>
<symbol overflow="visible" id="glyph0-25">
<path style="stroke:none;" d="M 4.59375 -2.265625 C 4.59375 -3.8125 3.84375 -4.734375 2.625 -4.734375 C 2 -4.734375 1.5 -4.453125 1.15625 -3.921875 L 1.15625 -4.609375 L 0.484375 -4.609375 L 0.484375 1.921875 L 1.21875 1.921875 L 1.21875 -0.546875 C 1.59375 -0.078125 2.03125 0.125 2.625 0.125 C 3.8125 0.125 4.59375 -0.796875 4.59375 -2.265625 Z M 3.828125 -2.28125 C 3.828125 -1.234375 3.296875 -0.546875 2.5 -0.546875 C 1.71875 -0.546875 1.21875 -1.1875 1.21875 -2.265625 C 1.21875 -3.359375 1.71875 -4.0625 2.5 -4.0625 C 3.3125 -4.0625 3.828125 -3.375 3.828125 -2.28125 Z M 3.828125 -2.28125 "/>
</symbol>
<symbol overflow="visible" id="glyph1-0">
<path style="stroke:none;" d=""/>
</symbol>
<symbol overflow="visible" id="glyph1-1">
<path style="stroke:none;" d="M 5.046875 -1.609375 C 5.046875 -2.46875 4.5625 -2.90625 3.421875 -3.171875 L 2.546875 -3.390625 C 1.796875 -3.5625 1.46875 -3.8125 1.46875 -4.21875 C 1.46875 -4.734375 1.953125 -5.078125 2.6875 -5.078125 C 3.4375 -5.078125 3.828125 -4.765625 3.84375 -4.15625 L 4.8125 -4.15625 C 4.8125 -5.296875 4.0625 -5.921875 2.734375 -5.921875 C 1.390625 -5.921875 0.515625 -5.234375 0.515625 -4.171875 C 0.515625 -3.265625 0.984375 -2.84375 2.34375 -2.515625 L 3.203125 -2.296875 C 3.84375 -2.140625 4.09375 -1.953125 4.09375 -1.546875 C 4.09375 -1 3.546875 -0.6875 2.75 -0.6875 C 1.921875 -0.6875 1.46875 -0.875 1.34375 -1.765625 L 0.375 -1.765625 C 0.421875 -0.421875 1.171875 0.171875 2.671875 0.171875 C 4.125 0.171875 5.046875 -0.5 5.046875 -1.609375 Z M 5.046875 -1.609375 "/>
</symbol>
<symbol overflow="visible" id="glyph1-2">
<path style="stroke:none;" d="M 2.796875 0 L 2.796875 -0.765625 C 2.671875 -0.734375 2.53125 -0.71875 2.359375 -0.71875 C 1.953125 -0.71875 1.84375 -0.84375 1.84375 -1.25 L 1.84375 -5.015625 L 2.796875 -5.015625 L 2.796875 -5.765625 L 1.84375 -5.765625 L 1.84375 -7.34375 L 0.9375 -7.34375 L 0.9375 -5.765625 L 0.15625 -5.765625 L 0.15625 -5.015625 L 0.9375 -5.015625 L 0.9375 -0.84375 C 0.9375 -0.25 1.328125 0.078125 2.046875 0.078125 C 2.265625 0.078125 2.484375 0.0625 2.796875 0 Z M 2.796875 0 "/>
</symbol>
<symbol overflow="visible" id="glyph1-3">
<path style="stroke:none;" d="M 5.890625 -0.015625 L 5.890625 -0.71875 C 5.78125 -0.6875 5.734375 -0.6875 5.6875 -0.6875 C 5.375 -0.6875 5.1875 -0.859375 5.1875 -1.140625 L 5.1875 -4.359375 C 5.1875 -5.375 4.4375 -5.921875 3.03125 -5.921875 C 1.625 -5.921875 0.765625 -5.390625 0.71875 -4.0625 L 1.640625 -4.0625 C 1.71875 -4.765625 2.140625 -5.078125 2.984375 -5.078125 C 3.8125 -5.078125 4.28125 -4.78125 4.28125 -4.21875 L 4.28125 -3.984375 C 4.28125 -3.59375 4.046875 -3.4375 3.328125 -3.34375 C 2.03125 -3.171875 1.828125 -3.140625 1.46875 -2.984375 C 0.796875 -2.71875 0.46875 -2.203125 0.46875 -1.5 C 0.46875 -0.453125 1.1875 0.171875 2.359375 0.171875 C 3.09375 0.171875 3.8125 -0.140625 4.3125 -0.6875 C 4.40625 -0.234375 4.8125 0.078125 5.265625 0.078125 C 5.4375 0.078125 5.59375 0.0625 5.890625 -0.015625 Z M 4.28125 -1.984375 C 4.28125 -1.171875 3.4375 -0.640625 2.546875 -0.640625 C 1.84375 -0.640625 1.421875 -0.890625 1.421875 -1.515625 C 1.421875 -2.125 1.828125 -2.390625 2.8125 -2.53125 C 3.765625 -2.65625 3.96875 -2.703125 4.28125 -2.84375 Z M 4.28125 -1.984375 "/>
</symbol>
<symbol overflow="visible" id="glyph1-4">
<path style="stroke:none;" d="M 3.203125 2.328125 C 2.234375 0.765625 1.6875 -1.09375 1.6875 -2.84375 C 1.6875 -4.59375 2.234375 -6.453125 3.203125 -8.015625 L 2.59375 -8.015625 C 1.5 -6.578125 0.796875 -4.578125 0.796875 -2.84375 C 0.796875 -1.109375 1.5 0.890625 2.59375 2.328125 Z M 3.203125 2.328125 "/>
</symbol>
<symbol overflow="visible" id="glyph1-5">
<path style="stroke:none;" d="M 5.25 -1.984375 L 4.328125 -1.984375 C 4.171875 -1.0625 3.703125 -0.6875 2.921875 -0.6875 C 1.90625 -0.6875 1.296875 -1.46875 1.296875 -2.828125 C 1.296875 -4.265625 1.890625 -5.078125 2.890625 -5.078125 C 3.65625 -5.078125 4.140625 -4.625 4.25 -3.828125 L 5.1875 -3.828125 C 5.078125 -5.234375 4.1875 -5.921875 2.90625 -5.921875 C 1.359375 -5.921875 0.34375 -4.734375 0.34375 -2.828125 C 0.34375 -0.96875 1.328125 0.171875 2.890625 0.171875 C 4.265625 0.171875 5.140625 -0.65625 5.25 -1.984375 Z M 5.25 -1.984375 "/>
</symbol>
<symbol overflow="visible" id="glyph1-6">
<path style="stroke:none;" d="M 5.609375 -2.84375 C 5.609375 -4.828125 4.65625 -5.921875 2.984375 -5.921875 C 1.375 -5.921875 0.390625 -4.8125 0.390625 -2.875 C 0.390625 -0.953125 1.359375 0.171875 3 0.171875 C 4.625 0.171875 5.609375 -0.953125 5.609375 -2.84375 Z M 4.65625 -2.84375 C 4.65625 -1.5 4.015625 -0.6875 3 -0.6875 C 1.984375 -0.6875 1.359375 -1.484375 1.359375 -2.875 C 1.359375 -4.265625 1.984375 -5.078125 3 -5.078125 C 4.03125 -5.078125 4.65625 -4.28125 4.65625 -2.84375 Z M 4.65625 -2.84375 "/>
</symbol>
<symbol overflow="visible" id="glyph1-7">
<path style="stroke:none;" d="M 5.296875 0 L 5.296875 -5.765625 L 4.390625 -5.765625 L 4.390625 -2.578125 C 4.390625 -1.40625 3.765625 -0.640625 2.8125 -0.640625 C 2.09375 -0.640625 1.625 -1.078125 1.625 -1.765625 L 1.625 -5.765625 L 0.71875 -5.765625 L 0.71875 -1.40625 C 0.71875 -0.453125 1.4375 0.171875 2.546875 0.171875 C 3.40625 0.171875 3.9375 -0.125 4.484375 -0.890625 L 4.484375 0 Z M 5.296875 0 "/>
</symbol>
<symbol overflow="visible" id="glyph1-8">
<path style="stroke:none;" d="M 5.359375 0 L 5.359375 -4.359375 C 5.359375 -5.3125 4.640625 -5.921875 3.53125 -5.921875 C 2.671875 -5.921875 2.125 -5.59375 1.609375 -4.796875 L 1.609375 -5.765625 L 0.765625 -5.765625 L 0.765625 0 L 1.6875 0 L 1.6875 -3.171875 C 1.6875 -4.359375 2.328125 -5.125 3.25 -5.125 C 3.984375 -5.125 4.4375 -4.6875 4.4375 -4 L 4.4375 0 Z M 5.359375 0 "/>
</symbol>
<symbol overflow="visible" id="glyph1-9">
<path style="stroke:none;" d="M 2.8125 -2.84375 C 2.8125 -4.578125 2.125 -6.578125 1.015625 -8.015625 L 0.421875 -8.015625 C 1.390625 -6.453125 1.921875 -4.59375 1.921875 -2.84375 C 1.921875 -1.09375 1.390625 0.765625 0.421875 2.328125 L 1.015625 2.328125 C 2.125 0.890625 2.8125 -1.109375 2.8125 -2.84375 Z M 2.8125 -2.84375 "/>
</symbol>
<symbol overflow="visible" id="glyph1-10">
<path style="stroke:none;" d="M 3.125 -8.015625 L 2.515625 -8.015625 L -0.09375 0.21875 L 0.515625 0.21875 Z M 3.125 -8.015625 "/>
</symbol>
<symbol overflow="visible" id="glyph1-11">
<path style="stroke:none;" d="M 8.359375 0 L 8.359375 -4.328125 C 8.359375 -5.359375 7.78125 -5.921875 6.703125 -5.921875 C 5.9375 -5.921875 5.484375 -5.703125 4.9375 -5.046875 C 4.59375 -5.671875 4.140625 -5.921875 3.390625 -5.921875 C 2.625 -5.921875 2.109375 -5.640625 1.609375 -4.953125 L 1.609375 -5.765625 L 0.78125 -5.765625 L 0.78125 0 L 1.6875 0 L 1.6875 -3.625 C 1.6875 -4.453125 2.296875 -5.125 3.046875 -5.125 C 3.734375 -5.125 4.109375 -4.703125 4.109375 -3.96875 L 4.109375 0 L 5.03125 0 L 5.03125 -3.625 C 5.03125 -4.453125 5.640625 -5.125 6.390625 -5.125 C 7.0625 -5.125 7.453125 -4.703125 7.453125 -3.96875 L 7.453125 0 Z M 8.359375 0 "/>
</symbol>
<symbol overflow="visible" id="glyph2-0">
<path style="stroke:none;" d=""/>
</symbol>
<symbol overflow="visible" id="glyph2-1">
<path style="stroke:none;" d="M -1.609375 -5.046875 C -2.46875 -5.046875 -2.90625 -4.5625 -3.171875 -3.421875 L -3.390625 -2.546875 C -3.5625 -1.796875 -3.8125 -1.46875 -4.21875 -1.46875 C -4.734375 -1.46875 -5.078125 -1.953125 -5.078125 -2.6875 C -5.078125 -3.4375 -4.765625 -3.828125 -4.15625 -3.84375 L -4.15625 -4.8125 C -5.296875 -4.8125 -5.921875 -4.0625 -5.921875 -2.734375 C -5.921875 -1.390625 -5.234375 -0.515625 -4.171875 -0.515625 C -3.265625 -0.515625 -2.84375 -0.984375 -2.515625 -2.34375 L -2.296875 -3.203125 C -2.140625 -3.84375 -1.953125 -4.09375 -1.546875 -4.09375 C -1 -4.09375 -0.6875 -3.546875 -0.6875 -2.75 C -0.6875 -1.921875 -0.875 -1.46875 -1.765625 -1.34375 L -1.765625 -0.375 C -0.421875 -0.421875 0.171875 -1.171875 0.171875 -2.671875 C 0.171875 -4.125 -0.5 -5.046875 -1.609375 -5.046875 Z M -1.609375 -5.046875 "/>
</symbol>
<symbol overflow="visible" id="glyph2-2">
<path style="stroke:none;" d="M -2.84375 -5.609375 C -4.828125 -5.609375 -5.921875 -4.65625 -5.921875 -2.984375 C -5.921875 -1.375 -4.8125 -0.390625 -2.875 -0.390625 C -0.953125 -0.390625 0.171875 -1.359375 0.171875 -3 C 0.171875 -4.625 -0.953125 -5.609375 -2.84375 -5.609375 Z M -2.84375 -4.65625 C -1.5 -4.65625 -0.6875 -4.015625 -0.6875 -3 C -0.6875 -1.984375 -1.484375 -1.359375 -2.875 -1.359375 C -4.265625 -1.359375 -5.078125 -1.984375 -5.078125 -3 C -5.078125 -4.03125 -4.28125 -4.65625 -2.84375 -4.65625 Z M -2.84375 -4.65625 "/>
</symbol>
<symbol overflow="visible" id="glyph2-3">
<path style="stroke:none;" d="M -4.96875 -3.53125 L -5.890625 -3.53125 C -5.921875 -3.375 -5.921875 -3.296875 -5.921875 -3.171875 C -5.921875 -2.578125 -5.578125 -2.140625 -4.71875 -1.609375 L -5.765625 -1.609375 L -5.765625 -0.765625 L 0 -0.765625 L 0 -1.6875 L -2.984375 -1.6875 C -4.296875 -1.6875 -4.9375 -2.109375 -4.96875 -3.53125 Z M -4.96875 -3.53125 "/>
</symbol>
<symbol overflow="visible" id="glyph2-4">
<path style="stroke:none;" d="M 0 -2.796875 L -0.765625 -2.796875 C -0.734375 -2.671875 -0.71875 -2.53125 -0.71875 -2.359375 C -0.71875 -1.953125 -0.84375 -1.84375 -1.25 -1.84375 L -5.015625 -1.84375 L -5.015625 -2.796875 L -5.765625 -2.796875 L -5.765625 -1.84375 L -7.34375 -1.84375 L -7.34375 -0.9375 L -5.765625 -0.9375 L -5.765625 -0.15625 L -5.015625 -0.15625 L -5.015625 -0.9375 L -0.84375 -0.9375 C -0.25 -0.9375 0.078125 -1.328125 0.078125 -2.046875 C 0.078125 -2.265625 0.0625 -2.484375 0 -2.796875 Z M 0 -2.796875 "/>
</symbol>
</g>
<clipPath id="clip1">
  <path d="M 133 5.480469 L 135 5.480469 L 135 415.851562 L 133 415.851562 Z M 133 5.480469 "/>
</clipPath>
<clipPath id="clip2">
  <path d="M 208 5.480469 L 210 5.480469 L 210 415.851562 L 208 415.851562 Z M 208 5.480469 "/>
</clipPath>
<clipPath id="clip3">
  <path d="M 284 5.480469 L 285 5.480469 L 285 415.851562 L 284 415.851562 Z M 284 5.480469 "/>
</clipPath>
<clipPath id="clip4">
  <path d="M 359 5.480469 L 360 5.480469 L 360 415.851562 L 359 415.851562 Z M 359 5.480469 "/>
</clipPath>
<clipPath id="clip5">
  <path d="M 434 5.480469 L 435 5.480469 L 435 415.851562 L 434 415.851562 Z M 434 5.480469 "/>
</clipPath>
<clipPath id="clip6">
  <path d="M 80.152344 302 L 443 302 L 443 304 L 80.152344 304 Z M 80.152344 302 "/>
</clipPath>
<clipPath id="clip7">
  <path d="M 80.152344 116 L 443 116 L 443 118 L 80.152344 118 Z M 80.152344 116 "/>
</clipPath>
<clipPath id="clip8">
  <path d="M 96 5.480469 L 98 5.480469 L 98 415.851562 L 96 415.851562 Z M 96 5.480469 "/>
</clipPath>
<clipPath id="clip9">
  <path d="M 171 5.480469 L 173 5.480469 L 173 415.851562 L 171 415.851562 Z M 171 5.480469 "/>
</clipPath>
<clipPath id="clip10">
  <path d="M 246 5.480469 L 248 5.480469 L 248 415.851562 L 246 415.851562 Z M 246 5.480469 "/>
</clipPath>
<clipPath id="clip11">
  <path d="M 321 5.480469 L 323 5.480469 L 323 415.851562 L 321 415.851562 Z M 321 5.480469 "/>
</clipPath>
<clipPath id="clip12">
  <path d="M 396 5.480469 L 398 5.480469 L 398 415.851562 L 396 415.851562 Z M 396 5.480469 "/>
</clipPath>
</defs>
<g id="surface249">
<rect x="0" y="0" width="534" height="450" style="fill:rgb(100%,100%,100%);fill-opacity:1;stroke:none;"/>
<g clip-path="url(#clip1)" clip-rule="nonzero">
<path style="fill:none;stroke-width:0.533489;stroke-linecap:butt;stroke-linejoin:round;stroke:rgb(92.156863%,92.156863%,92.156863%);stroke-opacity:1;stroke-miterlimit:10;" d="M 134.144531 414.847656 L 134.144531 5.480469 "/>
</g>
<g clip-path="url(#clip2)" clip-rule="nonzero">
<path style="fill:none;stroke-width:0.533489;stroke-linecap:butt;stroke-linejoin:round;stroke:rgb(92.156863%,92.156863%,92.156863%);stroke-opacity:1;stroke-miterlimit:10;" d="M 209.226562 414.847656 L 209.226562 5.480469 "/>
</g>
<g clip-path="url(#clip3)" clip-rule="nonzero">
<path style="fill:none;stroke-width:0.533489;stroke-linecap:butt;stroke-linejoin:round;stroke:rgb(92.156863%,92.156863%,92.156863%);stroke-opacity:1;stroke-miterlimit:10;" d="M 284.308594 414.847656 L 284.308594 5.480469 "/>
</g>
<g clip-path="url(#clip4)" clip-rule="nonzero">
<path style="fill:none;stroke-width:0.533489;stroke-linecap:butt;stroke-linejoin:round;stroke:rgb(92.156863%,92.156863%,92.156863%);stroke-opacity:1;stroke-miterlimit:10;" d="M 359.390625 414.847656 L 359.390625 5.480469 "/>
</g>
<g clip-path="url(#clip5)" clip-rule="nonzero">
<path style="fill:none;stroke-width:0.533489;stroke-linecap:butt;stroke-linejoin:round;stroke:rgb(92.156863%,92.156863%,92.156863%);stroke-opacity:1;stroke-miterlimit:10;" d="M 434.472656 414.847656 L 434.472656 5.480469 "/>
</g>
<g clip-path="url(#clip6)" clip-rule="nonzero">
<path style="fill:none;stroke-width:1.066978;stroke-linecap:butt;stroke-linejoin:round;stroke:rgb(92.156863%,92.156863%,92.156863%);stroke-opacity:1;stroke-miterlimit:10;" d="M 80.152344 303.203125 L 442.074219 303.203125 "/>
</g>
<g clip-path="url(#clip7)" clip-rule="nonzero">
<path style="fill:none;stroke-width:1.066978;stroke-linecap:butt;stroke-linejoin:round;stroke:rgb(92.156863%,92.156863%,92.156863%);stroke-opacity:1;stroke-miterlimit:10;" d="M 80.152344 117.125 L 442.074219 117.125 "/>
</g>
<g clip-path="url(#clip8)" clip-rule="nonzero">
<path style="fill:none;stroke-width:1.066978;stroke-linecap:butt;stroke-linejoin:round;stroke:rgb(92.156863%,92.156863%,92.156863%);stroke-opacity:1;stroke-miterlimit:10;" d="M 96.601562 414.847656 L 96.601562 5.480469 "/>
</g>
<g clip-path="url(#clip9)" clip-rule="nonzero">
<path style="fill:none;stroke-width:1.066978;stroke-linecap:butt;stroke-linejoin:round;stroke:rgb(92.156863%,92.156863%,92.156863%);stroke-opacity:1;stroke-miterlimit:10;" d="M 171.683594 414.847656 L 171.683594 5.480469 "/>
</g>
<g clip-path="url(#clip10)" clip-rule="nonzero">
<path style="fill:none;stroke-width:1.066978;stroke-linecap:butt;stroke-linejoin:round;stroke:rgb(92.156863%,92.156863%,92.156863%);stroke-opacity:1;stroke-miterlimit:10;" d="M 246.765625 414.847656 L 246.765625 5.480469 "/>
</g>
<g clip-path="url(#clip11)" clip-rule="nonzero">
<path style="fill:none;stroke-width:1.066978;stroke-linecap:butt;stroke-linejoin:round;stroke:rgb(92.156863%,92.156863%,92.156863%);stroke-opacity:1;stroke-miterlimit:10;" d="M 321.847656 414.847656 L 321.847656 5.480469 "/>
</g>
<g clip-path="url(#clip12)" clip-rule="nonzero">
<path style="fill:none;stroke-width:1.066978;stroke-linecap:butt;stroke-linejoin:round;stroke:rgb(92.156863%,92.156863%,92.156863%);stroke-opacity:1;stroke-miterlimit:10;" d="M 396.933594 414.847656 L 396.933594 5.480469 "/>
</g>
<path style=" stroke:none;fill-rule:nonzero;fill:rgb(90.588235%,41.960784%,95.294118%);fill-opacity:1;" d="M 96.601562 275.292969 L 169.09375 275.292969 L 169.09375 256.683594 L 96.601562 256.683594 Z M 96.601562 275.292969 "/>
<path style=" stroke:none;fill-rule:nonzero;fill:rgb(0%,69.019608%,96.470588%);fill-opacity:1;" d="M 96.601562 293.898438 L 167.976562 293.898438 L 167.976562 275.289062 L 96.601562 275.289062 Z M 96.601562 293.898438 "/>
<path style=" stroke:none;fill-rule:nonzero;fill:rgb(0%,74.901961%,49.019608%);fill-opacity:1;" d="M 96.601562 312.507812 L 420.863281 312.507812 L 420.863281 293.898438 L 96.601562 293.898438 Z M 96.601562 312.507812 "/>
<path style=" stroke:none;fill-rule:nonzero;fill:rgb(63.921569%,64.705882%,0%);fill-opacity:1;" d="M 96.601562 331.113281 L 131.730469 331.113281 L 131.730469 312.503906 L 96.601562 312.503906 Z M 96.601562 331.113281 "/>
<path style=" stroke:none;fill-rule:nonzero;fill:rgb(97.254902%,46.27451%,42.745098%);fill-opacity:1;" d="M 96.601562 349.722656 L 121.511719 349.722656 L 121.511719 331.113281 L 96.601562 331.113281 Z M 96.601562 349.722656 "/>
<path style=" stroke:none;fill-rule:nonzero;fill:rgb(90.588235%,41.960784%,95.294118%);fill-opacity:1;" d="M 96.601562 89.214844 L 334.234375 89.214844 L 334.234375 70.605469 L 96.601562 70.605469 Z M 96.601562 89.214844 "/>
<path style=" stroke:none;fill-rule:nonzero;fill:rgb(0%,69.019608%,96.470588%);fill-opacity:1;" d="M 96.601562 107.820312 L 339.972656 107.820312 L 339.972656 89.210938 L 96.601562 89.210938 Z M 96.601562 107.820312 "/>
<path style=" stroke:none;fill-rule:nonzero;fill:rgb(0%,74.901961%,49.019608%);fill-opacity:1;" d="M 96.601562 126.429688 L 425.621094 126.429688 L 425.621094 107.820312 L 96.601562 107.820312 Z M 96.601562 126.429688 "/>
<path style=" stroke:none;fill-rule:nonzero;fill:rgb(63.921569%,64.705882%,0%);fill-opacity:1;" d="M 96.601562 145.039062 L 248.304688 145.039062 L 248.304688 126.429688 L 96.601562 126.429688 Z M 96.601562 145.039062 "/>
<path style=" stroke:none;fill-rule:nonzero;fill:rgb(97.254902%,46.27451%,42.745098%);fill-opacity:1;" d="M 96.601562 163.644531 L 108.355469 163.644531 L 108.355469 145.035156 L 96.601562 145.035156 Z M 96.601562 163.644531 "/>
<g style="fill:rgb(30.196078%,30.196078%,30.196078%);fill-opacity:1;">
  <use xlink:href="#glyph0-1" x="20.21875" y="305.805664"/>
  <use xlink:href="#glyph0-2" x="25.111328" y="305.805664"/>
  <use xlink:href="#glyph0-3" x="30.003906" y="305.805664"/>
  <use xlink:href="#glyph0-4" x="31.957031" y="305.805664"/>
  <use xlink:href="#glyph0-5" x="36.761719" y="305.805664"/>
  <use xlink:href="#glyph0-6" x="43.115234" y="305.805664"/>
  <use xlink:href="#glyph0-7" x="45.561523" y="305.805664"/>
  <use xlink:href="#glyph0-2" x="52.891602" y="305.805664"/>
  <use xlink:href="#glyph0-8" x="57.78418" y="305.805664"/>
  <use xlink:href="#glyph0-9" x="62.676758" y="305.805664"/>
  <use xlink:href="#glyph0-10" x="64.629883" y="305.805664"/>
  <use xlink:href="#glyph0-11" x="69.522461" y="305.805664"/>
</g>
<g style="fill:rgb(30.196078%,30.196078%,30.196078%);fill-opacity:1;">
  <use xlink:href="#glyph0-10" x="20.21875" y="119.727539"/>
  <use xlink:href="#glyph0-1" x="25.111328" y="119.727539"/>
  <use xlink:href="#glyph0-4" x="30.003906" y="119.727539"/>
  <use xlink:href="#glyph0-12" x="34.720703" y="119.727539"/>
  <use xlink:href="#glyph0-2" x="38.945312" y="119.727539"/>
  <use xlink:href="#glyph0-6" x="43.837891" y="119.727539"/>
  <use xlink:href="#glyph0-7" x="46.28418" y="119.727539"/>
  <use xlink:href="#glyph0-2" x="53.614258" y="119.727539"/>
  <use xlink:href="#glyph0-8" x="58.506836" y="119.727539"/>
  <use xlink:href="#glyph0-9" x="63.399414" y="119.727539"/>
  <use xlink:href="#glyph0-10" x="65.352539" y="119.727539"/>
  <use xlink:href="#glyph0-11" x="70.245117" y="119.727539"/>
</g>
<g style="fill:rgb(30.196078%,30.196078%,30.196078%);fill-opacity:1;">
  <use xlink:href="#glyph0-13" x="86.101562" y="425.883789"/>
  <use xlink:href="#glyph0-14" x="90.994141" y="425.883789"/>
  <use xlink:href="#glyph0-13" x="93.44043" y="425.883789"/>
  <use xlink:href="#glyph0-15" x="98.333008" y="425.883789"/>
</g>
<g style="fill:rgb(30.196078%,30.196078%,30.196078%);fill-opacity:1;">
  <use xlink:href="#glyph0-16" x="161.183594" y="425.883789"/>
  <use xlink:href="#glyph0-14" x="166.076172" y="425.883789"/>
  <use xlink:href="#glyph0-13" x="168.522461" y="425.883789"/>
  <use xlink:href="#glyph0-15" x="173.415039" y="425.883789"/>
</g>
<g style="fill:rgb(30.196078%,30.196078%,30.196078%);fill-opacity:1;">
  <use xlink:href="#glyph0-17" x="234.265625" y="425.883789"/>
  <use xlink:href="#glyph0-13" x="239.158203" y="425.883789"/>
  <use xlink:href="#glyph0-14" x="244.050781" y="425.883789"/>
  <use xlink:href="#glyph0-13" x="246.49707" y="425.883789"/>
  <use xlink:href="#glyph0-15" x="251.389648" y="425.883789"/>
</g>
<g style="fill:rgb(30.196078%,30.196078%,30.196078%);fill-opacity:1;">
  <use xlink:href="#glyph0-17" x="309.347656" y="425.883789"/>
  <use xlink:href="#glyph0-16" x="314.240234" y="425.883789"/>
  <use xlink:href="#glyph0-14" x="319.132812" y="425.883789"/>
  <use xlink:href="#glyph0-13" x="321.579102" y="425.883789"/>
  <use xlink:href="#glyph0-15" x="326.47168" y="425.883789"/>
</g>
<g style="fill:rgb(30.196078%,30.196078%,30.196078%);fill-opacity:1;">
  <use xlink:href="#glyph0-18" x="384.433594" y="425.883789"/>
  <use xlink:href="#glyph0-13" x="389.326172" y="425.883789"/>
  <use xlink:href="#glyph0-14" x="394.21875" y="425.883789"/>
  <use xlink:href="#glyph0-13" x="396.665039" y="425.883789"/>
  <use xlink:href="#glyph0-15" x="401.557617" y="425.883789"/>
</g>
<g style="fill:rgb(0%,0%,0%);fill-opacity:1;">
  <use xlink:href="#glyph1-1" x="193.613281" y="441.147461"/>
  <use xlink:href="#glyph1-2" x="199.058594" y="441.147461"/>
  <use xlink:href="#glyph1-3" x="202.116211" y="441.147461"/>
  <use xlink:href="#glyph1-2" x="208.232422" y="441.147461"/>
  <use xlink:href="#glyph1-4" x="211.290039" y="441.147461"/>
  <use xlink:href="#glyph1-5" x="214.953125" y="441.147461"/>
  <use xlink:href="#glyph1-6" x="220.453125" y="441.147461"/>
  <use xlink:href="#glyph1-7" x="226.569336" y="441.147461"/>
  <use xlink:href="#glyph1-8" x="232.685547" y="441.147461"/>
  <use xlink:href="#glyph1-2" x="238.801758" y="441.147461"/>
  <use xlink:href="#glyph1-9" x="241.859375" y="441.147461"/>
  <use xlink:href="#glyph1-10" x="245.522461" y="441.147461"/>
  <use xlink:href="#glyph1-1" x="248.580078" y="441.147461"/>
  <use xlink:href="#glyph1-7" x="254.080078" y="441.147461"/>
  <use xlink:href="#glyph1-11" x="260.196289" y="441.147461"/>
  <use xlink:href="#glyph1-4" x="269.359375" y="441.147461"/>
  <use xlink:href="#glyph1-1" x="273.022461" y="441.147461"/>
  <use xlink:href="#glyph1-2" x="278.467773" y="441.147461"/>
  <use xlink:href="#glyph1-3" x="281.525391" y="441.147461"/>
  <use xlink:href="#glyph1-2" x="287.641602" y="441.147461"/>
  <use xlink:href="#glyph1-4" x="290.699219" y="441.147461"/>
  <use xlink:href="#glyph1-5" x="294.362305" y="441.147461"/>
  <use xlink:href="#glyph1-6" x="299.862305" y="441.147461"/>
  <use xlink:href="#glyph1-7" x="305.978516" y="441.147461"/>
  <use xlink:href="#glyph1-8" x="312.094727" y="441.147461"/>
  <use xlink:href="#glyph1-2" x="318.210938" y="441.147461"/>
  <use xlink:href="#glyph1-9" x="321.268555" y="441.147461"/>
  <use xlink:href="#glyph1-9" x="324.931641" y="441.147461"/>
</g>
<g style="fill:rgb(0%,0%,0%);fill-opacity:1;">
  <use xlink:href="#glyph2-1" x="14.108398" y="219.664062"/>
  <use xlink:href="#glyph2-2" x="14.108398" y="214.164062"/>
  <use xlink:href="#glyph2-3" x="14.108398" y="208.047852"/>
  <use xlink:href="#glyph2-4" x="14.108398" y="204.054688"/>
</g>
<path style=" stroke:none;fill-rule:nonzero;fill:rgb(97.254902%,46.27451%,42.745098%);fill-opacity:1;" d="M 459.21875 183.535156 L 475.082031 183.535156 L 475.082031 167.671875 L 459.21875 167.671875 Z M 459.21875 183.535156 "/>
<path style=" stroke:none;fill-rule:nonzero;fill:rgb(63.921569%,64.705882%,0%);fill-opacity:1;" d="M 459.21875 200.816406 L 475.082031 200.816406 L 475.082031 184.953125 L 459.21875 184.953125 Z M 459.21875 200.816406 "/>
<path style=" stroke:none;fill-rule:nonzero;fill:rgb(0%,74.901961%,49.019608%);fill-opacity:1;" d="M 459.21875 218.097656 L 475.082031 218.097656 L 475.082031 202.234375 L 459.21875 202.234375 Z M 459.21875 218.097656 "/>
<path style=" stroke:none;fill-rule:nonzero;fill:rgb(0%,69.019608%,96.470588%);fill-opacity:1;" d="M 459.21875 235.375 L 475.082031 235.375 L 475.082031 219.511719 L 459.21875 219.511719 Z M 459.21875 235.375 "/>
<path style=" stroke:none;fill-rule:nonzero;fill:rgb(90.588235%,41.960784%,95.294118%);fill-opacity:1;" d="M 459.21875 252.65625 L 475.082031 252.65625 L 475.082031 236.792969 L 459.21875 236.792969 Z M 459.21875 252.65625 "/>
<g style="fill:rgb(0%,0%,0%);fill-opacity:1;">
  <use xlink:href="#glyph0-19" x="475.792969" y="178.208008"/>
  <use xlink:href="#glyph0-11" x="480.193359" y="178.208008"/>
  <use xlink:href="#glyph0-12" x="484.954102" y="178.208008"/>
</g>
<g style="fill:rgb(0%,0%,0%);fill-opacity:1;">
  <use xlink:href="#glyph0-7" x="475.792969" y="195.485352"/>
  <use xlink:href="#glyph0-2" x="483.123047" y="195.485352"/>
  <use xlink:href="#glyph0-20" x="487.927734" y="195.485352"/>
  <use xlink:href="#glyph0-21" x="490.330078" y="195.485352"/>
  <use xlink:href="#glyph0-22" x="495.046875" y="195.485352"/>
  <use xlink:href="#glyph0-3" x="499.40332" y="195.485352"/>
  <use xlink:href="#glyph0-10" x="501.356445" y="195.485352"/>
  <use xlink:href="#glyph0-20" x="506.249023" y="195.485352"/>
  <use xlink:href="#glyph0-9" x="508.695312" y="195.485352"/>
  <use xlink:href="#glyph0-4" x="510.648438" y="195.485352"/>
  <use xlink:href="#glyph0-11" x="515.541016" y="195.485352"/>
</g>
<g style="fill:rgb(0%,0%,0%);fill-opacity:1;">
  <use xlink:href="#glyph0-7" x="475.792969" y="212.766602"/>
  <use xlink:href="#glyph0-23" x="483.123047" y="212.766602"/>
  <use xlink:href="#glyph0-11" x="486.053711" y="212.766602"/>
  <use xlink:href="#glyph0-10" x="490.946289" y="212.766602"/>
</g>
<g style="fill:rgb(0%,0%,0%);fill-opacity:1;">
  <use xlink:href="#glyph0-7" x="475.792969" y="230.047852"/>
  <use xlink:href="#glyph0-24" x="483.123047" y="230.047852"/>
  <use xlink:href="#glyph0-20" x="488.015625" y="230.047852"/>
  <use xlink:href="#glyph0-10" x="490.461914" y="230.047852"/>
  <use xlink:href="#glyph0-20" x="495.354492" y="230.047852"/>
  <use xlink:href="#glyph0-9" x="497.800781" y="230.047852"/>
  <use xlink:href="#glyph0-4" x="499.753906" y="230.047852"/>
  <use xlink:href="#glyph0-11" x="504.646484" y="230.047852"/>
</g>
<g style="fill:rgb(0%,0%,0%);fill-opacity:1;">
  <use xlink:href="#glyph0-23" x="475.792969" y="247.325195"/>
  <use xlink:href="#glyph0-25" x="478.811523" y="247.325195"/>
  <use xlink:href="#glyph0-25" x="483.704102" y="247.325195"/>
  <use xlink:href="#glyph0-10" x="488.59668" y="247.325195"/>
</g>
</g>
</svg>
