%!PS-Adobe-3.0 EPSF-3.0
%%Creator: cairo 1.14.6 (http://cairographics.org)
%%CreationDate: Wed Apr 19 16:06:03 2017
%%Pages: 1
%%DocumentData: Clean7Bit
%%LanguageLevel: 2
%%BoundingBox: 0 0 266 59
%%EndComments
%%BeginProlog
save
50 dict begin
/q { gsave } bind def
/Q { grestore } bind def
/cm { 6 array astore concat } bind def
/w { setlinewidth } bind def
/J { setlinecap } bind def
/j { setlinejoin } bind def
/M { setmiterlimit } bind def
/d { setdash } bind def
/m { moveto } bind def
/l { lineto } bind def
/c { curveto } bind def
/h { closepath } bind def
/re { exch dup neg 3 1 roll 5 3 roll moveto 0 rlineto
      0 exch rlineto 0 rlineto closepath } bind def
/S { stroke } bind def
/f { fill } bind def
/f* { eofill } bind def
/n { newpath } bind def
/W { clip } bind def
/W* { eoclip } bind def
/BT { } bind def
/ET { } bind def
/pdfmark where { pop globaldict /?pdfmark /exec load put }
    { globaldict begin /?pdfmark /pop load def /pdfmark
    /cleartomark load def end } ifelse
/BDC { mark 3 1 roll /BDC pdfmark } bind def
/EMC { mark /EMC pdfmark } bind def
/cairo_store_point { /cairo_point_y exch def /cairo_point_x exch def } def
/Tj { show currentpoint cairo_store_point } bind def
/TJ {
  {
    dup
    type /stringtype eq
    { show } { -0.001 mul 0 cairo_font_matrix dtransform rmoveto } ifelse
  } forall
  currentpoint cairo_store_point
} bind def
/cairo_selectfont { cairo_font_matrix aload pop pop pop 0 0 6 array astore
    cairo_font exch selectfont cairo_point_x cairo_point_y moveto } bind def
/Tf { pop /cairo_font exch def /cairo_font_matrix where
      { pop cairo_selectfont } if } bind def
/Td { matrix translate cairo_font_matrix matrix concatmatrix dup
      /cairo_font_matrix exch def dup 4 get exch 5 get cairo_store_point
      /cairo_font where { pop cairo_selectfont } if } bind def
/Tm { 2 copy 8 2 roll 6 array astore /cairo_font_matrix exch def
      cairo_store_point /cairo_font where { pop cairo_selectfont } if } bind def
/g { setgray } bind def
/rg { setrgbcolor } bind def
/d1 { setcachedevice } bind def
%%EndProlog
%%BeginSetup
%%EndSetup
%%Page: 1 1
%%BeginPageSetup
%%PageBoundingBox: 0 0 266 59
%%EndPageSetup
q 0 0 266 59 rectclip q
1 g
6.4 w
0 J
1 j
[] 0.0 d
4 M q 0 -1 -1 0 0 58.17746 cm
45.039 -24.238 m 45.039 -12.754 35.727 -3.441 24.238 -3.441 c 12.754 -3.441
 3.441 -12.754 3.441 -24.238 c 3.441 -35.727 12.754 -45.039 24.238 -45.039
 c 35.727 -45.039 45.039 -35.727 45.039 -24.238 c h
45.039 -24.238 m S Q
q 0 -1 -1 0 0 58.17746 cm
54.738 -241.625 m 54.738 -230.137 45.426 -220.824 33.938 -220.824 c 22.449
 -220.824 13.137 -230.137 13.137 -241.625 c 13.137 -253.113 22.449 -262.426
 33.938 -262.426 c 45.426 -262.426 54.738 -253.113 54.738 -241.625 c h
54.738 -241.625 m S Q
0 j
q 0 -1 -1 0 0 58.17746 cm
32.32 -222.23 m 28.281 -46.867 l S Q
Q Q
showpage
%%Trailer
end restore
%%EOF
